﻿EU Local Number,Report Type,EV Gateway Receipt Date,Primary Source Qualification,Primary Source Country for Regulatory Purposes,Literature Reference,Patient Age Group,Patient Age Group (as per reporter),Parent Child Report,Patient Sex,Reaction List PT (Duration – Outcome - Seriousness Criteria),Suspect/interacting Drug List (Drug Char - Indication PT - Action taken - [Duration - Dose - Route]),Concomitant/Not Administered Drug List (Drug Char - Indication PT - Action taken - [Duration - Dose - Route]),ICSR Form
EU-EC-10018793350,Spontaneous,2025-02-04 00:00:00,Non Healthcare Professional,Non European Economic Area,Not available,18-64 Years,Not Specified,No,Female,"Mesenteric vein thrombosis (n/a - Not Recovered/Not Resolved - Disabling, Other Medically Important Condition),<BR><BR>Mesenteric venous occlusion (n/a - Not Recovered/Not Resolved - Disabling)","[ALUMINIUM PHOSPHATE, ALUMINIUM, DIPHTHERIA TOXOID ADSORBED ON ALUMINIUM HYDROXIDE, HYDRATED AND ALUMINIUM PHOSPHATE, TETANUS TOXOID ADSORBED ON ALUMINIUM HYDROXIDE, HYDRATED AND ALUMINIUM PHOSPHATE, PERTUSSIS TOXOID ADSORBED ON ALUMINIUM HYDROXIDE, HYDRATED AND ALUMINIUM PHOSPHATE, PERTUSSIS PERTACTIN ADSORBED ON ALUMINIUM HYDROXIDE, HYDRATED AND ALUMINIUM PHOSPHATE, PERTUSSIS FILAMENTOUS HAEMAGGLUTININ ON ALUMINIUM HYDROXIDE, HYDRATED AND ALUMINIUM PHOSPHATE, ALUMINIUM PHOSPHATE, DIPHTHERIA TOXOID ADSORBED ON ALUMINIUM HYDROXIDE, HYDRATED AND ALUMINIUM PHOSPHATE, TETANUS TOXOID ADSORBED ON ALUMINIUM HYDROXIDE, HYDRATED AND ALUMINIUM PHOSPHATE, PERTUSSIS TOXOID ADSORBED ON ALUMINIUM HYDROXIDE, HYDRATED AND ALUMINIUM PHOSPHATE, PERTUSSIS PERTACTIN ADSORBED ON ALUMINIUM HYDROXIDE, HYDRATED AND ALUMINIUM PHOSPHATE, PERTUSSIS FILAMENTOUS HAEMAGGLUTININ ON ALUMINIUM HYDROXIDE, HYDRATED AND ALUMINIUM PHOSPHATE, ALGELDRATE, ALUMINIUM PHOSPHATE, DIPHTHERIA TOXOID ADSORBED ON ALUMINIUM HYDROXIDE, HYDRATED AND ALUMINIUM PHOSPHATE, TETANUS TOXOID ADSORBED ON ALUMINIUM HYDROXIDE, HYDRATED AND ALUMINIUM PHOSPHATE, PERTUSSIS TOXOID ADSORBED ON ALUMINIUM HYDROXIDE, HYDRATED AND ALUMINIUM PHOSPHATE, PERTUSSIS PERTACTIN ADSORBED ON ALUMINIUM HYDROXIDE, HYDRATED AND ALUMINIUM PHOSPHATE, PERTUSSIS FILAMENTOUS HAEMAGGLUTININ, ALGELDRATE, ALUMINIUM PHOSPHATE, DIPHTHERIA TOXOID, TETANUS TOXOID, PERTUSSIS TOXOID, PERTUSSIS FILAMENTOUS HAEMAGGLUTININ, PERTUSSIS PERTACTIN, ALGELDRATE, ALUMINIUM PHOSPHATE, DIPHTHERIA TOXOID, TETANUS TOXOID, PERTUSSIS TOXOID, PERTUSSIS PERTACTIN, ALGELDRATE, FILAMENTOUS HAEMAGGLUTININ, DIPHTHERIA TOXOID, TETANUS TOXOID, PERTUSSIS TOXOID, PERTUSSIS FILAMENTOUS HAEMAGGLUTININ, PERTUSSIS PERTACTIN, DIPHTHERIA TOXOID, TETANUS TOXOID, PERTUSSIS TOXOID, PERTUSSIS PERTACTIN, BORDETELLA PERTUSSIS (INACTIVATED) ADSORBED] (S - Prophylaxis - Not applicable - [n/a - n/a - Intramuscular use]),<BR><BR>[SARS-COV-2, SPIKE PROTEIN, RECOMBINANT, EXPRESSED IN SF9 CELLS DERIVED FROM SPODOPTERA FRUGIPERDA] (S - COVID-19 immunisation - Not applicable - [n/a - n/a - Intramuscular use])","AZATHIOPRINE [AZATHIOPRINE] (C - Product used for unknown indication - Unknown - [n/a - n/a - n/a]),<BR><BR>SPIRONOLACTONE [SPIRONOLACTONE] (C - Product used for unknown indication - Unknown - [n/a - n/a - n/a]),<BR><BR>[FUROSEMIDE, FUROSEMIDE SODIUM] (C - Product used for unknown indication - Unknown - [n/a - n/a - n/a]),<BR><BR>[PREDNISONE] (C - Product used for unknown indication - Unknown - [n/a - n/a - n/a])","<a target=""_blank"" href=""https://dap.ema.europa.eu/xmlpserver/PHV%20DAP/Reports/ICSR.xdo?_xpf=&_xt=form&SR_ID=10018793350&_xpt=1&_xf=pdf"">ICSR</a>"
EU-EC-10018759981,Spontaneous,2025-01-29 00:00:00,Non Healthcare Professional,European Economic Area,Not available,Not Specified,Foetus,Yes,Male,Bone development abnormal (n/a - Not Recovered/Not Resolved - ),"NUVAXOVID [SARS-COV-2 RECOMBINANT SPIKE PROTEIN NOS, SARS-COV-2, SPIKE PROTEIN, RECOMBINANT, EXPRESSED IN SF9 CELLS DERIVED FROM SPODOPTERA FRUGIPERDA, MATRIX M] (S - Immunisation - n/a - [n/a - n/a - Transplacental])",Not reported,"<a target=""_blank"" href=""https://dap.ema.europa.eu/xmlpserver/PHV%20DAP/Reports/ICSR.xdo?_xpf=&_xt=form&SR_ID=10018759981&_xpt=1&_xf=pdf"">ICSR</a>"
EU-EC-10018754803,Spontaneous,2025-01-28 00:00:00,Healthcare Professional,European Economic Area,Not available,65-85 Years,Elderly,No,Female,"Motor dysfunction (n/a - Not Recovered/Not Resolved - Disabling),<BR><BR>Myelitis transverse (n/a - Not Recovered/Not Resolved - Disabling),<BR><BR>Paraesthesia (n/a - Not Recovered/Not Resolved - Other Medically Important Condition)","[SARS-COV-2, SPIKE PROTEIN, RECOMBINANT, EXPRESSED IN SF9 CELLS DERIVED FROM SPODOPTERA FRUGIPERDA] (S - COVID-19 immunisation - Not applicable - [n/a - 1{DF} - Intramuscular use])",Not reported,"<a target=""_blank"" href=""https://dap.ema.europa.eu/xmlpserver/PHV%20DAP/Reports/ICSR.xdo?_xpf=&_xt=form&SR_ID=10018754803&_xpt=1&_xf=pdf"">ICSR</a>"
EU-EC-10018756820,Spontaneous,2025-01-28 00:00:00,Non Healthcare Professional,Non European Economic Area,Not available,65-85 Years,Not Specified,No,Female,"Feeling abnormal (n/a - Not Recovered/Not Resolved - Caused/Prolonged Hospitalisation),<BR><BR>Injection site bruising (n/a - Not Recovered/Not Resolved - Caused/Prolonged Hospitalisation),<BR><BR>Malaise (n/a - Not Recovered/Not Resolved - Caused/Prolonged Hospitalisation),<BR><BR>Nausea (n/a - Not Recovered/Not Resolved - Caused/Prolonged Hospitalisation),<BR><BR>Personality change (n/a - Not Recovered/Not Resolved - Caused/Prolonged Hospitalisation),<BR><BR>Vomiting (n/a - Not Recovered/Not Resolved - Caused/Prolonged Hospitalisation)","AREXVY [STIMULON, RESPIRATORY SYNCYTIAL VIRUS, GLYCOPROTEIN F, RECOMBINANT, STABILISED IN THE PRE-FUSION CONFORMATION, ADJUVANTED WITH AS01E, 3-O-DESACYL-4'-MONOPHOSPHORYL LIPID A] (S - Prophylaxis - Not applicable - [n/a - n/a - Intramuscular use]),<BR><BR>FLUAD [A/BRISBANE/59/2007 (H1N1)-LIKE STRAIN (A/BRISBANE/59/2007 REASS. IVR-148), A/BRISBANE/10/2007 (H3N2)-LIKE STRAIN (A/URUGUAY/716/2007 REASS. NYMC X-175C), B/BRISBANE/60/2008-LIKE VIRUS, A/BRISBANE/59/2007 (H1N1)-LIKE STRAIN (A/BRISBANE/59/2007 REASS. IVR-148), A/BRISBANE/10/2007 (H3N2)-LIKE STRAIN (A/URUGUAY/716/2007 REASS. NYMC X-175C), B/FLORIDA/4/2006-LIKE STRAIN (B/FLORIDA/4/2006), A/NEW CALEDONIA/20/99 (H1N1) - LIKE STRAIN (A/NEW CALEDONIA/20/99 REASS. IVR-116), B/MALAYSIA/2506/2004 - LIKE STRAIN (B/MALAYSIA/2506/2004), A/WISCONSIN/67/2005 (H3N2) - LIKE STRAIN (A/HIROSHIMA/52/2005 REASS. IVR-142), ANTIGENS OF THE INFLUENZA VIRUS A/CALIFORNIA/7/2009 (H1N1)-LIKE VIRUS PDM09, ANTIGENS OF THE INFLUENZA VIRUS A/VICTORIA/361/2011 (H3N2)-LIKE VIRUS, ANTIGENS OF THE INFLUENZA VIRUS B/WISCONSIN/1/2010-LIKE VIRUS, B/BRISBANE/60/2008-LIKE VIRUS, A/PERTH/16/2009 (H3N2) - LIKE STRAIN (A/VICTORIA/210/2009 REASS. NYMC X-187), A/CALIFORNIA/7/2009 (H1N1)-DERIVED STRAIN USED NYMC X-181, B/MALAYSIA/2506/2004 - LIKE STRAIN (B/MALAYSIA/2506/2004), A/WISCONSIN/67/2005 (H3N2) - LIKE STRAIN (A/WISCONSIN/67/2005 REASS. NYMC X-161-B), A/SOLOMON ISLANDS/3/2006 (H1N1) - LIKE STRAIN (A/SOLOMON ISLANDS/3/2006 REASS. IVR-145), INFLUENZA VIRUS B/AUSTRIA/1359417/2021-LIKE STRAIN (B/AUSTRIA/1359417/2021, BVR-26), A/DARWIN/9/2021 (H3N2) - LIKE STRAIN (A/DARWIN/6/2021, IVR-227), MF59C.1, INFLUENZA A/VICTORIA/4897/2022 IVR-238 (H1N1), INACTIVATED, SORBITAN TRIOLEATE, POLYSORBATE 80, SODIUM CITRATE, A/HONG KONG/2671/2019 (H3N2) - LIKE VIRUS (A/HONG KONG/2671/2019, IVR-208), B/WASHINGTON/02/2019-LIKE VIRUS (B/VICTORIA/705/2018 BVR-11), A/GUANDONG-MAONAN/SWL1536/2019 (H1N1)PDM09-LIKE VIRUS (A/VICTORIA/2454/2019 IVR-207), SQUALENE, CITRIC ACID, SORBITAN TRIOLEATE, POLYSORBATE 80, SODIUM CITRATE, B/COLORADO/06/2017-LIKE VIRUS (B/VICTORIA/2/87 LINEAGE) (B/MARYLAND/15/2016, NYMC BX-69A), A/BRISBANE/02/2018 (H1N1)PDM09-LIKE VIRUS (A/BRISBANE/02/2018, IVR-190), A/KANSAS/14/2017 (H3N2)-LIKE VIRUS (A/KANSAS/14/2017, NYMC X-327), SQUALENE, CITRIC ACID, SORBITAN TRIOLEATE, POLYSORBATE 80, SODIUM CITRATE, CITRIC ACID ANHYDROUS, A/HONG KONG/2671/2019 (H3N2) - LIKE VIRUS (A/HONG KONG/2671/2019, IVR-208), B/WASHINGTON/02/2019-LIKE VIRUS (B/VICTORIA/705/2018 BVR-11), A/GUANDONG-MAONAN/SWL1536/2019 (H1N1)PDM09-LIKE VIRUS (A/VICTORIA/2454/2019 IVR-207), SQUALENE, SORBITAN TRIOLEATE, POLYSORBATE 80, SODIUM CITRATE, CITRIC ACID ANHYDROUS, A/SWITZERLAND/9715293/2013 (H3N2)-LIKE STRAIN (A/SWITZERLAND/9715293/2013, NIB-88), B/BRISBANE/9/2014 (WILD TYPE), SQUALENE, A/CALIFORNIA/7/2009 (H1N1)PDM09-DERIVED STRAIN USED (NYMC X-181), SORBITAN TRIOLEATE, POLYSORBATE 80, SODIUM CITRATE, CITRIC ACID ANHYDROUS, B/COLORADO/06/2017-LIKE VIRUS (B/VICTORIA/2/87 LINEAGE) (B/MARYLAND/15/2016, NYMC BX-69A), A/BRISBANE/02/2018 (H1N1)PDM09-LIKE VIRUS (A/BRISBANE/02/2018, IVR-190), A/KANSAS/14/2017 (H3N2)-LIKE VIRUS (A/KANSAS/14/2017, NYMC X-327), SQUALENE, SORBITAN TRIOLEATE, POLYSORBATE 80, SODIUM CITRATE, CITRIC ACID ANHYDROUS, B/MASSACHUSETTS/2/2012-LIKE STRAIN USED B/MASSACHUSETTS/2/2012 WILD TYPE, A/TEXAS/50/2012 (H3N2) – DERIVED STRAIN USED (NYMC X-223), SQUALENE, A/CALIFORNIA/7/2009 (H1N1)PDM09-DERIVED STRAIN USED (NYMC X-181)] (S - Prophylaxis - Not applicable - [n/a - n/a - Intramuscular use]),<BR><BR>[SARS-COV-2, SPIKE PROTEIN, RECOMBINANT, EXPRESSED IN SF9 CELLS DERIVED FROM SPODOPTERA FRUGIPERDA] (S - Prophylaxis - Not applicable - [n/a - .5mL - Intramuscular use])","INCRUSE ELLIPTA [UMECLIDINIUM BROMIDE] (C - Product used for unknown indication - Unknown - [n/a - n/a - n/a]),<BR><BR>PRAMIPEXOLE [PRAMIPEXOLE, PRAMIPEXOLE DIHYDROCHLORIDE MONOHYDRATE] (C - Product used for unknown indication - Unknown - [n/a - n/a - n/a]),<BR><BR>[ACETYLSALICYLIC ACID] (C - Product used for unknown indication - Unknown - [n/a - n/a - n/a]),<BR><BR>[POTASSIUM CHLORIDE] (C - Product used for unknown indication - Unknown - [n/a - n/a - n/a])","<a target=""_blank"" href=""https://dap.ema.europa.eu/xmlpserver/PHV%20DAP/Reports/ICSR.xdo?_xpf=&_xt=form&SR_ID=10018756820&_xpt=1&_xf=pdf"">ICSR</a>"
EU-EC-10018707559,Spontaneous,2025-01-21 00:00:00,Non Healthcare Professional,European Economic Area,Not available,65-85 Years,Not Specified,No,Male,"Neuropathy peripheral (n/a - Not Recovered/Not Resolved - Disabling, Other Medically Important Condition)","NUVAXOVID [SARS-COV-2 RECOMBINANT SPIKE PROTEIN NOS, SARS-COV-2, SPIKE PROTEIN, RECOMBINANT, EXPRESSED IN SF9 CELLS DERIVED FROM SPODOPTERA FRUGIPERDA, MATRIX M] (S - COVID-19 immunisation - Not applicable - [n/a - 1{DF} - Intramuscular use])","[DUTASTERIDE] (C - n/a - n/a - [n/a - .5mg - n/a]),<BR><BR>[MONTELUKAST, MONTELUKAST SODIUM] (C - n/a - n/a - [n/a - 10mg - n/a]),<BR><BR>[RUPATADINE] (C - n/a - n/a - [n/a - 10mg - n/a]),<BR><BR>[TERAZOSIN] (C - n/a - n/a - [n/a - 5mg - n/a])","<a target=""_blank"" href=""https://dap.ema.europa.eu/xmlpserver/PHV%20DAP/Reports/ICSR.xdo?_xpf=&_xt=form&SR_ID=10018707559&_xpt=1&_xf=pdf"">ICSR</a>"
EU-EC-10018711316,Spontaneous,2025-01-21 00:00:00,Non Healthcare Professional,Non European Economic Area,Not available,65-85 Years,Not Specified,No,Female,"Feeling abnormal (n/a - Not Recovered/Not Resolved - Caused/Prolonged Hospitalisation),<BR><BR>Injection site bruising (n/a - Not Recovered/Not Resolved - Caused/Prolonged Hospitalisation),<BR><BR>Malaise (n/a - Not Recovered/Not Resolved - Caused/Prolonged Hospitalisation),<BR><BR>Nausea (n/a - Not Recovered/Not Resolved - Caused/Prolonged Hospitalisation),<BR><BR>Personality change (n/a - Not Recovered/Not Resolved - Caused/Prolonged Hospitalisation),<BR><BR>Vomiting (n/a - Not Recovered/Not Resolved - Caused/Prolonged Hospitalisation)","AREXVY [STIMULON, RESPIRATORY SYNCYTIAL VIRUS, GLYCOPROTEIN F, RECOMBINANT, STABILISED IN THE PRE-FUSION CONFORMATION, ADJUVANTED WITH AS01E, 3-O-DESACYL-4'-MONOPHOSPHORYL LIPID A] (S - Product used for unknown indication - Not applicable - [n/a - 1{DF} - Intramuscular use]),<BR><BR>FLUAD [A/BRISBANE/59/2007 (H1N1)-LIKE STRAIN (A/BRISBANE/59/2007 REASS. IVR-148), A/BRISBANE/10/2007 (H3N2)-LIKE STRAIN (A/URUGUAY/716/2007 REASS. NYMC X-175C), B/BRISBANE/60/2008-LIKE VIRUS, A/BRISBANE/59/2007 (H1N1)-LIKE STRAIN (A/BRISBANE/59/2007 REASS. IVR-148), A/BRISBANE/10/2007 (H3N2)-LIKE STRAIN (A/URUGUAY/716/2007 REASS. NYMC X-175C), B/FLORIDA/4/2006-LIKE STRAIN (B/FLORIDA/4/2006), A/NEW CALEDONIA/20/99 (H1N1) - LIKE STRAIN (A/NEW CALEDONIA/20/99 REASS. IVR-116), B/MALAYSIA/2506/2004 - LIKE STRAIN (B/MALAYSIA/2506/2004), A/WISCONSIN/67/2005 (H3N2) - LIKE STRAIN (A/HIROSHIMA/52/2005 REASS. IVR-142), ANTIGENS OF THE INFLUENZA VIRUS A/CALIFORNIA/7/2009 (H1N1)-LIKE VIRUS PDM09, ANTIGENS OF THE INFLUENZA VIRUS A/VICTORIA/361/2011 (H3N2)-LIKE VIRUS, ANTIGENS OF THE INFLUENZA VIRUS B/WISCONSIN/1/2010-LIKE VIRUS, B/BRISBANE/60/2008-LIKE VIRUS, A/PERTH/16/2009 (H3N2) - LIKE STRAIN (A/VICTORIA/210/2009 REASS. NYMC X-187), A/CALIFORNIA/7/2009 (H1N1)-DERIVED STRAIN USED NYMC X-181, B/MALAYSIA/2506/2004 - LIKE STRAIN (B/MALAYSIA/2506/2004), A/WISCONSIN/67/2005 (H3N2) - LIKE STRAIN (A/WISCONSIN/67/2005 REASS. NYMC X-161-B), A/SOLOMON ISLANDS/3/2006 (H1N1) - LIKE STRAIN (A/SOLOMON ISLANDS/3/2006 REASS. IVR-145), INFLUENZA VIRUS B/AUSTRIA/1359417/2021-LIKE STRAIN (B/AUSTRIA/1359417/2021, BVR-26), A/DARWIN/9/2021 (H3N2) - LIKE STRAIN (A/DARWIN/6/2021, IVR-227), MF59C.1, INFLUENZA A/VICTORIA/4897/2022 IVR-238 (H1N1), INACTIVATED, SORBITAN TRIOLEATE, POLYSORBATE 80, SODIUM CITRATE, A/HONG KONG/2671/2019 (H3N2) - LIKE VIRUS (A/HONG KONG/2671/2019, IVR-208), B/WASHINGTON/02/2019-LIKE VIRUS (B/VICTORIA/705/2018 BVR-11), A/GUANDONG-MAONAN/SWL1536/2019 (H1N1)PDM09-LIKE VIRUS (A/VICTORIA/2454/2019 IVR-207), SQUALENE, CITRIC ACID, SORBITAN TRIOLEATE, POLYSORBATE 80, SODIUM CITRATE, B/COLORADO/06/2017-LIKE VIRUS (B/VICTORIA/2/87 LINEAGE) (B/MARYLAND/15/2016, NYMC BX-69A), A/BRISBANE/02/2018 (H1N1)PDM09-LIKE VIRUS (A/BRISBANE/02/2018, IVR-190), A/KANSAS/14/2017 (H3N2)-LIKE VIRUS (A/KANSAS/14/2017, NYMC X-327), SQUALENE, CITRIC ACID, SORBITAN TRIOLEATE, POLYSORBATE 80, SODIUM CITRATE, CITRIC ACID ANHYDROUS, A/HONG KONG/2671/2019 (H3N2) - LIKE VIRUS (A/HONG KONG/2671/2019, IVR-208), B/WASHINGTON/02/2019-LIKE VIRUS (B/VICTORIA/705/2018 BVR-11), A/GUANDONG-MAONAN/SWL1536/2019 (H1N1)PDM09-LIKE VIRUS (A/VICTORIA/2454/2019 IVR-207), SQUALENE, SORBITAN TRIOLEATE, POLYSORBATE 80, SODIUM CITRATE, CITRIC ACID ANHYDROUS, A/SWITZERLAND/9715293/2013 (H3N2)-LIKE STRAIN (A/SWITZERLAND/9715293/2013, NIB-88), B/BRISBANE/9/2014 (WILD TYPE), SQUALENE, A/CALIFORNIA/7/2009 (H1N1)PDM09-DERIVED STRAIN USED (NYMC X-181), SORBITAN TRIOLEATE, POLYSORBATE 80, SODIUM CITRATE, CITRIC ACID ANHYDROUS, B/COLORADO/06/2017-LIKE VIRUS (B/VICTORIA/2/87 LINEAGE) (B/MARYLAND/15/2016, NYMC BX-69A), A/BRISBANE/02/2018 (H1N1)PDM09-LIKE VIRUS (A/BRISBANE/02/2018, IVR-190), A/KANSAS/14/2017 (H3N2)-LIKE VIRUS (A/KANSAS/14/2017, NYMC X-327), SQUALENE, SORBITAN TRIOLEATE, POLYSORBATE 80, SODIUM CITRATE, CITRIC ACID ANHYDROUS, B/MASSACHUSETTS/2/2012-LIKE STRAIN USED B/MASSACHUSETTS/2/2012 WILD TYPE, A/TEXAS/50/2012 (H3N2) – DERIVED STRAIN USED (NYMC X-223), SQUALENE, A/CALIFORNIA/7/2009 (H1N1)PDM09-DERIVED STRAIN USED (NYMC X-181)] (S - Influenza immunisation - Not applicable - [n/a - n/a - Intramuscular use]),<BR><BR>[SARS-COV-2, SPIKE PROTEIN, RECOMBINANT, EXPRESSED IN SF9 CELLS DERIVED FROM SPODOPTERA FRUGIPERDA] (S - COVID-19 immunisation - Not applicable - [n/a - n/a - Intramuscular use])","INCRUSE ELLIPTA [UMECLIDINIUM BROMIDE] (C - n/a - n/a - [n/a - n/a - n/a]),<BR><BR>PRAMIPEXOLE [PRAMIPEXOLE, PRAMIPEXOLE DIHYDROCHLORIDE MONOHYDRATE] (C - n/a - n/a - [n/a - n/a - n/a]),<BR><BR>[ACETYLSALICYLIC ACID] (C - n/a - n/a - [n/a - n/a - n/a]),<BR><BR>[POTASSIUM CHLORIDE] (C - n/a - n/a - [n/a - n/a - n/a])","<a target=""_blank"" href=""https://dap.ema.europa.eu/xmlpserver/PHV%20DAP/Reports/ICSR.xdo?_xpf=&_xt=form&SR_ID=10018711316&_xpt=1&_xf=pdf"">ICSR</a>"
EU-EC-10018684805,Spontaneous,2025-01-16 00:00:00,Non Healthcare Professional,Non European Economic Area,Not available,18-64 Years,Not Specified,No,Female,"Abscess limb (n/a - Recovered/Resolved - Life Threatening, Caused/Prolonged Hospitalisation, Other Medically Important Condition),<BR><BR>Acute kidney injury (n/a - Recovered/Resolved - Life Threatening, Caused/Prolonged Hospitalisation, Other Medically Important Condition),<BR><BR>Sepsis (n/a - Recovered/Resolved - Life Threatening, Caused/Prolonged Hospitalisation, Other Medically Important Condition)","[ALUMINIUM PHOSPHATE, ALUMINIUM, DIPHTHERIA TOXOID ADSORBED ON ALUMINIUM HYDROXIDE, HYDRATED AND ALUMINIUM PHOSPHATE, TETANUS TOXOID ADSORBED ON ALUMINIUM HYDROXIDE, HYDRATED AND ALUMINIUM PHOSPHATE, PERTUSSIS TOXOID ADSORBED ON ALUMINIUM HYDROXIDE, HYDRATED AND ALUMINIUM PHOSPHATE, PERTUSSIS PERTACTIN ADSORBED ON ALUMINIUM HYDROXIDE, HYDRATED AND ALUMINIUM PHOSPHATE, PERTUSSIS FILAMENTOUS HAEMAGGLUTININ ON ALUMINIUM HYDROXIDE, HYDRATED AND ALUMINIUM PHOSPHATE, ALUMINIUM PHOSPHATE, DIPHTHERIA TOXOID ADSORBED ON ALUMINIUM HYDROXIDE, HYDRATED AND ALUMINIUM PHOSPHATE, TETANUS TOXOID ADSORBED ON ALUMINIUM HYDROXIDE, HYDRATED AND ALUMINIUM PHOSPHATE, PERTUSSIS TOXOID ADSORBED ON ALUMINIUM HYDROXIDE, HYDRATED AND ALUMINIUM PHOSPHATE, PERTUSSIS PERTACTIN ADSORBED ON ALUMINIUM HYDROXIDE, HYDRATED AND ALUMINIUM PHOSPHATE, PERTUSSIS FILAMENTOUS HAEMAGGLUTININ ON ALUMINIUM HYDROXIDE, HYDRATED AND ALUMINIUM PHOSPHATE, ALGELDRATE, ALUMINIUM PHOSPHATE, DIPHTHERIA TOXOID ADSORBED ON ALUMINIUM HYDROXIDE, HYDRATED AND ALUMINIUM PHOSPHATE, TETANUS TOXOID ADSORBED ON ALUMINIUM HYDROXIDE, HYDRATED AND ALUMINIUM PHOSPHATE, PERTUSSIS TOXOID ADSORBED ON ALUMINIUM HYDROXIDE, HYDRATED AND ALUMINIUM PHOSPHATE, PERTUSSIS PERTACTIN ADSORBED ON ALUMINIUM HYDROXIDE, HYDRATED AND ALUMINIUM PHOSPHATE, PERTUSSIS FILAMENTOUS HAEMAGGLUTININ, ALGELDRATE, ALUMINIUM PHOSPHATE, DIPHTHERIA TOXOID, TETANUS TOXOID, PERTUSSIS TOXOID, PERTUSSIS FILAMENTOUS HAEMAGGLUTININ, PERTUSSIS PERTACTIN, ALGELDRATE, ALUMINIUM PHOSPHATE, DIPHTHERIA TOXOID, TETANUS TOXOID, PERTUSSIS TOXOID, PERTUSSIS PERTACTIN, ALGELDRATE, FILAMENTOUS HAEMAGGLUTININ, DIPHTHERIA TOXOID, TETANUS TOXOID, PERTUSSIS TOXOID, PERTUSSIS FILAMENTOUS HAEMAGGLUTININ, PERTUSSIS PERTACTIN, DIPHTHERIA TOXOID, TETANUS TOXOID, PERTUSSIS TOXOID, PERTUSSIS PERTACTIN, BORDETELLA PERTUSSIS (INACTIVATED) ADSORBED] (S - Prophylaxis - Not applicable - [n/a - n/a - Intramuscular use]),<BR><BR>[INFLUENZA A VIRUS A/CALIFORNIA/7/2009 X-179A (H1N1) HEMAGGLUTININ ANTIGEN (FORMALDEHYDE INACTIVATED), INFLUENZA B VIRUS B/BRISBANE/60/2008 HEMAGGLUTININ ANTIGEN (FORMALDEHYDE INACTIVATED), B/PHUKET/3073/2013-LIKE VIRUS (B/PHUKET/3073/2013, WILD TYPE), A/HONG KONG/4801/2014 (H3N2)-LIKE STRAIN (A/HONG KONG/4801/2014, X-263B), INFLUENZA VIRUS] (S - Prophylaxis - Not applicable - [n/a - n/a - Intramuscular use]),<BR><BR>[SARS-COV-2, SPIKE PROTEIN, RECOMBINANT, EXPRESSED IN SF9 CELLS DERIVED FROM SPODOPTERA FRUGIPERDA] (S - Prophylaxis - Not applicable - [n/a - n/a - Intramuscular use])","BUPRENORPHINE [BUPRENORPHINE] (C - Product used for unknown indication - Unknown - [n/a - n/a - n/a]),<BR><BR>OLANZAPINE [OLANZAPINE] (C - Product used for unknown indication - Unknown - [n/a - n/a - n/a]),<BR><BR>OXYBUTYNIN [OXYBUTYNIN, OXYBUTYNIN HYDROCHLORIDE] (C - Product used for unknown indication - Unknown - [n/a - n/a - n/a]),<BR><BR>[AZELASTINE] (C - Product used for unknown indication - Unknown - [n/a - n/a - n/a]),<BR><BR>[FLUTICASONE PROPIONATE, SALMETEROL XINAFOATE] (C - Product used for unknown indication - Unknown - [n/a - n/a - n/a]),<BR><BR>[MIRTAZAPINE] (C - Product used for unknown indication - Not applicable - [n/a - n/a - n/a]),<BR><BR>[PROPRANOLOL, PROPRANOLOL HYDROCHLORIDE] (C - Product used for unknown indication - Unknown - [n/a - n/a - n/a]),<BR><BR>[SALBUTAMOL, SALBUTAMOL SULFATE] (C - Product used for unknown indication - Unknown - [n/a - n/a - n/a]),<BR><BR>[VENLAFAXINE, VENLAFAXINE HYDROCHLORIDE] (C - Product used for unknown indication - Unknown - [n/a - n/a - n/a])","<a target=""_blank"" href=""https://dap.ema.europa.eu/xmlpserver/PHV%20DAP/Reports/ICSR.xdo?_xpf=&_xt=form&SR_ID=10018684805&_xpt=1&_xf=pdf"">ICSR</a>"
EU-EC-10018661875,Spontaneous,2025-01-10 00:00:00,Non Healthcare Professional,Non European Economic Area,Not available,65-85 Years,Not Specified,No,Female,Death (1d - Fatal - Results in Death),"FLUAD [A/BRISBANE/59/2007 (H1N1)-LIKE STRAIN (A/BRISBANE/59/2007 REASS. IVR-148), A/BRISBANE/10/2007 (H3N2)-LIKE STRAIN (A/URUGUAY/716/2007 REASS. NYMC X-175C), B/BRISBANE/60/2008-LIKE VIRUS, A/BRISBANE/59/2007 (H1N1)-LIKE STRAIN (A/BRISBANE/59/2007 REASS. IVR-148), A/BRISBANE/10/2007 (H3N2)-LIKE STRAIN (A/URUGUAY/716/2007 REASS. NYMC X-175C), B/FLORIDA/4/2006-LIKE STRAIN (B/FLORIDA/4/2006), A/NEW CALEDONIA/20/99 (H1N1) - LIKE STRAIN (A/NEW CALEDONIA/20/99 REASS. IVR-116), B/MALAYSIA/2506/2004 - LIKE STRAIN (B/MALAYSIA/2506/2004), A/WISCONSIN/67/2005 (H3N2) - LIKE STRAIN (A/HIROSHIMA/52/2005 REASS. IVR-142), ANTIGENS OF THE INFLUENZA VIRUS A/CALIFORNIA/7/2009 (H1N1)-LIKE VIRUS PDM09, ANTIGENS OF THE INFLUENZA VIRUS A/VICTORIA/361/2011 (H3N2)-LIKE VIRUS, ANTIGENS OF THE INFLUENZA VIRUS B/WISCONSIN/1/2010-LIKE VIRUS, B/BRISBANE/60/2008-LIKE VIRUS, A/PERTH/16/2009 (H3N2) - LIKE STRAIN (A/VICTORIA/210/2009 REASS. NYMC X-187), A/CALIFORNIA/7/2009 (H1N1)-DERIVED STRAIN USED NYMC X-181, B/MALAYSIA/2506/2004 - LIKE STRAIN (B/MALAYSIA/2506/2004), A/WISCONSIN/67/2005 (H3N2) - LIKE STRAIN (A/WISCONSIN/67/2005 REASS. NYMC X-161-B), A/SOLOMON ISLANDS/3/2006 (H1N1) - LIKE STRAIN (A/SOLOMON ISLANDS/3/2006 REASS. IVR-145), INFLUENZA VIRUS B/AUSTRIA/1359417/2021-LIKE STRAIN (B/AUSTRIA/1359417/2021, BVR-26), A/DARWIN/9/2021 (H3N2) - LIKE STRAIN (A/DARWIN/6/2021, IVR-227), MF59C.1, INFLUENZA A/VICTORIA/4897/2022 IVR-238 (H1N1), INACTIVATED, SORBITAN TRIOLEATE, POLYSORBATE 80, SODIUM CITRATE, A/HONG KONG/2671/2019 (H3N2) - LIKE VIRUS (A/HONG KONG/2671/2019, IVR-208), B/WASHINGTON/02/2019-LIKE VIRUS (B/VICTORIA/705/2018 BVR-11), A/GUANDONG-MAONAN/SWL1536/2019 (H1N1)PDM09-LIKE VIRUS (A/VICTORIA/2454/2019 IVR-207), SQUALENE, CITRIC ACID, SORBITAN TRIOLEATE, POLYSORBATE 80, SODIUM CITRATE, B/COLORADO/06/2017-LIKE VIRUS (B/VICTORIA/2/87 LINEAGE) (B/MARYLAND/15/2016, NYMC BX-69A), A/BRISBANE/02/2018 (H1N1)PDM09-LIKE VIRUS (A/BRISBANE/02/2018, IVR-190), A/KANSAS/14/2017 (H3N2)-LIKE VIRUS (A/KANSAS/14/2017, NYMC X-327), SQUALENE, CITRIC ACID, SORBITAN TRIOLEATE, POLYSORBATE 80, SODIUM CITRATE, CITRIC ACID ANHYDROUS, A/HONG KONG/2671/2019 (H3N2) - LIKE VIRUS (A/HONG KONG/2671/2019, IVR-208), B/WASHINGTON/02/2019-LIKE VIRUS (B/VICTORIA/705/2018 BVR-11), A/GUANDONG-MAONAN/SWL1536/2019 (H1N1)PDM09-LIKE VIRUS (A/VICTORIA/2454/2019 IVR-207), SQUALENE, SORBITAN TRIOLEATE, POLYSORBATE 80, SODIUM CITRATE, CITRIC ACID ANHYDROUS, A/SWITZERLAND/9715293/2013 (H3N2)-LIKE STRAIN (A/SWITZERLAND/9715293/2013, NIB-88), B/BRISBANE/9/2014 (WILD TYPE), SQUALENE, A/CALIFORNIA/7/2009 (H1N1)PDM09-DERIVED STRAIN USED (NYMC X-181), SORBITAN TRIOLEATE, POLYSORBATE 80, SODIUM CITRATE, CITRIC ACID ANHYDROUS, B/COLORADO/06/2017-LIKE VIRUS (B/VICTORIA/2/87 LINEAGE) (B/MARYLAND/15/2016, NYMC BX-69A), A/BRISBANE/02/2018 (H1N1)PDM09-LIKE VIRUS (A/BRISBANE/02/2018, IVR-190), A/KANSAS/14/2017 (H3N2)-LIKE VIRUS (A/KANSAS/14/2017, NYMC X-327), SQUALENE, SORBITAN TRIOLEATE, POLYSORBATE 80, SODIUM CITRATE, CITRIC ACID ANHYDROUS, B/MASSACHUSETTS/2/2012-LIKE STRAIN USED B/MASSACHUSETTS/2/2012 WILD TYPE, A/TEXAS/50/2012 (H3N2) – DERIVED STRAIN USED (NYMC X-223), SQUALENE, A/CALIFORNIA/7/2009 (H1N1)PDM09-DERIVED STRAIN USED (NYMC X-181)] (S - Influenza - Not applicable - [n/a - .5mL - Intramuscular use]),<BR><BR>[SARS-COV-2, SPIKE PROTEIN, RECOMBINANT, EXPRESSED IN SF9 CELLS DERIVED FROM SPODOPTERA FRUGIPERDA] (S - n/a - Not applicable - [n/a - n/a - Intramuscular use])",Not reported,"<a target=""_blank"" href=""https://dap.ema.europa.eu/xmlpserver/PHV%20DAP/Reports/ICSR.xdo?_xpf=&_xt=form&SR_ID=10018661875&_xpt=1&_xf=pdf"">ICSR</a>"
EU-EC-10018642380,Spontaneous,2025-01-07 00:00:00,Non Healthcare Professional,Non European Economic Area,"Clothier Hazel J, Parker Claire, Mallard John H, Effler Paul, Bloomfield Lauren, Carcione Dale, Buttery Jim P. Nuvaxovid NVX-CoV2373 vaccine safety profile: real-world data evidence after 100,000 doses, Australia, 2022 to 2023. Euro Surveill. 2024;29(50):pii=2400164. https://doi.org/10.2807/1560-7917.ES.2024.29.50.2400164",Not Specified,Not Specified,No,Female,Myocarditis (n/a - Unknown - Other Medically Important Condition),"NUVAXOVID [SARS-COV-2 RECOMBINANT SPIKE PROTEIN NOS, SARS-COV-2, SPIKE PROTEIN, RECOMBINANT, EXPRESSED IN SF9 CELLS DERIVED FROM SPODOPTERA FRUGIPERDA, MATRIX M] (S - COVID-19 immunisation - Not applicable - [n/a - n/a - Intramuscular use])",Not reported,"<a target=""_blank"" href=""https://dap.ema.europa.eu/xmlpserver/PHV%20DAP/Reports/ICSR.xdo?_xpf=&_xt=form&SR_ID=10018642380&_xpt=1&_xf=pdf"">ICSR</a>"
EU-EC-10018642401,Spontaneous,2025-01-07 00:00:00,Non Healthcare Professional,Non European Economic Area,"Hazel CJ, Parker C, Mallard JH, Effler P, Bloomfield L, Carcione D, et al. Nuvaxovid NVX-CoV2373 vaccine safety profile:  real-world data evidence after 100,000 doses,  Australia, 2022 to 2023. Nuvaxovid NVX-CoV2373 vaccine safety profile:  real-world data evidence after 100,000 doses,  Australia, 2022 to 2023. 2024 Dec 12;50(2024): 59-59. doi:https://doi.org/10.2807/1560-7917. ES.2024.29.50.2.",Not Specified,Not Specified,No,Male,Myocarditis (n/a - Unknown - Other Medically Important Condition),"NUVAXOVID [SARS-COV-2 RECOMBINANT SPIKE PROTEIN NOS, SARS-COV-2, SPIKE PROTEIN, RECOMBINANT, EXPRESSED IN SF9 CELLS DERIVED FROM SPODOPTERA FRUGIPERDA, MATRIX M] (S - COVID-19 immunisation - Not applicable - [n/a - n/a - Intramuscular use])",Not reported,"<a target=""_blank"" href=""https://dap.ema.europa.eu/xmlpserver/PHV%20DAP/Reports/ICSR.xdo?_xpf=&_xt=form&SR_ID=10018642401&_xpt=1&_xf=pdf"">ICSR</a>"
EU-EC-10018634357,Spontaneous,2025-01-06 00:00:00,Non Healthcare Professional,European Economic Area,Not available,18-64 Years,Not Specified,No,Male,"COVID-19 (n/a - Unknown - Other Medically Important Condition),<BR><BR>Drug ineffective (n/a - Unknown - Other Medically Important Condition),<BR><BR>Interchange of vaccine products (n/a - Unknown - Other Medically Important Condition)","COMIRNATY [TOZINAMERAN] (S - COVID-19 immunisation - Not applicable - [1d - n/a - n/a]),<BR><BR>NUVAXOVID [SARS-COV-2 RECOMBINANT SPIKE PROTEIN NOS, SARS-COV-2, SPIKE PROTEIN, RECOMBINANT, EXPRESSED IN SF9 CELLS DERIVED FROM SPODOPTERA FRUGIPERDA, MATRIX M] (S - COVID-19 immunisation - Not applicable - [1d - n/a - n/a])",Not reported,"<a target=""_blank"" href=""https://dap.ema.europa.eu/xmlpserver/PHV%20DAP/Reports/ICSR.xdo?_xpf=&_xt=form&SR_ID=10018634357&_xpt=1&_xf=pdf"">ICSR</a>"
EU-EC-10018634368,Spontaneous,2025-01-06 00:00:00,Non Healthcare Professional,European Economic Area,Not available,18-64 Years,Not Specified,No,Male,"Abdominal pain upper (n/a - Unknown - ),<BR><BR>Asthenia (n/a - Unknown - ),<BR><BR>Asthma (n/a - Unknown - ),<BR><BR>Congestive hepatopathy (n/a - Unknown - Other Medically Important Condition),<BR><BR>Cor pulmonale (n/a - Unknown - Other Medically Important Condition),<BR><BR>Dizziness (n/a - Unknown - ),<BR><BR>Dyspnoea exertional (n/a - Unknown - ),<BR><BR>Fatigue (n/a - Unknown - ),<BR><BR>General physical health deterioration (n/a - Unknown - ),<BR><BR>Illness (1wk - Recovered/Resolved - ),<BR><BR>Loss of consciousness (n/a - Unknown - Other Medically Important Condition),<BR><BR>Orthostatic intolerance (n/a - Unknown - ),<BR><BR>Pain (n/a - Unknown - ),<BR><BR>Performance status decreased (n/a - Unknown - ),<BR><BR>Postural orthostatic tachycardia syndrome (n/a - Unknown - ),<BR><BR>Pulmonary arterial hypertension (n/a - Not Recovered/Not Resolved - Caused/Prolonged Hospitalisation, Other Medically Important Condition),<BR><BR>Pulmonary function test decreased (n/a - Unknown - ),<BR><BR>Pyrexia (n/a - Recovered/Resolved - ),<BR><BR>Right ventricular failure (n/a - Unknown - Other Medically Important Condition),<BR><BR>Tachycardia (n/a - Unknown - ),<BR><BR>Vaccination site pain (35wk - Recovered/Resolved - )","COMIRNATY [TOZINAMERAN] (S - COVID-19 immunisation - Not applicable - [1d - n/a - n/a]),<BR><BR>NUVAXOVID [SARS-COV-2 RECOMBINANT SPIKE PROTEIN NOS, SARS-COV-2, SPIKE PROTEIN, RECOMBINANT, EXPRESSED IN SF9 CELLS DERIVED FROM SPODOPTERA FRUGIPERDA, MATRIX M] (S - COVID-19 immunisation - Not applicable - [n/a - n/a - n/a])",Not reported,"<a target=""_blank"" href=""https://dap.ema.europa.eu/xmlpserver/PHV%20DAP/Reports/ICSR.xdo?_xpf=&_xt=form&SR_ID=10018634368&_xpt=1&_xf=pdf"">ICSR</a>"
EU-EC-10018634706,Spontaneous,2025-01-06 00:00:00,Non Healthcare Professional,Non European Economic Area,Not available,18-64 Years,Not Specified,No,Female,Syncope (n/a - Recovered/Resolved - Other Medically Important Condition),"FLUCELVAX [B/AUSTRIA/1359417/2021-LIKE STRAIN (B/SINGAPORE/WUH4618/2021), A/DARWIN/6/2021(H3N2)-LIKE STRAIN (A/DARWIN/11/2021, WILD TYPE), A/WISCONSIN/67/2022 (H1N1)PDM09-LIKE STRAIN (A/GEORGIA/12/2022 CVR-167), INFLUENZA A VIRUS A/BRISBANE/10/2010 (H1N1) ANTIGEN (MDCK CELL DERIVED, PROPIOLACTONE INACTIVATED), INFLUENZA A VIRUS A/TEXAS/50/2012 X-223A (H3N2) ANTIGEN (MDCK CELL DERIVED, PROPIOLACTONE INACTIVATED), INFLUENZA B VIRUS B/MASSACHUSETTS/2/2012 ANTIGEN (MDCK CELL DERIVED, PROPIOLACTONE INACTIVATED)] (S - Product used for unknown indication - Not applicable - [n/a - .5mL - Intramuscular use]),<BR><BR>[SARS-COV-2, SPIKE PROTEIN, RECOMBINANT, EXPRESSED IN SF9 CELLS DERIVED FROM SPODOPTERA FRUGIPERDA] (S - COVID-19 immunisation - Not applicable - [n/a - .5mL - Intramuscular use])",Not reported,"<a target=""_blank"" href=""https://dap.ema.europa.eu/xmlpserver/PHV%20DAP/Reports/ICSR.xdo?_xpf=&_xt=form&SR_ID=10018634706&_xpt=1&_xf=pdf"">ICSR</a>"
EU-EC-10018624233,Spontaneous,2025-01-03 00:00:00,Non Healthcare Professional,Non European Economic Area,Not available,18-64 Years,Not Specified,No,Female,"Abdominal pain upper (n/a - Recovered/Resolved - Other Medically Important Condition),<BR><BR>Adnexa uteri cyst (n/a - Unknown - ),<BR><BR>Alanine aminotransferase increased (n/a - Recovered/Resolved - Other Medically Important Condition),<BR><BR>Amylase decreased (n/a - Recovered/Resolved - Other Medically Important Condition),<BR><BR>Aspartate aminotransferase increased (n/a - Recovered/Resolved - Other Medically Important Condition),<BR><BR>Blood alkaline phosphatase increased (n/a - Recovered/Resolved - Other Medically Important Condition),<BR><BR>Decreased appetite (n/a - Recovered/Resolved - Other Medically Important Condition),<BR><BR>Diverticulum intestinal (n/a - Unknown - ),<BR><BR>Gamma-glutamyltransferase increased (n/a - Recovered/Resolved - Other Medically Important Condition),<BR><BR>Gastrointestinal wall thickening (n/a - Unknown - ),<BR><BR>Lymphocyte count decreased (n/a - Recovered/Resolved - Other Medically Important Condition),<BR><BR>Monocyte count decreased (n/a - Recovered/Resolved - Other Medically Important Condition),<BR><BR>Neutrophil count increased (n/a - Recovered/Resolved - Other Medically Important Condition),<BR><BR>Pancreatic cyst (n/a - Unknown - ),<BR><BR>Pancreatitis (n/a - Recovered/Resolved - Other Medically Important Condition),<BR><BR>Sleep disorder (n/a - Unknown - ),<BR><BR>Urine ketone body present (n/a - Recovered/Resolved - Other Medically Important Condition),<BR><BR>White blood cells urine positive (n/a - Recovered/Resolved - Other Medically Important Condition)","FLUCELVAX [B/AUSTRIA/1359417/2021-LIKE STRAIN (B/SINGAPORE/WUH4618/2021), A/DARWIN/6/2021(H3N2)-LIKE STRAIN (A/DARWIN/11/2021, WILD TYPE), A/WISCONSIN/67/2022 (H1N1)PDM09-LIKE STRAIN (A/GEORGIA/12/2022 CVR-167), INFLUENZA A VIRUS A/BRISBANE/10/2010 (H1N1) ANTIGEN (MDCK CELL DERIVED, PROPIOLACTONE INACTIVATED), INFLUENZA A VIRUS A/TEXAS/50/2012 X-223A (H3N2) ANTIGEN (MDCK CELL DERIVED, PROPIOLACTONE INACTIVATED), INFLUENZA B VIRUS B/MASSACHUSETTS/2/2012 ANTIGEN (MDCK CELL DERIVED, PROPIOLACTONE INACTIVATED)] (S - Product used for unknown indication - Not applicable - [n/a - n/a - Intramuscular use]),<BR><BR>[SARS-COV-2, SPIKE PROTEIN, RECOMBINANT, EXPRESSED IN SF9 CELLS DERIVED FROM SPODOPTERA FRUGIPERDA] (S - Product used for unknown indication - Not applicable - [n/a - n/a - Intramuscular use])","[ASCORBIC ACID, MAGNESIUM OXIDE, HEAVY, MAGNESIUM] (C - Product used for unknown indication - n/a - [n/a - 300mg - n/a]),<BR><BR>[COLECALCIFEROL, CALCIUM CARBONATE] (C - Product used for unknown indication - n/a - [n/a - 2000[iU] - n/a]),<BR><BR>[FAMOTIDINE, FAMOTIDINE, CALCIUM CARBONATE, MAGNESIUM HYDROXIDE] (C - Product used for unknown indication - n/a - [n/a - 300mg - n/a]),<BR><BR>[OMEPRAZOLE] (C - Product used for unknown indication - n/a - [n/a - 20mg - n/a])","<a target=""_blank"" href=""https://dap.ema.europa.eu/xmlpserver/PHV%20DAP/Reports/ICSR.xdo?_xpf=&_xt=form&SR_ID=10018624233&_xpt=1&_xf=pdf"">ICSR</a>"
EU-EC-10018626931,Spontaneous,2025-01-03 00:00:00,Non Healthcare Professional,Non European Economic Area,Not available,18-64 Years,Not Specified,No,Female,"Atelectasis (n/a - Not Recovered/Not Resolved - ),<BR><BR>Brugada syndrome (n/a - Not Recovered/Not Resolved - Other Medically Important Condition),<BR><BR>Chest discomfort (n/a - Recovering/Resolving - ),<BR><BR>Chills (n/a - Unknown - ),<BR><BR>Cough (n/a - Recovering/Resolving - ),<BR><BR>Heart rate increased (n/a - Unknown - ),<BR><BR>Hyperhidrosis (n/a - Unknown - ),<BR><BR>Impaired work ability (n/a - Unknown - ),<BR><BR>Insomnia (n/a - Unknown - ),<BR><BR>Pneumonitis (n/a - Unknown - Other Medically Important Condition),<BR><BR>White blood cell count increased (n/a - Unknown - )","[A/HONG KONG/4801/2014 (H3N2)-LIKE STRAIN (A/HONG KONG/4801/2014, X-263B), B/BRISBANE/60/2008-LIKE STRAIN (B/BRISBANE/60/2008, WILD TYPE), A/CALIFORNIA/7/2009 (H1N1)PDM09-DERIVED STRAIN USED (NYMC X-181), A/HONG KONG/4801/2014 (H3N2)-LIKE STRAIN (A/HONG KONG/4801/2014, X-263B), B/BRISBANE/60/2008-LIKE STRAIN (B/BRISBANE/60/2008, WILD TYPE), A/MICHIGAN/45/2015 (H1N1)PDM09-LIKE STRAIN (A/SINGAPORE/GP1908/2015, IVR-180), INFLUENZA VACCINE] (S - Product used for unknown indication - Not applicable - [n/a - n/a - n/a]),<BR><BR>[SARS-COV-2, SPIKE PROTEIN, RECOMBINANT, EXPRESSED IN SF9 CELLS DERIVED FROM SPODOPTERA FRUGIPERDA] (S - Product used for unknown indication - Not applicable - [n/a - n/a - Intramuscular use])",Not reported,"<a target=""_blank"" href=""https://dap.ema.europa.eu/xmlpserver/PHV%20DAP/Reports/ICSR.xdo?_xpf=&_xt=form&SR_ID=10018626931&_xpt=1&_xf=pdf"">ICSR</a>"
EU-EC-10018622222,Spontaneous,2025-01-02 00:00:00,Non Healthcare Professional,Non European Economic Area,Not available,65-85 Years,Not Specified,No,Female,"Asthenia (n/a - Recovered/Resolved - Caused/Prolonged Hospitalisation),<BR><BR>Atrial fibrillation (n/a - Recovered/Resolved - Caused/Prolonged Hospitalisation),<BR><BR>Bacterial infection (n/a - Recovered/Resolved - Caused/Prolonged Hospitalisation),<BR><BR>Decreased appetite (n/a - Recovered/Resolved - Caused/Prolonged Hospitalisation),<BR><BR>Dehydration (n/a - Recovered/Resolved - Caused/Prolonged Hospitalisation),<BR><BR>Dizziness (n/a - Recovered/Resolved - Caused/Prolonged Hospitalisation),<BR><BR>Gait disturbance (n/a - Recovered/Resolved - Caused/Prolonged Hospitalisation),<BR><BR>Headache (n/a - Recovered/Resolved - Caused/Prolonged Hospitalisation),<BR><BR>Hypersensitivity (n/a - Recovered/Resolved - Caused/Prolonged Hospitalisation),<BR><BR>Inflammation (n/a - Recovered/Resolved - Caused/Prolonged Hospitalisation),<BR><BR>Insomnia (n/a - Recovered/Resolved - Caused/Prolonged Hospitalisation),<BR><BR>Nausea (n/a - Recovered/Resolved - Caused/Prolonged Hospitalisation),<BR><BR>Pyrexia (n/a - Recovered/Resolved - Caused/Prolonged Hospitalisation),<BR><BR>Rash (n/a - Recovered/Resolved - Caused/Prolonged Hospitalisation),<BR><BR>Sepsis (n/a - Recovered/Resolved - Caused/Prolonged Hospitalisation),<BR><BR>Skin exfoliation (n/a - Recovered/Resolved - Caused/Prolonged Hospitalisation),<BR><BR>Skin haemorrhage (n/a - Recovered/Resolved - Caused/Prolonged Hospitalisation)","FLUAD [A/BRISBANE/59/2007 (H1N1)-LIKE STRAIN (A/BRISBANE/59/2007 REASS. IVR-148), A/BRISBANE/10/2007 (H3N2)-LIKE STRAIN (A/URUGUAY/716/2007 REASS. NYMC X-175C), B/BRISBANE/60/2008-LIKE VIRUS, A/BRISBANE/59/2007 (H1N1)-LIKE STRAIN (A/BRISBANE/59/2007 REASS. IVR-148), A/BRISBANE/10/2007 (H3N2)-LIKE STRAIN (A/URUGUAY/716/2007 REASS. NYMC X-175C), B/FLORIDA/4/2006-LIKE STRAIN (B/FLORIDA/4/2006), A/NEW CALEDONIA/20/99 (H1N1) - LIKE STRAIN (A/NEW CALEDONIA/20/99 REASS. IVR-116), B/MALAYSIA/2506/2004 - LIKE STRAIN (B/MALAYSIA/2506/2004), A/WISCONSIN/67/2005 (H3N2) - LIKE STRAIN (A/HIROSHIMA/52/2005 REASS. IVR-142), ANTIGENS OF THE INFLUENZA VIRUS A/CALIFORNIA/7/2009 (H1N1)-LIKE VIRUS PDM09, ANTIGENS OF THE INFLUENZA VIRUS A/VICTORIA/361/2011 (H3N2)-LIKE VIRUS, ANTIGENS OF THE INFLUENZA VIRUS B/WISCONSIN/1/2010-LIKE VIRUS, B/BRISBANE/60/2008-LIKE VIRUS, A/PERTH/16/2009 (H3N2) - LIKE STRAIN (A/VICTORIA/210/2009 REASS. NYMC X-187), A/CALIFORNIA/7/2009 (H1N1)-DERIVED STRAIN USED NYMC X-181, B/MALAYSIA/2506/2004 - LIKE STRAIN (B/MALAYSIA/2506/2004), A/WISCONSIN/67/2005 (H3N2) - LIKE STRAIN (A/WISCONSIN/67/2005 REASS. NYMC X-161-B), A/SOLOMON ISLANDS/3/2006 (H1N1) - LIKE STRAIN (A/SOLOMON ISLANDS/3/2006 REASS. IVR-145), INFLUENZA VIRUS B/AUSTRIA/1359417/2021-LIKE STRAIN (B/AUSTRIA/1359417/2021, BVR-26), A/DARWIN/9/2021 (H3N2) - LIKE STRAIN (A/DARWIN/6/2021, IVR-227), MF59C.1, INFLUENZA A/VICTORIA/4897/2022 IVR-238 (H1N1), INACTIVATED, SORBITAN TRIOLEATE, POLYSORBATE 80, SODIUM CITRATE, A/HONG KONG/2671/2019 (H3N2) - LIKE VIRUS (A/HONG KONG/2671/2019, IVR-208), B/WASHINGTON/02/2019-LIKE VIRUS (B/VICTORIA/705/2018 BVR-11), A/GUANDONG-MAONAN/SWL1536/2019 (H1N1)PDM09-LIKE VIRUS (A/VICTORIA/2454/2019 IVR-207), SQUALENE, CITRIC ACID, SORBITAN TRIOLEATE, POLYSORBATE 80, SODIUM CITRATE, B/COLORADO/06/2017-LIKE VIRUS (B/VICTORIA/2/87 LINEAGE) (B/MARYLAND/15/2016, NYMC BX-69A), A/BRISBANE/02/2018 (H1N1)PDM09-LIKE VIRUS (A/BRISBANE/02/2018, IVR-190), A/KANSAS/14/2017 (H3N2)-LIKE VIRUS (A/KANSAS/14/2017, NYMC X-327), SQUALENE, CITRIC ACID, SORBITAN TRIOLEATE, POLYSORBATE 80, SODIUM CITRATE, CITRIC ACID ANHYDROUS, A/HONG KONG/2671/2019 (H3N2) - LIKE VIRUS (A/HONG KONG/2671/2019, IVR-208), B/WASHINGTON/02/2019-LIKE VIRUS (B/VICTORIA/705/2018 BVR-11), A/GUANDONG-MAONAN/SWL1536/2019 (H1N1)PDM09-LIKE VIRUS (A/VICTORIA/2454/2019 IVR-207), SQUALENE, SORBITAN TRIOLEATE, POLYSORBATE 80, SODIUM CITRATE, CITRIC ACID ANHYDROUS, A/SWITZERLAND/9715293/2013 (H3N2)-LIKE STRAIN (A/SWITZERLAND/9715293/2013, NIB-88), B/BRISBANE/9/2014 (WILD TYPE), SQUALENE, A/CALIFORNIA/7/2009 (H1N1)PDM09-DERIVED STRAIN USED (NYMC X-181), SORBITAN TRIOLEATE, POLYSORBATE 80, SODIUM CITRATE, CITRIC ACID ANHYDROUS, B/COLORADO/06/2017-LIKE VIRUS (B/VICTORIA/2/87 LINEAGE) (B/MARYLAND/15/2016, NYMC BX-69A), A/BRISBANE/02/2018 (H1N1)PDM09-LIKE VIRUS (A/BRISBANE/02/2018, IVR-190), A/KANSAS/14/2017 (H3N2)-LIKE VIRUS (A/KANSAS/14/2017, NYMC X-327), SQUALENE, SORBITAN TRIOLEATE, POLYSORBATE 80, SODIUM CITRATE, CITRIC ACID ANHYDROUS, B/MASSACHUSETTS/2/2012-LIKE STRAIN USED B/MASSACHUSETTS/2/2012 WILD TYPE, A/TEXAS/50/2012 (H3N2) – DERIVED STRAIN USED (NYMC X-223), SQUALENE, A/CALIFORNIA/7/2009 (H1N1)PDM09-DERIVED STRAIN USED (NYMC X-181)] (S - Product used for unknown indication - Not applicable - [n/a - 1{DF} - n/a]),<BR><BR>[SARS-COV-2, SPIKE PROTEIN, RECOMBINANT, EXPRESSED IN SF9 CELLS DERIVED FROM SPODOPTERA FRUGIPERDA] (S - Product used for unknown indication - Not applicable - [n/a - 1{DF} - n/a])","[ACETYLSALICYLIC ACID, ACETYLSALICYLIC ACID PH. EUR., ASPIRIN BP] (C - n/a - n/a - [n/a - n/a - n/a]),<BR><BR>[FLECAINIDE, FLECAINIDE ACETATE] (C - n/a - n/a - [n/a - 100mg - n/a - More in ICSR]),<BR><BR>[LOSARTAN, LOSARTAN POTASSIUM] (C - n/a - n/a - [n/a - n/a - n/a]),<BR><BR>[METOPROLOL, METOPROLOL TARTRATE] (C - n/a - n/a - [n/a - n/a - n/a]),<BR><BR>[RABEPRAZOLE, RABEPRAZOLE SODIUM] (C - n/a - n/a - [n/a - n/a - n/a])","<a target=""_blank"" href=""https://dap.ema.europa.eu/xmlpserver/PHV%20DAP/Reports/ICSR.xdo?_xpf=&_xt=form&SR_ID=10018622222&_xpt=1&_xf=pdf"">ICSR</a>"