﻿EU Local Number,Report Type,EV Gateway Receipt Date,Primary Source Qualification,Primary Source Country for Regulatory Purposes,Literature Reference,Patient Age Group,Patient Age Group (as per reporter),Parent Child Report,Patient Sex,Reaction List PT (Duration – Outcome - Seriousness Criteria),Suspect/interacting Drug List (Drug Char - Indication PT - Action taken - [Duration - Dose - Route]),Concomitant/Not Administered Drug List (Drug Char - Indication PT - Action taken - [Duration - Dose - Route]),ICSR Form
EU-EC-10018725358,Spontaneous,2025-01-23 00:00:00,Non Healthcare Professional,European Economic Area,Not available,18-64 Years,Adult,No,Female,"Granuloma annulare (n/a - Not Recovered/Not Resolved - ),<BR><BR>Lichen planopilaris (n/a - Not Recovered/Not Resolved - )","COMIRNATY ORIGINAL/OMICRON BA.1 [TOZINAMERAN, RILTOZINAMERAN] (S - COVID-19 immunisation - Not applicable - [n/a - 1{DF} - n/a])",Not reported,"<a target=""_blank"" href=""https://dap.ema.europa.eu/xmlpserver/PHV%20DAP/Reports/ICSR.xdo?_xpf=&_xt=form&SR_ID=10018725358&_xpt=1&_xf=pdf"">ICSR</a>"
EU-EC-10018725359,Spontaneous,2025-01-23 00:00:00,Non Healthcare Professional,European Economic Area,Not available,65-85 Years,Not Specified,No,Male,"Fatigue (n/a - Not Recovered/Not Resolved - ),<BR><BR>Headache (n/a - Not Recovered/Not Resolved - ),<BR><BR>Myalgia (n/a - Not Recovered/Not Resolved - )","COMIRNATY ORIGINAL/OMICRON BA.1 [TOZINAMERAN, RILTOZINAMERAN] (S - COVID-19 immunisation - Not applicable - [n/a - 1{DF} - n/a])",Not reported,"<a target=""_blank"" href=""https://dap.ema.europa.eu/xmlpserver/PHV%20DAP/Reports/ICSR.xdo?_xpf=&_xt=form&SR_ID=10018725359&_xpt=1&_xf=pdf"">ICSR</a>"
EU-EC-10018725360,Spontaneous,2025-01-23 00:00:00,Healthcare Professional,European Economic Area,Not available,18-64 Years,Adult,No,Male,"Injection site erythema (n/a - Not Recovered/Not Resolved - ),<BR><BR>Injection site induration (n/a - Not Recovered/Not Resolved - ),<BR><BR>Injection site inflammation (n/a - Not Recovered/Not Resolved - ),<BR><BR>Injection site pain (n/a - Not Recovered/Not Resolved - ),<BR><BR>Injection site warmth (n/a - Not Recovered/Not Resolved - ),<BR><BR>Swelling (n/a - Not Recovered/Not Resolved - )","COMIRNATY ORIGINAL/OMICRON BA.1 [TOZINAMERAN, RILTOZINAMERAN] (S - COVID-19 immunisation - Not applicable - [n/a - 1{DF} - n/a])",NOT AVAILABLE (C - n/a - Dose not changed - [n/a - n/a - n/a]),"<a target=""_blank"" href=""https://dap.ema.europa.eu/xmlpserver/PHV%20DAP/Reports/ICSR.xdo?_xpf=&_xt=form&SR_ID=10018725360&_xpt=1&_xf=pdf"">ICSR</a>"
EU-EC-10018725714,Spontaneous,2025-01-23 00:00:00,Non Healthcare Professional,European Economic Area,Not available,18-64 Years,Adult,No,Female,"Headache (7d - Recovered/Resolved - ),<BR><BR>Malaise (4d - Recovered/Resolved - ),<BR><BR>Sleep attacks (7s - Recovered/Resolved - )","COMIRNATY ORIGINAL/OMICRON BA.1 [TOZINAMERAN, RILTOZINAMERAN] (S - COVID-19 immunisation - Not applicable - [n/a - 1{DF} - n/a])",Not reported,"<a target=""_blank"" href=""https://dap.ema.europa.eu/xmlpserver/PHV%20DAP/Reports/ICSR.xdo?_xpf=&_xt=form&SR_ID=10018725714&_xpt=1&_xf=pdf"">ICSR</a>"
EU-EC-10018725715,Spontaneous,2025-01-23 00:00:00,Non Healthcare Professional,European Economic Area,Not available,65-85 Years,Elderly,No,Female,"Fatigue (n/a - Recovering/Resolving - ),<BR><BR>Headache (n/a - Not Recovered/Not Resolved - ),<BR><BR>Injection site erythema (n/a - Not Recovered/Not Resolved - ),<BR><BR>Injection site inflammation (n/a - Not Recovered/Not Resolved - ),<BR><BR>Injection site pain (n/a - Not Recovered/Not Resolved - ),<BR><BR>Injection site warmth (n/a - Not Recovered/Not Resolved - ),<BR><BR>Malaise (n/a - Not Recovered/Not Resolved - ),<BR><BR>Myalgia (n/a - Recovering/Resolving - ),<BR><BR>Pyrexia (n/a - Not Recovered/Not Resolved - )","COMIRNATY ORIGINAL/OMICRON BA.1 [TOZINAMERAN, RILTOZINAMERAN] (S - COVID-19 immunisation - Not applicable - [n/a - 1{DF} - n/a]),<BR><BR>[A/HONG KONG/4801/2014 (H3N2)-LIKE STRAIN (A/HONG KONG/4801/2014, X-263B), B/BRISBANE/60/2008-LIKE STRAIN (B/BRISBANE/60/2008, WILD TYPE), A/CALIFORNIA/7/2009 (H1N1)PDM09-DERIVED STRAIN USED (NYMC X-181), A/HONG KONG/4801/2014 (H3N2)-LIKE STRAIN (A/HONG KONG/4801/2014, X-263B), B/BRISBANE/60/2008-LIKE STRAIN (B/BRISBANE/60/2008, WILD TYPE), A/MICHIGAN/45/2015 (H1N1)PDM09-LIKE STRAIN (A/SINGAPORE/GP1908/2015, IVR-180), INFLUENZA VACCINE] (S - Influenza immunisation - Not applicable - [n/a - 1{DF} - n/a]),<BR><BR>[PNEUMOCOCCAL POLYSACCHARIDE VACCINE (23 VALENT)] (S - Pneumococcal immunisation - Not applicable - [n/a - 1{DF} - n/a])",Not reported,"<a target=""_blank"" href=""https://dap.ema.europa.eu/xmlpserver/PHV%20DAP/Reports/ICSR.xdo?_xpf=&_xt=form&SR_ID=10018725715&_xpt=1&_xf=pdf"">ICSR</a>"
EU-EC-10018725716,Spontaneous,2025-01-23 00:00:00,Non Healthcare Professional,European Economic Area,Not available,18-64 Years,Not Specified,No,Female,"Fatigue (n/a - Not Recovered/Not Resolved - ),<BR><BR>Heavy menstrual bleeding (n/a - Not Recovered/Not Resolved - ),<BR><BR>Polymenorrhoea (n/a - Not Recovered/Not Resolved - )","COMIRNATY ORIGINAL/OMICRON BA.1 [TOZINAMERAN, RILTOZINAMERAN] (S - COVID-19 immunisation - Not applicable - [n/a - 1{DF} - n/a])",Not reported,"<a target=""_blank"" href=""https://dap.ema.europa.eu/xmlpserver/PHV%20DAP/Reports/ICSR.xdo?_xpf=&_xt=form&SR_ID=10018725716&_xpt=1&_xf=pdf"">ICSR</a>"
EU-EC-10018725719,Spontaneous,2025-01-23 00:00:00,Non Healthcare Professional,European Economic Area,Not available,18-64 Years,Adult,No,Male,Atrial fibrillation (n/a - Not Recovered/Not Resolved - ),"COMIRNATY ORIGINAL/OMICRON BA.1 [TOZINAMERAN, RILTOZINAMERAN] (S - COVID-19 immunisation - Not applicable - [n/a - 1{DF} - n/a])",Not reported,"<a target=""_blank"" href=""https://dap.ema.europa.eu/xmlpserver/PHV%20DAP/Reports/ICSR.xdo?_xpf=&_xt=form&SR_ID=10018725719&_xpt=1&_xf=pdf"">ICSR</a>"
EU-EC-10018725720,Spontaneous,2025-01-23 00:00:00,Non Healthcare Professional,European Economic Area,Not available,18-64 Years,Adult,No,Female,Arrhythmia (n/a - Not Recovered/Not Resolved - ),"COMIRNATY ORIGINAL/OMICRON BA.1 [TOZINAMERAN, RILTOZINAMERAN] (S - COVID-19 immunisation - Not applicable - [n/a - 1{DF} - n/a])",Not reported,"<a target=""_blank"" href=""https://dap.ema.europa.eu/xmlpserver/PHV%20DAP/Reports/ICSR.xdo?_xpf=&_xt=form&SR_ID=10018725720&_xpt=1&_xf=pdf"">ICSR</a>"
EU-EC-10018725721,Spontaneous,2025-01-23 00:00:00,Non Healthcare Professional,European Economic Area,Not available,18-64 Years,Adult,No,Male,"Arthralgia (n/a - Recovering/Resolving - ),<BR><BR>Feeling cold (n/a - Recovering/Resolving - )","COMIRNATY ORIGINAL/OMICRON BA.1 [TOZINAMERAN, RILTOZINAMERAN] (S - COVID-19 immunisation - Unknown - [n/a - n/a - n/a])",Not reported,"<a target=""_blank"" href=""https://dap.ema.europa.eu/xmlpserver/PHV%20DAP/Reports/ICSR.xdo?_xpf=&_xt=form&SR_ID=10018725721&_xpt=1&_xf=pdf"">ICSR</a>"
EU-EC-10018725722,Spontaneous,2025-01-23 00:00:00,Non Healthcare Professional,European Economic Area,Not available,65-85 Years,Elderly,No,Female,Herpes zoster (n/a - Not Recovered/Not Resolved - ),"COMIRNATY ORIGINAL/OMICRON BA.1 [TOZINAMERAN, RILTOZINAMERAN] (S - COVID-19 immunisation - Not applicable - [n/a - 1{DF} - n/a])",Not reported,"<a target=""_blank"" href=""https://dap.ema.europa.eu/xmlpserver/PHV%20DAP/Reports/ICSR.xdo?_xpf=&_xt=form&SR_ID=10018725722&_xpt=1&_xf=pdf"">ICSR</a>"
EU-EC-10018725723,Spontaneous,2025-01-23 00:00:00,Non Healthcare Professional,European Economic Area,Not available,65-85 Years,Elderly,No,Female,"Pyrexia (n/a - Recovering/Resolving - ),<BR><BR>Vomiting (n/a - Recovering/Resolving - )","COMIRNATY ORIGINAL/OMICRON BA.1 [TOZINAMERAN, RILTOZINAMERAN] (S - COVID-19 immunisation - Not applicable - [n/a - 1{DF} - n/a])",Not reported,"<a target=""_blank"" href=""https://dap.ema.europa.eu/xmlpserver/PHV%20DAP/Reports/ICSR.xdo?_xpf=&_xt=form&SR_ID=10018725723&_xpt=1&_xf=pdf"">ICSR</a>"
EU-EC-10018725724,Spontaneous,2025-01-23 00:00:00,Non Healthcare Professional,European Economic Area,Not available,18-64 Years,Not Specified,No,Female,"Fatigue (n/a - Not Recovered/Not Resolved - ),<BR><BR>Malaise (n/a - Not Recovered/Not Resolved - ),<BR><BR>Myalgia (n/a - Recovering/Resolving - ),<BR><BR>Nausea (n/a - Not Recovered/Not Resolved - )","COMIRNATY ORIGINAL/OMICRON BA.1 [TOZINAMERAN, RILTOZINAMERAN] (S - COVID-19 immunisation - Not applicable - [n/a - 1{DF} - n/a])",Not reported,"<a target=""_blank"" href=""https://dap.ema.europa.eu/xmlpserver/PHV%20DAP/Reports/ICSR.xdo?_xpf=&_xt=form&SR_ID=10018725724&_xpt=1&_xf=pdf"">ICSR</a>"
EU-EC-10018728351,Spontaneous,2025-01-23 00:00:00,Healthcare Professional,European Economic Area,Not available,18-64 Years,Not Specified,No,Female,"Arthralgia (n/a - Unknown - ),<BR><BR>Asthenia (n/a - Unknown - ),<BR><BR>CD8 lymphocytes decreased (n/a - Unknown - ),<BR><BR>Circulatory collapse (n/a - Unknown - Other Medically Important Condition),<BR><BR>Immunology test abnormal (n/a - Unknown - ),<BR><BR>Interleukin level increased (n/a - Unknown - ),<BR><BR>Pain (n/a - Unknown - ),<BR><BR>Radiculopathy (n/a - Unknown - ),<BR><BR>Syncope (n/a - Unknown - Other Medically Important Condition),<BR><BR>Upper respiratory tract infection (n/a - Unknown - )","COMIRNATY ORIGINAL/OMICRON BA.1 [TOZINAMERAN, RILTOZINAMERAN] (S - COVID-19 immunisation - Not applicable - [1d - n/a - n/a])",Not reported,"<a target=""_blank"" href=""https://dap.ema.europa.eu/xmlpserver/PHV%20DAP/Reports/ICSR.xdo?_xpf=&_xt=form&SR_ID=10018728351&_xpt=1&_xf=pdf"">ICSR</a>"
EU-EC-10018729173,Spontaneous,2025-01-23 00:00:00,Healthcare Professional,Non European Economic Area,Not available,18-64 Years,Not Specified,No,Male,Myocarditis (63d - Recovered/Resolved - Other Medically Important Condition),"COMIRNATY ORIGINAL/OMICRON BA.1 [TOZINAMERAN, RILTOZINAMERAN] (S - COVID-19 immunisation - Not applicable - [n/a - n/a - n/a])",Not reported,"<a target=""_blank"" href=""https://dap.ema.europa.eu/xmlpserver/PHV%20DAP/Reports/ICSR.xdo?_xpf=&_xt=form&SR_ID=10018729173&_xpt=1&_xf=pdf"">ICSR</a>"
EU-EC-10018718059,Spontaneous,2025-01-22 00:00:00,Healthcare Professional,European Economic Area,Not available,18-64 Years,Adult,No,Female,"Congenital musculoskeletal disorder of skull (n/a - Not Recovered/Not Resolved - Other Medically Important Condition),<BR><BR>Dysphoria (n/a - Not Recovered/Not Resolved - Other Medically Important Condition),<BR><BR>Headache (n/a - Not Recovered/Not Resolved - Other Medically Important Condition),<BR><BR>Nausea (n/a - Not Recovered/Not Resolved - Other Medically Important Condition)","COMIRNATY ORIGINAL/OMICRON BA.1 (15/15 MICROGRAMS)/DOSE DISPERSION FOR INJECTION COVID-19 MRNA VACCINE (NUCLEOSIDE MODIFIED) [TOZINAMERAN, RILTOZINAMERAN] (S - COVID-19 immunisation - Not applicable - [n/a - n/a - n/a])",Not reported,"<a target=""_blank"" href=""https://dap.ema.europa.eu/xmlpserver/PHV%20DAP/Reports/ICSR.xdo?_xpf=&_xt=form&SR_ID=10018718059&_xpt=1&_xf=pdf"">ICSR</a>"
EU-EC-10018719202,Spontaneous,2025-01-22 00:00:00,Non Healthcare Professional,European Economic Area,Not available,Not Specified,Not Specified,No,Female,Rash (n/a - Not Recovered/Not Resolved - ),"COMIRNATY JN.1 [BRETOVAMERAN] (S - n/a - n/a - [n/a - n/a - n/a]),<BR><BR>COMIRNATY OMICRON XBB.1.5 [RAXTOZINAMERAN] (S - n/a - n/a - [n/a - n/a - n/a]),<BR><BR>COMIRNATY ORIGINAL/OMICRON BA.1 [TOZINAMERAN, RILTOZINAMERAN] (S - n/a - n/a - [n/a - n/a - n/a]),<BR><BR>COMIRNATY [TOZINAMERAN] (S - n/a - n/a - [n/a - n/a - n/a]),<BR><BR>SPIKEVAX [ELASOMERAN] (S - n/a - n/a - [n/a - n/a - n/a])",Not reported,"<a target=""_blank"" href=""https://dap.ema.europa.eu/xmlpserver/PHV%20DAP/Reports/ICSR.xdo?_xpf=&_xt=form&SR_ID=10018719202&_xpt=1&_xf=pdf"">ICSR</a>"
EU-EC-10018695888,Spontaneous,2025-01-17 00:00:00,Non Healthcare Professional,European Economic Area,Not available,18-64 Years,Adult,No,Male,"Apathy (n/a - Not Recovered/Not Resolved - ),<BR><BR>Arthralgia (n/a - Not Recovered/Not Resolved - ),<BR><BR>Chills (n/a - Not Recovered/Not Resolved - ),<BR><BR>Decreased appetite (n/a - Not Recovered/Not Resolved - ),<BR><BR>Dizziness (n/a - Not Recovered/Not Resolved - ),<BR><BR>Fatigue (n/a - Not Recovered/Not Resolved - ),<BR><BR>Headache (n/a - Not Recovered/Not Resolved - ),<BR><BR>Hyperhidrosis (n/a - Not Recovered/Not Resolved - ),<BR><BR>Injection site discomfort (n/a - Not Recovered/Not Resolved - ),<BR><BR>Injection site pain (n/a - Not Recovered/Not Resolved - ),<BR><BR>Loss of personal independence in daily activities (n/a - Not Recovered/Not Resolved - ),<BR><BR>Lymphadenopathy (n/a - Not Recovered/Not Resolved - ),<BR><BR>Malaise (n/a - Not Recovered/Not Resolved - ),<BR><BR>Middle insomnia (n/a - Not Recovered/Not Resolved - ),<BR><BR>Myalgia (n/a - Not Recovered/Not Resolved - ),<BR><BR>Nausea (n/a - Not Recovered/Not Resolved - ),<BR><BR>Photophobia (n/a - Not Recovered/Not Resolved - ),<BR><BR>Pruritus (n/a - Not Recovered/Not Resolved - ),<BR><BR>Pyrexia (n/a - Not Recovered/Not Resolved - ),<BR><BR>Sleep disorder (n/a - Not Recovered/Not Resolved - ),<BR><BR>Somnolence (n/a - Not Recovered/Not Resolved - ),<BR><BR>Vomiting (n/a - Not Recovered/Not Resolved - )","COMIRNATY ORIGINAL/OMICRON BA.1 [TOZINAMERAN, RILTOZINAMERAN] (S - COVID-19 immunisation - n/a - [n/a - n/a - Intramuscular use])",Not reported,"<a target=""_blank"" href=""https://dap.ema.europa.eu/xmlpserver/PHV%20DAP/Reports/ICSR.xdo?_xpf=&_xt=form&SR_ID=10018695888&_xpt=1&_xf=pdf"">ICSR</a>"
EU-EC-10018677939,Spontaneous,2025-01-15 00:00:00,Non Healthcare Professional,Non European Economic Area,Not available,18-64 Years,Not Specified,No,Female,"Arthralgia (n/a - Not Recovered/Not Resolved - Other Medically Important Condition),<BR><BR>Limb mass (n/a - Unknown - ),<BR><BR>Pain in extremity (n/a - Unknown - ),<BR><BR>Peripheral swelling (n/a - Not Recovered/Not Resolved - Disabling)","COMIRNATY ORIGINAL/OMICRON BA.1 [TOZINAMERAN, RILTOZINAMERAN] (S - COVID-19 immunisation - Not applicable - [1d - n/a - n/a])",Not reported,"<a target=""_blank"" href=""https://dap.ema.europa.eu/xmlpserver/PHV%20DAP/Reports/ICSR.xdo?_xpf=&_xt=form&SR_ID=10018677939&_xpt=1&_xf=pdf"">ICSR</a>"
EU-EC-10018680562,Spontaneous,2025-01-15 00:00:00,Healthcare Professional,European Economic Area,Not available,18-64 Years,Not Specified,No,Male,"Cervical spinal stenosis (n/a - Unknown - Caused/Prolonged Hospitalisation),<BR><BR>Condition aggravated (n/a - Unknown - Other Medically Important Condition),<BR><BR>Dysphagia (n/a - Unknown - Caused/Prolonged Hospitalisation),<BR><BR>Fall (n/a - Unknown - ),<BR><BR>Fine motor skill dysfunction (n/a - Unknown - ),<BR><BR>Hemiparesis (n/a - Unknown - Other Medically Important Condition),<BR><BR>Urge incontinence (n/a - Unknown - Caused/Prolonged Hospitalisation)","COMIRNATY ORIGINAL/OMICRON BA.1 [TOZINAMERAN, RILTOZINAMERAN] (S - COVID-19 immunisation - Not applicable - [1d - .3mL - n/a])",Not reported,"<a target=""_blank"" href=""https://dap.ema.europa.eu/xmlpserver/PHV%20DAP/Reports/ICSR.xdo?_xpf=&_xt=form&SR_ID=10018680562&_xpt=1&_xf=pdf"">ICSR</a>"
EU-EC-10018681385,Spontaneous,2025-01-15 00:00:00,Non Healthcare Professional,Non European Economic Area,Not available,65-85 Years,Not Specified,No,Female,"Abdominal discomfort (n/a - Unknown - ),<BR><BR>Body temperature abnormal (n/a - Recovered/Resolved - ),<BR><BR>COVID-19 (10d - Recovered/Resolved - Caused/Prolonged Hospitalisation, Other Medically Important Condition),<BR><BR>Drug ineffective (10d - Recovered/Resolved - Caused/Prolonged Hospitalisation, Other Medically Important Condition),<BR><BR>Hemiplegia (n/a - Recovered/Resolved With Sequelae - Other Medically Important Condition),<BR><BR>Interchange of vaccine products (n/a - Unknown - ),<BR><BR>Muscle spasms (n/a - Not Recovered/Not Resolved - Other Medically Important Condition),<BR><BR>Myelitis transverse (n/a - Recovered/Resolved With Sequelae - Caused/Prolonged Hospitalisation, Disabling, Other Medically Important Condition),<BR><BR>Neuralgia (n/a - Not Recovered/Not Resolved - ),<BR><BR>Neurological symptom (n/a - Unknown - Caused/Prolonged Hospitalisation),<BR><BR>Neuromyelitis optica spectrum disorder (n/a - Not Recovered/Not Resolved - Caused/Prolonged Hospitalisation, Other Medically Important Condition),<BR><BR>Pain in extremity (n/a - Unknown - ),<BR><BR>Vomiting (n/a - Recovered/Resolved - )","COMIRNATY ORIGINAL/OMICRON BA.1 [TOZINAMERAN, RILTOZINAMERAN] (S - COVID-19 immunisation - Not applicable - [1d - n/a - n/a]),<BR><BR>COMIRNATY [TOZINAMERAN] (S - COVID-19 immunisation - Not applicable - [1d - n/a - n/a]),<BR><BR>VAXZEVRIA [COVID-19 VACCINE ASTRAZENECA (CHADOX1 NCOV-19)] (S - COVID-19 immunisation - Not applicable - [1d - n/a - n/a])","SHINGRIX [RECOMBINANT VARICELLA ZOSTER VIRUS GLYCOPROTEIN E, RECOMBINANT VARICELLA ZOSTER VIRUS GLYCOPROTEIN E, STIMULON, 3-O-DESACYL-4'-MONOPHOSPHORYL LIPID A] (C - Herpes zoster - n/a - [1d - n/a - n/a]),<BR><BR>[A/HONG KONG/4801/2014 (H3N2)-LIKE STRAIN (A/HONG KONG/4801/2014, X-263B), B/BRISBANE/60/2008-LIKE STRAIN (B/BRISBANE/60/2008, WILD TYPE), A/CALIFORNIA/7/2009 (H1N1)PDM09-DERIVED STRAIN USED (NYMC X-181), A/HONG KONG/4801/2014 (H3N2)-LIKE STRAIN (A/HONG KONG/4801/2014, X-263B), B/BRISBANE/60/2008-LIKE STRAIN (B/BRISBANE/60/2008, WILD TYPE), A/MICHIGAN/45/2015 (H1N1)PDM09-LIKE STRAIN (A/SINGAPORE/GP1908/2015, IVR-180), INFLUENZA VACCINE] (C - Influenza - n/a - [1d - n/a - n/a])","<a target=""_blank"" href=""https://dap.ema.europa.eu/xmlpserver/PHV%20DAP/Reports/ICSR.xdo?_xpf=&_xt=form&SR_ID=10018681385&_xpt=1&_xf=pdf"">ICSR</a>"
EU-EC-10018681389,Spontaneous,2025-01-15 00:00:00,Non Healthcare Professional,Non European Economic Area,Not available,65-85 Years,Not Specified,No,Female,"COVID-19 (n/a - Unknown - Other Medically Important Condition),<BR><BR>Drug ineffective (n/a - Unknown - Other Medically Important Condition)","COMIRNATY ORIGINAL/OMICRON BA.1 [TOZINAMERAN, RILTOZINAMERAN] (S - COVID-19 immunisation - Not applicable - [1d - n/a - n/a]),<BR><BR>COMIRNATY [TOZINAMERAN] (S - COVID-19 immunisation - Not applicable - [1d - n/a - n/a]),<BR><BR>TOZINAMERAN [TOZINAMERAN] (S - COVID-19 immunisation - Not applicable - [1d - n/a - n/a])",Not reported,"<a target=""_blank"" href=""https://dap.ema.europa.eu/xmlpserver/PHV%20DAP/Reports/ICSR.xdo?_xpf=&_xt=form&SR_ID=10018681389&_xpt=1&_xf=pdf"">ICSR</a>"
EU-EC-10018663581,Spontaneous,2025-01-13 00:00:00,Healthcare Professional,Non European Economic Area,Not available,65-85 Years,Not Specified,No,Female,Thrombocytopenic purpura (n/a - Recovered/Resolved - Other Medically Important Condition),"COMIRNATY ORIGINAL/OMICRON BA.1 [TOZINAMERAN, RILTOZINAMERAN] (S - COVID-19 immunisation - Not applicable - [n/a - n/a - n/a])",Not reported,"<a target=""_blank"" href=""https://dap.ema.europa.eu/xmlpserver/PHV%20DAP/Reports/ICSR.xdo?_xpf=&_xt=form&SR_ID=10018663581&_xpt=1&_xf=pdf"">ICSR</a>"
EU-EC-10018666841,Spontaneous,2025-01-13 00:00:00,Non Healthcare Professional,European Economic Area,Not available,18-64 Years,Adult,No,Female,"Brain fog (n/a - Not Recovered/Not Resolved - ),<BR><BR>Chest pain (n/a - Not Recovered/Not Resolved - ),<BR><BR>Dyspnoea (n/a - Not Recovered/Not Resolved - ),<BR><BR>Fatigue (n/a - Not Recovered/Not Resolved - ),<BR><BR>Injection site pain (2d - Recovered/Resolved - ),<BR><BR>Palpitations (n/a - Not Recovered/Not Resolved - ),<BR><BR>Post-acute COVID-19 syndrome (n/a - Not Recovered/Not Resolved - ),<BR><BR>Sensory processing sensitivity (n/a - Not Recovered/Not Resolved - ),<BR><BR>Tinnitus (n/a - Not Recovered/Not Resolved - )","COMIRNATY ORIGINAL/OMICRON BA.1 [TOZINAMERAN, RILTOZINAMERAN] (S - COVID-19 immunisation - Not applicable - [n/a - 1{DF} - n/a])","[BECLOMETASONE DIPROPIONATE, FORMOTEROL FUMARATE DIHYDRATE] (C - n/a - n/a - [n/a - n/a - n/a])","<a target=""_blank"" href=""https://dap.ema.europa.eu/xmlpserver/PHV%20DAP/Reports/ICSR.xdo?_xpf=&_xt=form&SR_ID=10018666841&_xpt=1&_xf=pdf"">ICSR</a>"
EU-EC-10018667365,Spontaneous,2025-01-13 00:00:00,Non Healthcare Professional,European Economic Area,Not available,18-64 Years,Adult,No,Female,"Arthralgia (n/a - Not Recovered/Not Resolved - ),<BR><BR>Chills (n/a - Recovering/Resolving - ),<BR><BR>Fatigue (n/a - Not Recovered/Not Resolved - ),<BR><BR>Headache (n/a - Not Recovered/Not Resolved - ),<BR><BR>Injection site erythema (n/a - Not Recovered/Not Resolved - ),<BR><BR>Injection site inflammation (n/a - Not Recovered/Not Resolved - ),<BR><BR>Injection site pain (n/a - Not Recovered/Not Resolved - ),<BR><BR>Injection site swelling (n/a - Not Recovered/Not Resolved - ),<BR><BR>Injection site warmth (n/a - Not Recovered/Not Resolved - ),<BR><BR>Malaise (n/a - Not Recovered/Not Resolved - ),<BR><BR>Myalgia (n/a - Not Recovered/Not Resolved - ),<BR><BR>Neuropathy peripheral (n/a - Recovering/Resolving - ),<BR><BR>Pyrexia (n/a - Not Recovered/Not Resolved - ),<BR><BR>Tinnitus (n/a - Not Recovered/Not Resolved - )","COMIRNATY ORIGINAL/OMICRON BA.1 [TOZINAMERAN, RILTOZINAMERAN] (S - COVID-19 immunisation - Not applicable - [n/a - 1{DF} - n/a])",[ESTRADIOL VALERATE] (C - n/a - n/a - [n/a - n/a - n/a]),"<a target=""_blank"" href=""https://dap.ema.europa.eu/xmlpserver/PHV%20DAP/Reports/ICSR.xdo?_xpf=&_xt=form&SR_ID=10018667365&_xpt=1&_xf=pdf"">ICSR</a>"
EU-EC-10018662301,Spontaneous,2025-01-10 00:00:00,Healthcare Professional,Non European Economic Area,Not available,65-85 Years,Not Specified,No,Male,"Encephalitis autoimmune (n/a - Not Recovered/Not Resolved - Caused/Prolonged Hospitalisation),<BR><BR>Prosopagnosia (n/a - Not Recovered/Not Resolved - Caused/Prolonged Hospitalisation)","COMIRNATY ORIGINAL/OMICRON BA.1 [TOZINAMERAN, RILTOZINAMERAN] (S - COVID-19 immunisation - Not applicable - [1d - n/a - n/a])","SITAGLIPTIN [SITAGLIPTIN] (C - n/a - n/a - [n/a - 1{DF} - Oral use]),<BR><BR>[METFORMIN, METFORMIN HYDROCHLORIDE, METFORMIN HYDROCHLORIDE BP] (C - n/a - n/a - [n/a - 4{DF} - Oral use])","<a target=""_blank"" href=""https://dap.ema.europa.eu/xmlpserver/PHV%20DAP/Reports/ICSR.xdo?_xpf=&_xt=form&SR_ID=10018662301&_xpt=1&_xf=pdf"">ICSR</a>"
EU-EC-10018640512,Spontaneous,2025-01-07 00:00:00,Non Healthcare Professional,European Economic Area,Not available,18-64 Years,Adult,No,Not Specified,"Chronic fatigue syndrome (n/a - Not Recovered/Not Resolved - Caused/Prolonged Hospitalisation),<BR><BR>Depression (n/a - Not Recovered/Not Resolved - Caused/Prolonged Hospitalisation),<BR><BR>Fibromyalgia (n/a - Not Recovered/Not Resolved - Caused/Prolonged Hospitalisation)","COMIRNATY ORIGINAL/OMICRON BA.1 [TOZINAMERAN, RILTOZINAMERAN] (S - COVID-19 immunisation - n/a - [n/a - n/a - n/a])",Not reported,"<a target=""_blank"" href=""https://dap.ema.europa.eu/xmlpserver/PHV%20DAP/Reports/ICSR.xdo?_xpf=&_xt=form&SR_ID=10018640512&_xpt=1&_xf=pdf"">ICSR</a>"
EU-EC-10018641913,Spontaneous,2025-01-07 00:00:00,Non Healthcare Professional,Non European Economic Area,Not available,65-85 Years,Not Specified,No,Female,"Arthralgia (n/a - Not Recovered/Not Resolved - ),<BR><BR>Bone pain (n/a - Not Recovered/Not Resolved - ),<BR><BR>Headache (n/a - Unknown - ),<BR><BR>Muscular weakness (n/a - Unknown - Disabling),<BR><BR>Myalgia (n/a - Unknown - ),<BR><BR>Osteoarthritis (n/a - Not Recovered/Not Resolved - Disabling, Other Medically Important Condition),<BR><BR>Pain in extremity (n/a - Unknown - ),<BR><BR>Paraesthesia (n/a - Unknown - ),<BR><BR>Throat irritation (n/a - Unknown - )","COMIRNATY ORIGINAL/OMICRON BA.1 [TOZINAMERAN, RILTOZINAMERAN] (S - COVID-19 immunisation - Not applicable - [1d - n/a - Intramuscular use])",Not reported,"<a target=""_blank"" href=""https://dap.ema.europa.eu/xmlpserver/PHV%20DAP/Reports/ICSR.xdo?_xpf=&_xt=form&SR_ID=10018641913&_xpt=1&_xf=pdf"">ICSR</a>"
EU-EC-10018625823,Spontaneous,2025-01-03 00:00:00,Non Healthcare Professional,European Economic Area,Not available,18-64 Years,Adult,No,Female,"Abdominal pain lower (n/a - Not Recovered/Not Resolved - Caused/Prolonged Hospitalisation),<BR><BR>Amenorrhoea (n/a - Not Recovered/Not Resolved - Caused/Prolonged Hospitalisation),<BR><BR>Aphasia (n/a - Not Recovered/Not Resolved - Caused/Prolonged Hospitalisation),<BR><BR>Arthralgia (n/a - Not Recovered/Not Resolved - Caused/Prolonged Hospitalisation),<BR><BR>Brain fog (n/a - Not Recovered/Not Resolved - Caused/Prolonged Hospitalisation),<BR><BR>Chronic fatigue syndrome (n/a - Not Recovered/Not Resolved - Caused/Prolonged Hospitalisation),<BR><BR>Depression (n/a - Unknown - Caused/Prolonged Hospitalisation),<BR><BR>Disturbance in attention (n/a - Not Recovered/Not Resolved - Caused/Prolonged Hospitalisation),<BR><BR>Dyspnoea (n/a - Not Recovered/Not Resolved - Caused/Prolonged Hospitalisation),<BR><BR>Gastrointestinal disorder (n/a - Not Recovered/Not Resolved - Caused/Prolonged Hospitalisation),<BR><BR>Headache (n/a - Not Recovered/Not Resolved - Caused/Prolonged Hospitalisation),<BR><BR>Memory impairment (n/a - Not Recovered/Not Resolved - Caused/Prolonged Hospitalisation),<BR><BR>Myalgia (n/a - Not Recovered/Not Resolved - Caused/Prolonged Hospitalisation),<BR><BR>Tinnitus (n/a - Not Recovered/Not Resolved - Caused/Prolonged Hospitalisation)","COMIRNATY ORIGINAL/OMICRON BA.1 [TOZINAMERAN, RILTOZINAMERAN] (S - COVID-19 immunisation - n/a - [n/a - 3{DF} - n/a]),<BR><BR>COMIRNATY [TOZINAMERAN] (S - COVID-19 immunisation - n/a - [n/a - 1{DF} - n/a]),<BR><BR>COMIRNATY [TOZINAMERAN] (S - COVID-19 immunisation - n/a - [n/a - 2{DF} - n/a])",Not reported,"<a target=""_blank"" href=""https://dap.ema.europa.eu/xmlpserver/PHV%20DAP/Reports/ICSR.xdo?_xpf=&_xt=form&SR_ID=10018625823&_xpt=1&_xf=pdf"">ICSR</a>"