﻿EU Local Number,Report Type,EV Gateway Receipt Date,Primary Source Qualification,Primary Source Country for Regulatory Purposes,Literature Reference,Patient Age Group,Patient Age Group (as per reporter),Parent Child Report,Patient Sex,Reaction List PT (Duration – Outcome - Seriousness Criteria),Suspect/interacting Drug List (Drug Char - Indication PT - Action taken - [Duration - Dose - Route]),Concomitant/Not Administered Drug List (Drug Char - Indication PT - Action taken - [Duration - Dose - Route]),ICSR Form
EU-EC-10018660039,Spontaneous,2025-01-10 00:00:00,Non Healthcare Professional,European Economic Area,Not available,18-64 Years,Adult,No,Male,"Cerebellar ataxia (n/a - Not Recovered/Not Resolved - Disabling),<BR><BR>Disease recurrence (n/a - Not Recovered/Not Resolved - Disabling)",JCOVDEN [COVID-19 VACCINE JANSSEN (AD26.COV2.S)] (S - COVID-19 immunisation - Not applicable - [1d - .5mL - Intramuscular use]),Not reported,"<a target=""_blank"" href=""https://dap.ema.europa.eu/xmlpserver/PHV%20DAP/Reports/ICSR.xdo?_xpf=&_xt=form&SR_ID=10018660039&_xpt=1&_xf=pdf"">ICSR</a>"
EU-EC-10018661278,Spontaneous,2025-01-10 00:00:00,Healthcare Professional,Non European Economic Area,"Cohen, A.. Impact of extended-course oral nirmatrelvir/ritonavir in established Long COVID: a case series. Communications Medicine. 2024;4:261:9. doi:10.1038/s43856-024-00668-8",18-64 Years,Not Specified,No,Female,"COVID-19 (n/a - Unknown - Other Medically Important Condition),<BR><BR>Drug ineffective (n/a - Unknown - Other Medically Important Condition)","JCOVDEN [COVID-19 VACCINE JANSSEN (AD26.COV2.S)] (S - COVID-19 immunisation - Not applicable - [n/a - n/a - n/a]),<BR><BR>SPIKEVAX [ELASOMERAN] (S - COVID-19 immunisation - Not applicable - [n/a - n/a - n/a]),<BR><BR>TOZINAMERAN, FAMTOZINAMERAN [TOZINAMERAN, FAMTOZINAMERAN] (S - COVID-19 immunisation - Not applicable - [n/a - n/a - n/a])",Not reported,"<a target=""_blank"" href=""https://dap.ema.europa.eu/xmlpserver/PHV%20DAP/Reports/ICSR.xdo?_xpf=&_xt=form&SR_ID=10018661278&_xpt=1&_xf=pdf"">ICSR</a>"
EU-EC-10018649529,Spontaneous,2025-01-09 00:00:00,Non Healthcare Professional,European Economic Area,Not available,Not Specified,Not Specified,No,Female,Thrombosis (n/a - Unknown - Other Medically Important Condition),JCOVDEN [COVID-19 VACCINE JANSSEN (AD26.COV2.S)] (S - COVID-19 prophylaxis - Not applicable - [n/a - n/a - Intramuscular use]),Not reported,"<a target=""_blank"" href=""https://dap.ema.europa.eu/xmlpserver/PHV%20DAP/Reports/ICSR.xdo?_xpf=&_xt=form&SR_ID=10018649529&_xpt=1&_xf=pdf"">ICSR</a>"
EU-EC-10018652459,Spontaneous,2025-01-09 00:00:00,Healthcare Professional,Non European Economic Area,Not available,18-64 Years,Adult,No,Male,"Myelitis transverse (n/a - Not Recovered/Not Resolved - Life Threatening, Caused/Prolonged Hospitalisation, Disabling),<BR><BR>Nasopharyngitis (n/a - Unknown - )",COVID-19 VACCINE JANSSEN (AD26.COV2.S) [COVID-19 VACCINE JANSSEN (AD26.COV2.S)] (S - COVID-19 prophylaxis - Not applicable - [0d - n/a - Intramuscular use]),Not reported,"<a target=""_blank"" href=""https://dap.ema.europa.eu/xmlpserver/PHV%20DAP/Reports/ICSR.xdo?_xpf=&_xt=form&SR_ID=10018652459&_xpt=1&_xf=pdf"">ICSR</a>"
EU-EC-10018652640,Spontaneous,2025-01-09 00:00:00,Healthcare Professional,European Economic Area,Not available,18-64 Years,Not Specified,No,Male,"Cardiac hypertrophy (n/a - Not Recovered/Not Resolved - Other Medically Important Condition),<BR><BR>Cognitive disorder (n/a - Not Recovered/Not Resolved - Other Medically Important Condition),<BR><BR>Dyspnoea exertional (n/a - Not Recovered/Not Resolved - Other Medically Important Condition),<BR><BR>Hypertension (n/a - Not Recovered/Not Resolved - Other Medically Important Condition)","JCOVDEN [COVID-19 VACCINE JANSSEN (AD26.COV2.S)] (S - COVID-19 immunisation - n/a - [n/a - n/a - n/a]),<BR><BR>SPIKEVAX [ELASOMERAN] (S - COVID-19 immunisation - n/a - [n/a - n/a - n/a])",Not reported,"<a target=""_blank"" href=""https://dap.ema.europa.eu/xmlpserver/PHV%20DAP/Reports/ICSR.xdo?_xpf=&_xt=form&SR_ID=10018652640&_xpt=1&_xf=pdf"">ICSR</a>"
EU-EC-10018642541,Spontaneous,2025-01-08 00:00:00,Non Healthcare Professional,European Economic Area,Not available,18-64 Years,Not Specified,No,Female,Psychotic disorder (n/a - Not Recovered/Not Resolved - Caused/Prolonged Hospitalisation),COVID-19 VACCINE JANSSEN (AD26.COV2.S) [COVID-19 VACCINE JANSSEN (AD26.COV2.S)] (S - COVID-19 immunisation - Dose not changed - [n/a - n/a - n/a]),Not reported,"<a target=""_blank"" href=""https://dap.ema.europa.eu/xmlpserver/PHV%20DAP/Reports/ICSR.xdo?_xpf=&_xt=form&SR_ID=10018642541&_xpt=1&_xf=pdf"">ICSR</a>"
EU-EC-10018646130,Spontaneous,2025-01-08 00:00:00,Non Healthcare Professional,European Economic Area,Not available,65-85 Years,Elderly,No,Male,"Burning sensation (1240d - Recovered/Resolved With Sequelae - ),<BR><BR>Headache (n/a - Recovered/Resolved - ),<BR><BR>Local reaction (n/a - Recovered/Resolved - ),<BR><BR>Movement disorder (1240d - Recovered/Resolved With Sequelae - ),<BR><BR>Myalgia (n/a - Recovered/Resolved With Sequelae - ),<BR><BR>Oedema peripheral (1240d - Recovered/Resolved With Sequelae - ),<BR><BR>Pain (1240d - Recovered/Resolved With Sequelae - ),<BR><BR>Paraesthesia (n/a - Recovered/Resolved With Sequelae - ),<BR><BR>Sensory disturbance (n/a - Recovered/Resolved With Sequelae - )",JCOVDEN [COVID-19 VACCINE JANSSEN (AD26.COV2.S)] (S - COVID-19 immunisation - n/a - [n/a - 1{DF} - Intramuscular use]),Not reported,"<a target=""_blank"" href=""https://dap.ema.europa.eu/xmlpserver/PHV%20DAP/Reports/ICSR.xdo?_xpf=&_xt=form&SR_ID=10018646130&_xpt=1&_xf=pdf"">ICSR</a>"
EU-EC-10018640577,Spontaneous,2025-01-07 00:00:00,Non Healthcare Professional,European Economic Area,Not available,Not Specified,Not Specified,No,Male,"COVID-19 immunisation (n/a - Unknown - ),<BR><BR>Cough (n/a - Unknown - ),<BR><BR>Myasthenia gravis (n/a - Unknown - Caused/Prolonged Hospitalisation),<BR><BR>Weight decreased (n/a - Unknown - )","JCOVDEN [COVID-19 VACCINE JANSSEN (AD26.COV2.S)] (S - COVID-19 prophylaxis - Not applicable - [n/a - n/a - n/a]),<BR><BR>SPIKEVAX [ELASOMERAN] (S - COVID-19 prophylaxis - Not applicable - [n/a - n/a - n/a])",[EDROPHONIUM CHLORIDE] (C - n/a - n/a - ),"<a target=""_blank"" href=""https://dap.ema.europa.eu/xmlpserver/PHV%20DAP/Reports/ICSR.xdo?_xpf=&_xt=form&SR_ID=10018640577&_xpt=1&_xf=pdf"">ICSR</a>"
EU-EC-10018620460,Spontaneous,2025-01-02 00:00:00,Non Healthcare Professional,European Economic Area,Not available,Not Specified,Elderly,No,Female,Haematoma (n/a - Not Recovered/Not Resolved - ),JCOVDEN [COVID-19 VACCINE JANSSEN (AD26.COV2.S)] (S - COVID-19 immunisation - Not applicable - [1d - 1{DF} - Intramuscular use]),Not reported,"<a target=""_blank"" href=""https://dap.ema.europa.eu/xmlpserver/PHV%20DAP/Reports/ICSR.xdo?_xpf=&_xt=form&SR_ID=10018620460&_xpt=1&_xf=pdf"">ICSR</a>"
EU-EC-10018620570,Spontaneous,2025-01-02 00:00:00,Non Healthcare Professional,European Economic Area,Not available,18-64 Years,Adult,No,Male,Herpes zoster (n/a - Not Recovered/Not Resolved - ),JCOVDEN [COVID-19 VACCINE JANSSEN (AD26.COV2.S)] (S - COVID-19 immunisation - n/a - [n/a - n/a - Intramuscular use]),Not reported,"<a target=""_blank"" href=""https://dap.ema.europa.eu/xmlpserver/PHV%20DAP/Reports/ICSR.xdo?_xpf=&_xt=form&SR_ID=10018620570&_xpt=1&_xf=pdf"">ICSR</a>"
EU-EC-10018622491,Spontaneous,2025-01-02 00:00:00,Non Healthcare Professional,Non European Economic Area,Not available,Not Specified,Not Specified,No,Female,"Cerebrovascular accident (n/a - Unknown - Other Medically Important Condition),<BR><BR>Vaccination complication (n/a - Unknown - Other Medically Important Condition)",COVID-19 VACCINE JANSSEN (AD26.COV2.S) [COVID-19 VACCINE JANSSEN (AD26.COV2.S)] (S - COVID-19 prophylaxis - Not applicable - [n/a - n/a - n/a]),Not reported,"<a target=""_blank"" href=""https://dap.ema.europa.eu/xmlpserver/PHV%20DAP/Reports/ICSR.xdo?_xpf=&_xt=form&SR_ID=10018622491&_xpt=1&_xf=pdf"">ICSR</a>"
EU-EC-10018623245,Spontaneous,2025-01-02 00:00:00,Non Healthcare Professional,European Economic Area,Not available,18-64 Years,Not Specified,No,Female,"Anosmia (n/a - Recovering/Resolving - ),<BR><BR>Blood pressure increased (n/a - Recovering/Resolving - ),<BR><BR>Dyspnoea (n/a - Recovering/Resolving - ),<BR><BR>Fatigue (n/a - Recovering/Resolving - ),<BR><BR>Pain (n/a - Recovering/Resolving - ),<BR><BR>Vasodilatation (n/a - Recovering/Resolving - )",JCOVDEN [COVID-19 VACCINE JANSSEN (AD26.COV2.S)] (S - Immunisation - Not applicable - [n/a - .5mL - Intramuscular use]),Not reported,"<a target=""_blank"" href=""https://dap.ema.europa.eu/xmlpserver/PHV%20DAP/Reports/ICSR.xdo?_xpf=&_xt=form&SR_ID=10018623245&_xpt=1&_xf=pdf"">ICSR</a>"