﻿EU Local Number,Report Type,EV Gateway Receipt Date,Primary Source Qualification,Primary Source Country for Regulatory Purposes,Literature Reference,Patient Age Group,Patient Age Group (as per reporter),Parent Child Report,Patient Sex,Reaction List PT (Duration – Outcome - Seriousness Criteria),Suspect/interacting Drug List (Drug Char - Indication PT - Action taken - [Duration - Dose - Route]),Concomitant/Not Administered Drug List (Drug Char - Indication PT - Action taken - [Duration - Dose - Route]),ICSR Form
EU-EC-10016779277,Spontaneous,2024-02-07 00:00:00,Healthcare Professional,Non European Economic Area,Not available,65-85 Years,Not Specified,No,Male,Dyspnoea (n/a - Not Recovered/Not Resolved - Life Threatening),"COMIRNATY [TOZINAMERAN] (S - COVID-19 immunisation - Not applicable - [n/a - n/a - n/a]),<BR><BR>SPIKEVAX [ELASOMERAN] (S - COVID-19 immunisation - Not applicable - [n/a - n/a - n/a]),<BR><BR>VIDPREVTYN BETA [POLYSORBATE 80, SARS-COV-2, B.1.351 VARIANT, PREFUSION SPIKE DELTA TM PROTEIN, RECOMBINANT, SQUALENE, DL-ALPHA-TOCOPHEROL] (S - COVID-19 immunisation - Not applicable - [n/a - n/a - n/a])",Not reported,"<a target=""_blank"" href=""https://dap.ema.europa.eu/xmlpserver/PHV%20DAP/Reports/ICSR.xdo?_xpf=&_xt=form&SR_ID=10016779277&_xpt=1&_xf=pdf"">ICSR</a>"
EU-EC-10016780534,Spontaneous,2024-02-07 00:00:00,Healthcare Professional,Non European Economic Area,Not available,65-85 Years,Not Specified,No,Male,Dyspnoea (n/a - Not Recovered/Not Resolved - Life Threatening),"COMIRNATY [TOZINAMERAN] (S - COVID-19 - Unknown - [n/a - 1{DF} - n/a]),<BR><BR>SPIKEVAX [ELASOMERAN] (S - COVID-19 - Unknown - [n/a - 1{DF} - n/a]),<BR><BR>VIDPREVTYN BETA [POLYSORBATE 80, SARS-COV-2, B.1.351 VARIANT, PREFUSION SPIKE DELTA TM PROTEIN, RECOMBINANT, SQUALENE, DL-ALPHA-TOCOPHEROL] (S - COVID-19 - Unknown - [n/a - 1{DF} - n/a])","APIXABAN [APIXABAN] (C - Product used for unknown indication - n/a - [n/a - 5mg - n/a]),<BR><BR>DAPAGLIFLOZIN [DAPAGLIFLOZIN] (C - Product used for unknown indication - n/a - [n/a - 10mg - n/a]),<BR><BR>METHOTREXATE [METHOTREXATE] (C - Product used for unknown indication - n/a - [n/a - 7.5mg - n/a]),<BR><BR>MIRABEGRON [MIRABEGRON] (C - Product used for unknown indication - n/a - [n/a - 25mg - n/a]),<BR><BR>PROLIA [DENOSUMAB] (C - Product used for unknown indication - n/a - [n/a - n/a - n/a]),<BR><BR>[ALLOPURINOL] (C - Product used for unknown indication - n/a - [n/a - 300mg - n/a]),<BR><BR>[ALUMINIUM HYDROXIDE GEL, DRIED, MAGNESIUM CARBONATE, SODIUM CARBONATE, ALGINIC ACID, ALUMINIUM HYDROXIDE, SODIUM CARBONATE, CALCIUM CARBONATE, SODIUM ALGINATE, ALUMINIUM HYDROXIDE, SODIUM HYDROGEN CARBONATE, ALGINIC ACID, ALUMINIUM HYDROXIDE, SODIUM HYDROGEN CARBONATE, ALGINIC ACID, ALUMINIUM HYDROXIDE GEL, DRIED, SODIUM HYDROGEN CARBONATE, ALGINIC ACID, ALUMINIUM HYDROXIDE GEL, DRIED USP, SODIUM HYDROGEN CARBONATE, ALGINIC ACID, SODIUM ALGINATE, ALUMINIUM HYDROXIDE, SODIUM HYDROGEN CARBONATE, ALUMINIUM HYDROXIDE GEL, CALCIUM CARBONATE, SODIUM ALGINATE, SODIUM HYDROGEN CARBONATE, CALCIUM CARBONATE, SODIUM ALGINATE, SODIUM HYDROGEN CARBONATE, CALCIUM CARBONATE, SODIUM ALGINATE, ALUMINIUM HYDROXIDE, SODIUM HYDROGEN CARBONATE, SODIUM ALGINATE] (C - Product used for unknown indication - n/a - [n/a - n/a - n/a]),<BR><BR>[BISOPROLOL, BISOPROLOL FUMARATE, BISOPROLOL HEMIFUMARATE] (C - Product used for unknown indication - n/a - [n/a - 5mL - n/a]),<BR><BR>[CODEINE] (C - Product used for unknown indication - n/a - [n/a - 30mg - n/a]),<BR><BR>[COLECALCIFEROL, CALCIUM CARBONATE] (C - Product used for unknown indication - n/a - [n/a - n/a - n/a]),<BR><BR>[FINASTERIDE] (C - Product used for unknown indication - n/a - [n/a - n/a - n/a]),<BR><BR>[FOLIC ACID] (C - Product used for unknown indication - n/a - [n/a - 5mg - n/a]),<BR><BR>[FUROSEMIDE] (C - Product used for unknown indication - n/a - [n/a - 40mg - n/a]),<BR><BR>[OMEPRAZOLE, SODIUM BICARBONATE] (C - Product used for unknown indication - n/a - [n/a - 80ug - n/a]),<BR><BR>[PARACETAMOL] (C - Product used for unknown indication - n/a - [n/a - n/a - n/a]),<BR><BR>[PREDNISOLONE] (C - Product used for unknown indication - n/a - [n/a - n/a - n/a]),<BR><BR>[PROCHLORPERAZINE] (C - Product used for unknown indication - n/a - [n/a - 150mg - n/a]),<BR><BR>[TAMSULOSIN, TAMSULOSIN HYDROCHLORIDE] (C - Product used for unknown indication - n/a - [n/a - 400ug - n/a]),<BR><BR>[TRAMADOL, TRAMADOL HYDROCHLORIDE] (C - Product used for unknown indication - n/a - [n/a - 50mg - n/a])","<a target=""_blank"" href=""https://dap.ema.europa.eu/xmlpserver/PHV%20DAP/Reports/ICSR.xdo?_xpf=&_xt=form&SR_ID=10016780534&_xpt=1&_xf=pdf"">ICSR</a>"
EU-EC-10016765253,Spontaneous,2024-02-06 00:00:00,Non Healthcare Professional,Non European Economic Area,Not available,65-85 Years,Not Specified,No,Male,"Cold sweat (n/a - Unknown - ),<BR><BR>Erythema (n/a - Unknown - ),<BR><BR>Headache (n/a - Recovered/Resolved - ),<BR><BR>Lethargy (2d - Recovered/Resolved - ),<BR><BR>Loss of consciousness (n/a - Unknown - Other Medically Important Condition),<BR><BR>Pain in extremity (n/a - Recovered/Resolved - ),<BR><BR>Pemphigoid (n/a - Recovering/Resolving - Other Medically Important Condition),<BR><BR>Pruritus (n/a - Recovering/Resolving - ),<BR><BR>Respiratory rate increased (n/a - Unknown - ),<BR><BR>Syncope (n/a - Unknown - Other Medically Important Condition)","COMIRNATY [TOZINAMERAN] (S - COVID-19 immunisation - Not applicable - [1d - n/a - n/a]),<BR><BR>SPIKEVAX [ELASOMERAN] (S - COVID-19 immunisation - Not applicable - [1d - n/a - n/a]),<BR><BR>VIDPREVTYN BETA [POLYSORBATE 80, SARS-COV-2, B.1.351 VARIANT, PREFUSION SPIKE DELTA TM PROTEIN, RECOMBINANT, SQUALENE, DL-ALPHA-TOCOPHEROL] (S - COVID-19 immunisation - Not applicable - [n/a - n/a - n/a]),<BR><BR>[COVID-19 MRNA VACCINE (NUCLEOSIDE-MODIFIED)] (S - COVID-19 immunisation - Not applicable - [1d - n/a - n/a])","METHOTREXATE [METHOTREXATE] (C - Pemphigoid - n/a - [n/a - n/a - n/a]),<BR><BR>[BENZALKONIUM CHLORIDE, CHLORHEXIDINE DIHYDROCHLORIDE, ISOPROPYL MYRISTATE, LIQUID PARAFFIN] (C - n/a - n/a - [n/a - n/a - n/a]),<BR><BR>[CLOBETASOL PROPIONATE] (C - Pruritus - n/a - [n/a - n/a - n/a]),<BR><BR>[COLECALCIFEROL, CALCIUM CARBONATE] (C - Pemphigoid - n/a - [n/a - n/a - n/a]),<BR><BR>[DOXYCYCLINE, DOXYCYCLINE HYCLATE, DOXYCYCLINE MONOHYDRATE] (C - Pemphigoid - n/a - [n/a - n/a - n/a]),<BR><BR>[FOLIC ACID] (C - Pemphigoid - n/a - [n/a - n/a - n/a]),<BR><BR>[MOMETASONE] (C - n/a - n/a - [n/a - n/a - n/a]),<BR><BR>[MORPHINE SULFATE] (C - n/a - n/a - [n/a - 100mL - n/a]),<BR><BR>[OMEPRAZOLE] (C - Pemphigoid - n/a - [n/a - n/a - n/a]),<BR><BR>[PREDNISOLONE] (C - Pemphigoid - n/a - [n/a - n/a - n/a]),<BR><BR>[SODIUM HYDROGEN CARBONATE, POTASSIUM CHLORIDE, SODIUM CHLORIDE, MACROGOL 3350] (C - Constipation - n/a - [n/a - 1{DF} - n/a])","<a target=""_blank"" href=""https://dap.ema.europa.eu/xmlpserver/PHV%20DAP/Reports/ICSR.xdo?_xpf=&_xt=form&SR_ID=10016765253&_xpt=1&_xf=pdf"">ICSR</a>"
EU-EC-10016733669,Spontaneous,2024-02-01 00:00:00,Non Healthcare Professional,Non European Economic Area,Not available,65-85 Years,Not Specified,No,Male,"Cold sweat (n/a - Recovering/Resolving - ),<BR><BR>Erythema (n/a - Recovering/Resolving - ),<BR><BR>Headache (n/a - Recovering/Resolving - ),<BR><BR>Lethargy (2d - Recovered/Resolved - ),<BR><BR>Loss of consciousness (n/a - Recovering/Resolving - Other Medically Important Condition),<BR><BR>Pain in extremity (n/a - Recovered/Resolved - ),<BR><BR>Pemphigoid (n/a - Recovering/Resolving - Other Medically Important Condition),<BR><BR>Pruritus (n/a - Recovering/Resolving - ),<BR><BR>Respiratory rate increased (n/a - Recovering/Resolving - ),<BR><BR>Syncope (n/a - Recovering/Resolving - Other Medically Important Condition)","COMIRNATY [TOZINAMERAN] (S - COVID-19 immunisation - Not applicable - [n/a - 1{DF} - n/a]),<BR><BR>SPIKEVAX BIVALENT ORIGINAL/OMICRON BA.1 [ELASOMERAN, IMELASOMERAN] (S - COVID-19 immunisation - Not applicable - [1d - 1{DF} - n/a]),<BR><BR>VIDPREVTYN BETA [POLYSORBATE 80, SARS-COV-2, B.1.351 VARIANT, PREFUSION SPIKE DELTA TM PROTEIN, RECOMBINANT, SQUALENE, DL-ALPHA-TOCOPHEROL] (S - COVID-19 immunisation - Not applicable - [n/a - 1{DF} - n/a])","METHOTREXATE [METHOTREXATE] (C - Pemphigoid - n/a - [112d - 10mg - n/a - More in ICSR]),<BR><BR>[BENZALKONIUM CHLORIDE, CHLORHEXIDINE DIHYDROCHLORIDE, ISOPROPYL MYRISTATE, LIQUID PARAFFIN, BENZALKONIUM CHLORIDE, ISOPROPYL MYRISTATE, LIQUID PARAFFIN, NEOMYCIN SULFATE, PREDNISOLONE] (C - Product used for unknown indication - n/a - [n/a - n/a - n/a]),<BR><BR>[CLOBETASOL PROPIONATE] (C - Pruritus - n/a - [n/a - n/a - n/a]),<BR><BR>[COLECALCIFEROL, CALCIUM CARBONATE] (C - Pemphigoid - n/a - [n/a - 2{DF} - n/a]),<BR><BR>[DOXYCYCLINE, DOXYCYCLINE HYCLATE, DOXYCYCLINE MONOHYDRATE] (C - Pemphigoid - n/a - [n/a - 100mg - n/a]),<BR><BR>[FOLIC ACID] (C - Pemphigoid - n/a - [106d - 5mg - n/a - More in ICSR]),<BR><BR>[MOMETASONE] (C - Product used for unknown indication - n/a - [n/a - n/a - n/a]),<BR><BR>[OMEPRAZOLE] (C - Pemphigoid - n/a - [n/a - 20mg - n/a]),<BR><BR>[PREDNISOLONE] (C - Pemphigoid - n/a - [339d - 5mg - n/a - More in ICSR]),<BR><BR>[SODIUM HYDROGEN CARBONATE, POTASSIUM CHLORIDE, SODIUM CHLORIDE, MACROGOL 3350] (C - Constipation - n/a - [n/a - 1{DF} - n/a])","<a target=""_blank"" href=""https://dap.ema.europa.eu/xmlpserver/PHV%20DAP/Reports/ICSR.xdo?_xpf=&_xt=form&SR_ID=10016733669&_xpt=1&_xf=pdf"">ICSR</a>"
EU-EC-10016627002,Spontaneous,2024-01-15 00:00:00,Non Healthcare Professional,Non European Economic Area,Not available,18-64 Years,Not Specified,No,Female,"Allergy to metals (n/a - Unknown - Other Medically Important Condition),<BR><BR>Alopecia (n/a - Unknown - Other Medically Important Condition),<BR><BR>Brain fog (1d - Recovered/Resolved - Other Medically Important Condition),<BR><BR>Cardiac discomfort (1d - Recovered/Resolved - Other Medically Important Condition),<BR><BR>Dermatitis contact (n/a - Recovered/Resolved - Other Medically Important Condition),<BR><BR>Dyspnoea (1d - Recovered/Resolved - Other Medically Important Condition),<BR><BR>Eczema (n/a - Unknown - Other Medically Important Condition),<BR><BR>Extrasystoles (1d - Recovered/Resolved - Other Medically Important Condition),<BR><BR>Fatigue (n/a - Recovering/Resolving - Other Medically Important Condition),<BR><BR>Food intolerance (n/a - Not Recovered/Not Resolved - Other Medically Important Condition),<BR><BR>Gastrointestinal disorder (1d - Recovered/Resolved - Other Medically Important Condition),<BR><BR>Gingival recession (1d - Recovered/Resolved - Other Medically Important Condition),<BR><BR>Heart rate increased (1d - Recovered/Resolved - Other Medically Important Condition),<BR><BR>Ligamentitis (n/a - Unknown - Other Medically Important Condition),<BR><BR>Lung disorder (n/a - Not Recovered/Not Resolved - Other Medically Important Condition),<BR><BR>Malaise (n/a - Recovered/Resolved - Other Medically Important Condition),<BR><BR>Myalgia (1d - Recovered/Resolved - Other Medically Important Condition),<BR><BR>Palpitations (1d - Recovered/Resolved - Other Medically Important Condition),<BR><BR>Photophobia (n/a - Unknown - Other Medically Important Condition),<BR><BR>Radiculopathy (n/a - Recovered/Resolved - Other Medically Important Condition),<BR><BR>Rash (n/a - Recovered/Resolved - Other Medically Important Condition),<BR><BR>Tachycardia (n/a - Unknown - Other Medically Important Condition),<BR><BR>Visual acuity reduced (n/a - Not Recovered/Not Resolved - Other Medically Important Condition),<BR><BR>Visual impairment (1d - Recovered/Resolved - Other Medically Important Condition)","VIDPREVTYN BETA [POLYSORBATE 80, SARS-COV-2, B.1.351 VARIANT, PREFUSION SPIKE DELTA TM PROTEIN, RECOMBINANT, SQUALENE, DL-ALPHA-TOCOPHEROL] (S - COVID-19 immunisation - Not applicable - [n/a - n/a - n/a]),<BR><BR>[COVID-19 MRNA VACCINE (NUCLEOSIDE-MODIFIED)] (S - COVID-19 immunisation - Not applicable - [1d - n/a - n/a])","[AMLODIPINE, AMLODIPINE BESILATE, AMLODIPINE MALEATE, AMLODIPINE MESILATE] (C - Hypertension - n/a - [n/a - n/a - n/a]),<BR><BR>[CANDESARTAN, CANDESARTAN CILEXETIL] (C - Hypertension - n/a - [n/a - n/a - n/a]),<BR><BR>[CETIRIZINE, CETIRIZINE DIHYDROCHLORIDE] (C - n/a - n/a - [n/a - 4{DF} - n/a]),<BR><BR>[CHLORPHENAMINE MALEATE] (C - Food intolerance - n/a - [n/a - n/a - n/a]),<BR><BR>[DIAZEPAM] (C - Hypermobility syndrome - n/a - [n/a - n/a - n/a]),<BR><BR>[SODIUM CROMOGLICATE] (C - Food intolerance - n/a - [n/a - n/a - n/a])","<a target=""_blank"" href=""https://dap.ema.europa.eu/xmlpserver/PHV%20DAP/Reports/ICSR.xdo?_xpf=&_xt=form&SR_ID=10016627002&_xpt=1&_xf=pdf"">ICSR</a>"
EU-EC-10016610288,Spontaneous,2024-01-11 00:00:00,Non Healthcare Professional,Non European Economic Area,Not available,18-64 Years,Not Specified,No,Female,"Extrasystoles (1d - Recovered/Resolved - Other Medically Important Condition),<BR><BR>Gastrointestinal disorder (1d - Recovered/Resolved - Other Medically Important Condition),<BR><BR>Gingival recession (1d - Recovered/Resolved - Other Medically Important Condition),<BR><BR>Heart rate increased (1d - Recovered/Resolved - Other Medically Important Condition),<BR><BR>Interchange of vaccine products (n/a - Unknown - Other Medically Important Condition),<BR><BR>Lung disorder (n/a - Not Recovered/Not Resolved - Other Medically Important Condition),<BR><BR>Visual impairment (1d - Recovered/Resolved - Other Medically Important Condition)","TOZINAMERAN [TOZINAMERAN] (S - COVID-19 immunisation - Not applicable - [1d - n/a - n/a]),<BR><BR>VIDPREVTYN BETA [POLYSORBATE 80, SARS-COV-2, B.1.351 VARIANT, PREFUSION SPIKE DELTA TM PROTEIN, RECOMBINANT, SQUALENE, DL-ALPHA-TOCOPHEROL] (S - COVID-19 immunisation - Not applicable - [n/a - n/a - n/a])","[AMLODIPINE, AMLODIPINE BESILATE, AMLODIPINE MALEATE, AMLODIPINE MESILATE] (C - Hypertension - n/a - [n/a - n/a - n/a]),<BR><BR>[CANDESARTAN, CANDESARTAN CILEXETIL] (C - Hypertension - n/a - [n/a - n/a - n/a]),<BR><BR>[CETIRIZINE, CETIRIZINE DIHYDROCHLORIDE] (C - n/a - n/a - [n/a - n/a - n/a]),<BR><BR>[CHLORPHENAMINE MALEATE] (C - Food intolerance - n/a - [n/a - n/a - n/a]),<BR><BR>[DIAZEPAM] (C - Hypermobility syndrome - n/a - [n/a - n/a - n/a]),<BR><BR>[SODIUM CROMOGLICATE] (C - Food intolerance - n/a - [n/a - n/a - n/a])","<a target=""_blank"" href=""https://dap.ema.europa.eu/xmlpserver/PHV%20DAP/Reports/ICSR.xdo?_xpf=&_xt=form&SR_ID=10016610288&_xpt=1&_xf=pdf"">ICSR</a>"
EU-EC-10016587632,Spontaneous,2024-01-08 00:00:00,Non Healthcare Professional,Non European Economic Area,Not available,65-85 Years,Not Specified,No,Female,"Abnormal loss of weight (n/a - Not Recovered/Not Resolved - Other Medically Important Condition),<BR><BR>Decreased appetite (n/a - Not Recovered/Not Resolved - Other Medically Important Condition),<BR><BR>Nausea (n/a - Not Recovered/Not Resolved - Other Medically Important Condition)","VIDPREVTYN BETA [POLYSORBATE 80, SARS-COV-2, B.1.351 VARIANT, PREFUSION SPIKE DELTA TM PROTEIN, RECOMBINANT, SQUALENE, DL-ALPHA-TOCOPHEROL] (S - Immunisation - Not applicable - [n/a - n/a - n/a])",Not reported,"<a target=""_blank"" href=""https://dap.ema.europa.eu/xmlpserver/PHV%20DAP/Reports/ICSR.xdo?_xpf=&_xt=form&SR_ID=10016587632&_xpt=1&_xf=pdf"">ICSR</a>"