﻿EU Local Number,Report Type,EV Gateway Receipt Date,Primary Source Qualification,Primary Source Country for Regulatory Purposes,Literature Reference,Patient Age Group,Patient Age Group (as per reporter),Parent Child Report,Patient Sex,Reaction List PT (Duration – Outcome - Seriousness Criteria),Suspect/interacting Drug List (Drug Char - Indication PT - Action taken - [Duration - Dose - Route]),Concomitant/Not Administered Drug List (Drug Char - Indication PT - Action taken - [Duration - Dose - Route]),ICSR Form
EU-EC-10016706859,Spontaneous,2024-01-27 00:00:00,Non Healthcare Professional,European Economic Area,Not available,65-85 Years,Not Specified,No,Male,"Chills (1d - Recovered/Resolved - ),<BR><BR>Injection site erythema (5d - Recovered/Resolved - ),<BR><BR>Injection site haematoma (5d - Recovered/Resolved - ),<BR><BR>Injection site inflammation (5d - Recovered/Resolved - ),<BR><BR>Injection site pruritus (5d - Recovered/Resolved - ),<BR><BR>Injection site swelling (5d - Recovered/Resolved - ),<BR><BR>Insomnia (1d - Recovered/Resolved - )","NUVAXOVID XBB.1.5 [MATRIX M, SARS-COV-2, VARIANT OMICRON XBB.1.5, SPIKE PROTEIN, RECOMBINANT, EXPRESSED IN SF9 CELLS DERIVED FROM SPODOPTERA FRUGIPERDA] (S - COVID-19 immunisation - Not applicable - [n/a - 1{DF} - n/a])",Not reported,"<a target=""_blank"" href=""https://dap.ema.europa.eu/xmlpserver/PHV%20DAP/Reports/ICSR.xdo?_xpf=&_xt=form&SR_ID=10016706859&_xpt=1&_xf=pdf"">ICSR</a>"
EU-EC-10016694804,Spontaneous,2024-01-25 00:00:00,Non Healthcare Professional,European Economic Area,Not available,18-64 Years,Adult,No,Not Specified,"Arthralgia (n/a - Recovering/Resolving - ),<BR><BR>Balance disorder (n/a - Recovering/Resolving - ),<BR><BR>Disturbance in attention (n/a - Recovering/Resolving - ),<BR><BR>Dizziness (n/a - Recovering/Resolving - ),<BR><BR>Fatigue (n/a - Recovering/Resolving - ),<BR><BR>Headache (n/a - Recovering/Resolving - ),<BR><BR>Pain in extremity (n/a - Recovering/Resolving - )","NUVAXOVID XBB.1.5 COVID-19 VACCINE (RECOMBINANT, ADJUVANTED) DISPERSION FOR INJECTION [MATRIX M, SARS-COV-2, VARIANT OMICRON XBB.1.5, SPIKE PROTEIN, RECOMBINANT, EXPRESSED IN SF9 CELLS DERIVED FROM SPODOPTERA FRUGIPERDA] (S - n/a - n/a - [n/a - .5mL - Intramuscular use])",Not reported,"<a target=""_blank"" href=""https://dap.ema.europa.eu/xmlpserver/PHV%20DAP/Reports/ICSR.xdo?_xpf=&_xt=form&SR_ID=10016694804&_xpt=1&_xf=pdf"">ICSR</a>"
EU-EC-10016684664,Spontaneous,2024-01-24 00:00:00,Non Healthcare Professional,European Economic Area,Not available,65-85 Years,Not Specified,No,Female,"Dizziness (n/a - Not Recovered/Not Resolved - ),<BR><BR>Fatigue (n/a - Not Recovered/Not Resolved - ),<BR><BR>Headache (n/a - Not Recovered/Not Resolved - ),<BR><BR>Myalgia (n/a - Not Recovered/Not Resolved - )","NUVAXOVID XBB.1.5 [MATRIX M, SARS-COV-2, VARIANT OMICRON XBB.1.5, SPIKE PROTEIN, RECOMBINANT, EXPRESSED IN SF9 CELLS DERIVED FROM SPODOPTERA FRUGIPERDA] (S - n/a - Not applicable - [n/a - n/a - n/a])",Not reported,"<a target=""_blank"" href=""https://dap.ema.europa.eu/xmlpserver/PHV%20DAP/Reports/ICSR.xdo?_xpf=&_xt=form&SR_ID=10016684664&_xpt=1&_xf=pdf"">ICSR</a>"
EU-EC-10016691248,Spontaneous,2024-01-24 00:00:00,Non Healthcare Professional,European Economic Area,Not available,Not Specified,Not Specified,No,Not Specified,"Ageusia (n/a - Not Recovered/Not Resolved - ),<BR><BR>Anosmia (n/a - Not Recovered/Not Resolved - )","NUVAXOVID XBB.1.5 [MATRIX M, SARS-COV-2, VARIANT OMICRON XBB.1.5, SPIKE PROTEIN, RECOMBINANT, EXPRESSED IN SF9 CELLS DERIVED FROM SPODOPTERA FRUGIPERDA] (S - COVID-19 immunisation - Not applicable - [n/a - n/a - Intramuscular use])",Not reported,"<a target=""_blank"" href=""https://dap.ema.europa.eu/xmlpserver/PHV%20DAP/Reports/ICSR.xdo?_xpf=&_xt=form&SR_ID=10016691248&_xpt=1&_xf=pdf"">ICSR</a>"
EU-EC-10016691253,Spontaneous,2024-01-24 00:00:00,Non Healthcare Professional,Non European Economic Area,Not available,Not Specified,Not Specified,No,Female,Arrhythmia (n/a - Not Recovered/Not Resolved - Other Medically Important Condition),"NUVAXOVID XBB.1.5 [MATRIX M, SARS-COV-2, VARIANT OMICRON XBB.1.5, SPIKE PROTEIN, RECOMBINANT, EXPRESSED IN SF9 CELLS DERIVED FROM SPODOPTERA FRUGIPERDA] (S - COVID-19 immunisation - Not applicable - [n/a - n/a - Intramuscular use])",Not reported,"<a target=""_blank"" href=""https://dap.ema.europa.eu/xmlpserver/PHV%20DAP/Reports/ICSR.xdo?_xpf=&_xt=form&SR_ID=10016691253&_xpt=1&_xf=pdf"">ICSR</a>"
EU-EC-10016667919,Spontaneous,2024-01-22 00:00:00,Non Healthcare Professional,European Economic Area,Not available,Not Specified,Adult,No,Female,"Headache (15h - Recovered/Resolved - ),<BR><BR>Injection site erythema (3d - Recovered/Resolved - ),<BR><BR>Injection site inflammation (3d - Recovered/Resolved - ),<BR><BR>Injection site pain (3d - Recovered/Resolved - ),<BR><BR>Injection site warmth (3d - Recovered/Resolved - ),<BR><BR>Malaise (12h - Recovered/Resolved - )","NUVAXOVID XBB.1.5 [MATRIX M, SARS-COV-2, VARIANT OMICRON XBB.1.5, SPIKE PROTEIN, RECOMBINANT, EXPRESSED IN SF9 CELLS DERIVED FROM SPODOPTERA FRUGIPERDA] (S - COVID-19 immunisation - Not applicable - [n/a - 1{DF} - n/a])",Not reported,"<a target=""_blank"" href=""https://dap.ema.europa.eu/xmlpserver/PHV%20DAP/Reports/ICSR.xdo?_xpf=&_xt=form&SR_ID=10016667919&_xpt=1&_xf=pdf"">ICSR</a>"
EU-EC-10016652452,Spontaneous,2024-01-19 00:00:00,Healthcare Professional,European Economic Area,Not available,18-64 Years,Not Specified,No,Male,"Asthenia (n/a - Unknown - Other Medically Important Condition),<BR><BR>Body temperature increased (n/a - Unknown - Other Medically Important Condition),<BR><BR>Catarrh (n/a - Unknown - Other Medically Important Condition),<BR><BR>Dysphonia (n/a - Unknown - Other Medically Important Condition),<BR><BR>Headache (n/a - Unknown - Other Medically Important Condition),<BR><BR>Malaise (n/a - Unknown - Other Medically Important Condition),<BR><BR>Oropharyngeal pain (n/a - Unknown - Other Medically Important Condition),<BR><BR>Sinus pain (n/a - Unknown - Other Medically Important Condition)","NUVAXOVID XBB.1.5 [MATRIX M, SARS-COV-2, VARIANT OMICRON XBB.1.5, SPIKE PROTEIN, RECOMBINANT, EXPRESSED IN SF9 CELLS DERIVED FROM SPODOPTERA FRUGIPERDA] (S - COVID-19 immunisation - n/a - [n/a - .5mL - n/a])",Not reported,"<a target=""_blank"" href=""https://dap.ema.europa.eu/xmlpserver/PHV%20DAP/Reports/ICSR.xdo?_xpf=&_xt=form&SR_ID=10016652452&_xpt=1&_xf=pdf"">ICSR</a>"
EU-EC-10016652724,Spontaneous,2024-01-19 00:00:00,Healthcare Professional,European Economic Area,Not available,18-64 Years,Not Specified,No,Female,"Asthenia (n/a - Unknown - Other Medically Important Condition),<BR><BR>Catarrh (n/a - Unknown - Other Medically Important Condition),<BR><BR>Dysphonia (n/a - Unknown - Other Medically Important Condition),<BR><BR>Headache (n/a - Unknown - Other Medically Important Condition),<BR><BR>Malaise (n/a - Unknown - Other Medically Important Condition),<BR><BR>Pyrexia (n/a - Unknown - Other Medically Important Condition),<BR><BR>Sinus disorder (n/a - Unknown - Other Medically Important Condition)","NUVAXOVID XBB.1.5 [MATRIX M, SARS-COV-2, VARIANT OMICRON XBB.1.5, SPIKE PROTEIN, RECOMBINANT, EXPRESSED IN SF9 CELLS DERIVED FROM SPODOPTERA FRUGIPERDA] (S - COVID-19 prophylaxis - n/a - [n/a - .5mL - n/a])",Not reported,"<a target=""_blank"" href=""https://dap.ema.europa.eu/xmlpserver/PHV%20DAP/Reports/ICSR.xdo?_xpf=&_xt=form&SR_ID=10016652724&_xpt=1&_xf=pdf"">ICSR</a>"
EU-EC-10016647955,Spontaneous,2024-01-18 00:00:00,Non Healthcare Professional,European Economic Area,Not available,18-64 Years,Adult,No,Male,Vaccination site pain (n/a - Recovered/Resolved - ),"NUVAXOVID XBB.1.5 COVID-19 VACCINE (RECOMBINANT, ADJUVANTED) [MATRIX M, SARS-COV-2, VARIANT OMICRON XBB.1.5, SPIKE PROTEIN, RECOMBINANT, EXPRESSED IN SF9 CELLS DERIVED FROM SPODOPTERA FRUGIPERDA] (S - COVID-19 immunisation - n/a - [n/a - .5mg - Intramuscular use])",[BUPROPION HYDROCHLORIDE] (C - Depression - n/a - [n/a - 150mg - Oral use]),"<a target=""_blank"" href=""https://dap.ema.europa.eu/xmlpserver/PHV%20DAP/Reports/ICSR.xdo?_xpf=&_xt=form&SR_ID=10016647955&_xpt=1&_xf=pdf"">ICSR</a>"
EU-EC-10016635112,Spontaneous,2024-01-16 00:00:00,Non Healthcare Professional,European Economic Area,Not available,18-64 Years,Not Specified,No,Female,"Abdominal pain upper (12h - Recovered/Resolved - ),<BR><BR>Back pain (12h - Recovered/Resolved - ),<BR><BR>Dyspnoea (4d - Recovered/Resolved - ),<BR><BR>Fatigue (4d - Recovered/Resolved - ),<BR><BR>Gastrointestinal pain (12h - Recovered/Resolved - ),<BR><BR>Injection site pain (45min - Recovered/Resolved - ),<BR><BR>Paraesthesia (4d - Recovered/Resolved - )","NUVAXOVID XBB.1.5 [MATRIX M, SARS-COV-2, VARIANT OMICRON XBB.1.5, SPIKE PROTEIN, RECOMBINANT, EXPRESSED IN SF9 CELLS DERIVED FROM SPODOPTERA FRUGIPERDA] (S - COVID-19 immunisation - Not applicable - [n/a - 1{DF} - n/a])","NOT AVAILABLE (C - n/a - n/a - [n/a - n/a - n/a]),<BR><BR>[DYDROGESTERONE, ESTRADIOL] (C - n/a - n/a - [n/a - n/a - n/a])","<a target=""_blank"" href=""https://dap.ema.europa.eu/xmlpserver/PHV%20DAP/Reports/ICSR.xdo?_xpf=&_xt=form&SR_ID=10016635112&_xpt=1&_xf=pdf"">ICSR</a>"
EU-EC-10016618658,Spontaneous,2024-01-12 00:00:00,Non Healthcare Professional,Non European Economic Area,Not available,Not Specified,Not Specified,No,Female,"Asthenia (n/a - Not Recovered/Not Resolved - Caused/Prolonged Hospitalisation),<BR><BR>Death (n/a - Fatal - Results in Death, Other Medically Important Condition),<BR><BR>Dehydration (n/a - Not Recovered/Not Resolved - Caused/Prolonged Hospitalisation),<BR><BR>Pain in extremity (n/a - Unknown - ),<BR><BR>Unevaluable event (n/a - Not Recovered/Not Resolved - )","NUVAXOVID XBB.1.5 [MATRIX M, SARS-COV-2, VARIANT OMICRON XBB.1.5, SPIKE PROTEIN, RECOMBINANT, EXPRESSED IN SF9 CELLS DERIVED FROM SPODOPTERA FRUGIPERDA] (S - COVID-19 immunisation - Not applicable - [n/a - n/a - n/a])",Not reported,"<a target=""_blank"" href=""https://dap.ema.europa.eu/xmlpserver/PHV%20DAP/Reports/ICSR.xdo?_xpf=&_xt=form&SR_ID=10016618658&_xpt=1&_xf=pdf"">ICSR</a>"
EU-EC-10016604388,Spontaneous,2024-01-10 00:00:00,Non Healthcare Professional,Non European Economic Area,Not available,Not Specified,Not Specified,No,Not Specified,"Breakthrough COVID-19 (n/a - Not Recovered/Not Resolved - ),<BR><BR>Chest discomfort (n/a - Not Recovered/Not Resolved - ),<BR><BR>Dizziness (n/a - Not Recovered/Not Resolved - ),<BR><BR>Pyrexia (n/a - Not Recovered/Not Resolved - ),<BR><BR>Vaccination failure (n/a - Recovered/Resolved - Other Medically Important Condition)","NUVAXOVID XBB.1.5 [MATRIX M, SARS-COV-2, VARIANT OMICRON XBB.1.5, SPIKE PROTEIN, RECOMBINANT, EXPRESSED IN SF9 CELLS DERIVED FROM SPODOPTERA FRUGIPERDA] (S - COVID-19 immunisation - Not applicable - [n/a - n/a - Intramuscular use])",Not reported,"<a target=""_blank"" href=""https://dap.ema.europa.eu/xmlpserver/PHV%20DAP/Reports/ICSR.xdo?_xpf=&_xt=form&SR_ID=10016604388&_xpt=1&_xf=pdf"">ICSR</a>"
EU-EC-10016597170,Spontaneous,2024-01-09 00:00:00,Non Healthcare Professional,Non European Economic Area,Not available,Not Specified,Not Specified,No,Not Specified,"Breakthrough COVID-19 (n/a - Not Recovered/Not Resolved - ),<BR><BR>Rhinorrhoea (n/a - Not Recovered/Not Resolved - ),<BR><BR>Vaccination failure (n/a - Recovered/Resolved - Other Medically Important Condition)","NUVAXOVID XBB.1.5 [MATRIX M, SARS-COV-2, VARIANT OMICRON XBB.1.5, SPIKE PROTEIN, RECOMBINANT, EXPRESSED IN SF9 CELLS DERIVED FROM SPODOPTERA FRUGIPERDA] (S - COVID-19 immunisation - Not applicable - [n/a - n/a - Intramuscular use])","PANTOPRAZOLE [PANTOPRAZOLE, PANTOPRAZOLE SODIUM SESQUIHYDRATE] (C - n/a - n/a - [n/a - n/a - n/a]),<BR><BR>[AMLODIPINE, AMLODIPINE BESILATE, AMLODIPINE MALEATE, AMLODIPINE MESILATE] (C - n/a - n/a - [n/a - n/a - n/a]),<BR><BR>[CHLORTALIDONE] (C - n/a - n/a - [n/a - n/a - n/a]),<BR><BR>[CLOBETASOL] (C - n/a - n/a - [n/a - n/a - n/a]),<BR><BR>[ERGOCALCIFEROL] (C - n/a - n/a - [n/a - n/a - n/a]),<BR><BR>[ESCITALOPRAM, ESCITALOPRAM OXALATE] (C - n/a - n/a - [n/a - n/a - n/a]),<BR><BR>[POTASSIUM CHLORIDE] (C - n/a - n/a - [n/a - n/a - n/a]),<BR><BR>[PRAVASTATIN, PRAVASTATIN SODIUM] (C - n/a - n/a - [n/a - n/a - n/a])","<a target=""_blank"" href=""https://dap.ema.europa.eu/xmlpserver/PHV%20DAP/Reports/ICSR.xdo?_xpf=&_xt=form&SR_ID=10016597170&_xpt=1&_xf=pdf"">ICSR</a>"
EU-EC-10016582697,Spontaneous,2024-01-05 00:00:00,Non Healthcare Professional,European Economic Area,Not available,18-64 Years,Not Specified,No,Male,"Bone pain (n/a - Not Recovered/Not Resolved - ),<BR><BR>Chills (n/a - Recovering/Resolving - ),<BR><BR>Fatigue (n/a - Not Recovered/Not Resolved - ),<BR><BR>Headache (n/a - Not Recovered/Not Resolved - ),<BR><BR>Myalgia (n/a - Not Recovered/Not Resolved - ),<BR><BR>Pain (n/a - Not Recovered/Not Resolved - ),<BR><BR>Vaccination site pain (2d - Recovered/Resolved - )","NUVAXOVID XBB.1.5 [MATRIX M, SARS-COV-2, VARIANT OMICRON XBB.1.5, SPIKE PROTEIN, RECOMBINANT, EXPRESSED IN SF9 CELLS DERIVED FROM SPODOPTERA FRUGIPERDA] (S - COVID-19 immunisation - Not applicable - [n/a - .5mL - Intramuscular use])",Not reported,"<a target=""_blank"" href=""https://dap.ema.europa.eu/xmlpserver/PHV%20DAP/Reports/ICSR.xdo?_xpf=&_xt=form&SR_ID=10016582697&_xpt=1&_xf=pdf"">ICSR</a>"
EU-EC-10016576309,Spontaneous,2024-01-04 00:00:00,Healthcare Professional,Non European Economic Area,Not available,Not Specified,Not Specified,No,Female,Atrial fibrillation (n/a - Unknown - Other Medically Important Condition),"NUVAXOVID XBB.1.5 [MATRIX M, SARS-COV-2, VARIANT OMICRON XBB.1.5, SPIKE PROTEIN, RECOMBINANT, EXPRESSED IN SF9 CELLS DERIVED FROM SPODOPTERA FRUGIPERDA] (S - COVID-19 immunisation - Not applicable - [n/a - n/a - Intramuscular use])",Not reported,"<a target=""_blank"" href=""https://dap.ema.europa.eu/xmlpserver/PHV%20DAP/Reports/ICSR.xdo?_xpf=&_xt=form&SR_ID=10016576309&_xpt=1&_xf=pdf"">ICSR</a>"
EU-EC-10016576317,Spontaneous,2024-01-04 00:00:00,Non Healthcare Professional,Non European Economic Area,Not available,18-64 Years,Not Specified,No,Female,"Arthralgia (n/a - Recovered/Resolved - ),<BR><BR>Musculoskeletal stiffness (n/a - Recovered/Resolved - ),<BR><BR>Pain in extremity (n/a - Recovered/Resolved - ),<BR><BR>Polyarthritis (n/a - Recovering/Resolving - Other Medically Important Condition)","NUVAXOVID XBB.1.5 [MATRIX M, SARS-COV-2, VARIANT OMICRON XBB.1.5, SPIKE PROTEIN, RECOMBINANT, EXPRESSED IN SF9 CELLS DERIVED FROM SPODOPTERA FRUGIPERDA] (S - COVID-19 immunisation - Not applicable - [n/a - n/a - Intramuscular use])",Not reported,"<a target=""_blank"" href=""https://dap.ema.europa.eu/xmlpserver/PHV%20DAP/Reports/ICSR.xdo?_xpf=&_xt=form&SR_ID=10016576317&_xpt=1&_xf=pdf"">ICSR</a>"
EU-EC-10016576318,Spontaneous,2024-01-04 00:00:00,Healthcare Professional,Non European Economic Area,Not available,65-85 Years,Not Specified,No,Male,"Atrial fibrillation (n/a - Unknown - Other Medically Important Condition),<BR><BR>Chest pain (n/a - Recovered/Resolved - ),<BR><BR>Pericarditis (n/a - Unknown - Other Medically Important Condition),<BR><BR>Pleuritic pain (n/a - Recovered/Resolved - )","NUVAXOVID XBB.1.5 [MATRIX M, SARS-COV-2, VARIANT OMICRON XBB.1.5, SPIKE PROTEIN, RECOMBINANT, EXPRESSED IN SF9 CELLS DERIVED FROM SPODOPTERA FRUGIPERDA] (S - COVID-19 immunisation - Not applicable - [n/a - n/a - Intramuscular use])","[ATORVASTATIN, ATORVASTATIN CALCIUM, ATORVASTATIN CALCIUM TRIHYDRATE] (C - n/a - n/a - [n/a - n/a - n/a]),<BR><BR>[VALSARTAN] (C - n/a - n/a - [n/a - n/a - n/a])","<a target=""_blank"" href=""https://dap.ema.europa.eu/xmlpserver/PHV%20DAP/Reports/ICSR.xdo?_xpf=&_xt=form&SR_ID=10016576318&_xpt=1&_xf=pdf"">ICSR</a>"