﻿EU Local Number,Report Type,EV Gateway Receipt Date,Primary Source Qualification,Primary Source Country for Regulatory Purposes,Literature Reference,Patient Age Group,Patient Age Group (as per reporter),Parent Child Report,Patient Sex,Reaction List PT (Duration – Outcome - Seriousness Criteria),Suspect/interacting Drug List (Drug Char - Indication PT - Action taken - [Duration - Dose - Route]),Concomitant/Not Administered Drug List (Drug Char - Indication PT - Action taken - [Duration - Dose - Route]),ICSR Form
EU-EC-10016703613,Spontaneous,2024-01-26 00:00:00,Non Healthcare Professional,European Economic Area,Not available,18-64 Years,Not Specified,No,Female,"Blood pressure abnormal (n/a - Not Recovered/Not Resolved - Disabling),<BR><BR>Chronic disease (n/a - Not Recovered/Not Resolved - Disabling),<BR><BR>Condition aggravated (n/a - Not Recovered/Not Resolved - Disabling),<BR><BR>Pericardial effusion (n/a - Not Recovered/Not Resolved - Disabling),<BR><BR>Pericarditis (n/a - Not Recovered/Not Resolved - Disabling),<BR><BR>Pyrexia (n/a - Not Recovered/Not Resolved - Disabling)","SPIKEVAX BIVALENT ORIGINAL/OMICRON BA.4-5 [ELASOMERAN, DAVESOMERAN] (S - n/a - n/a - [n/a - n/a - n/a]),<BR><BR>SPIKEVAX [ELASOMERAN] (S - n/a - n/a - [n/a - n/a - n/a])",ELIQUIS [APIXABAN] (C - n/a - n/a - [n/a - n/a - n/a]),"<a target=""_blank"" href=""https://dap.ema.europa.eu/xmlpserver/PHV%20DAP/Reports/ICSR.xdo?_xpf=&_xt=form&SR_ID=10016703613&_xpt=1&_xf=pdf"">ICSR</a>"
EU-EC-10016694531,Spontaneous,2024-01-25 00:00:00,Healthcare Professional,Non European Economic Area,Not available,65-85 Years,Not Specified,No,Female,"Atrial fibrillation (n/a - Unknown - Other Medically Important Condition),<BR><BR>Hyperhidrosis (n/a - Unknown - ),<BR><BR>Nausea (n/a - Unknown - ),<BR><BR>Pyrexia (0d - Recovered/Resolved - ),<BR><BR>Vomiting (0d - Recovered/Resolved - )","SPIKEVAX BIVALENT ORIGINAL/OMICRON BA.4-5 [ELASOMERAN, DAVESOMERAN] (S - n/a - Not applicable - [n/a - n/a - n/a]),<BR><BR>[INFLUENZA VACCINE] (S - n/a - Not applicable - [n/a - n/a - n/a])",Not reported,"<a target=""_blank"" href=""https://dap.ema.europa.eu/xmlpserver/PHV%20DAP/Reports/ICSR.xdo?_xpf=&_xt=form&SR_ID=10016694531&_xpt=1&_xf=pdf"">ICSR</a>"
EU-EC-10016698653,Spontaneous,2024-01-25 00:00:00,Non Healthcare Professional,Non European Economic Area,Not available,65-85 Years,Not Specified,No,Female,"COVID-19 (n/a - Not Recovered/Not Resolved - Other Medically Important Condition),<BR><BR>Drug ineffective (n/a - Not Recovered/Not Resolved - Other Medically Important Condition),<BR><BR>Interchange of vaccine products (n/a - Not Recovered/Not Resolved - Other Medically Important Condition)","SPIKEVAX BIVALENT ORIGINAL/OMICRON BA.4-5 [ELASOMERAN, DAVESOMERAN] (S - COVID-19 immunisation - Not applicable - [1d - n/a - n/a]),<BR><BR>SPIKEVAX [ELASOMERAN] (S - COVID-19 immunisation - Not applicable - [1d - n/a - n/a]),<BR><BR>TOZINAMERAN [TOZINAMERAN] (S - COVID-19 immunisation - Not applicable - [1d - n/a - n/a]),<BR><BR>TOZINAMERAN, FAMTOZINAMERAN [TOZINAMERAN, FAMTOZINAMERAN] (S - COVID-19 immunisation - Not applicable - [1d - n/a - n/a])",Not reported,"<a target=""_blank"" href=""https://dap.ema.europa.eu/xmlpserver/PHV%20DAP/Reports/ICSR.xdo?_xpf=&_xt=form&SR_ID=10016698653&_xpt=1&_xf=pdf"">ICSR</a>"
EU-EC-10016674762,Spontaneous,2024-01-23 00:00:00,Healthcare Professional,Non European Economic Area,Not available,18-64 Years,Not Specified,No,Male,"Hypoaesthesia (n/a - Recovering/Resolving - Caused/Prolonged Hospitalisation),<BR><BR>Muscular weakness (n/a - Recovering/Resolving - Caused/Prolonged Hospitalisation),<BR><BR>Myalgia (n/a - Recovering/Resolving - Caused/Prolonged Hospitalisation),<BR><BR>Pain in extremity (n/a - Recovering/Resolving - Caused/Prolonged Hospitalisation),<BR><BR>Pyrexia (n/a - Recovering/Resolving - Caused/Prolonged Hospitalisation),<BR><BR>Sensory disturbance (n/a - Recovering/Resolving - Caused/Prolonged Hospitalisation)","SPIKEVAX BIVALENT ORIGINAL/OMICRON BA.4-5 [ELASOMERAN, DAVESOMERAN] (S - COVID-19 prophylaxis - Not applicable - [n/a - .5mL - Intramuscular use])",Not reported,"<a target=""_blank"" href=""https://dap.ema.europa.eu/xmlpserver/PHV%20DAP/Reports/ICSR.xdo?_xpf=&_xt=form&SR_ID=10016674762&_xpt=1&_xf=pdf"">ICSR</a>"
EU-EC-10016663749,Spontaneous,2024-01-22 00:00:00,Non Healthcare Professional,Non European Economic Area,Not available,65-85 Years,Not Specified,No,Female,"Atypical pneumonia (n/a - Recovered/Resolved - Other Medically Important Condition),<BR><BR>COVID-19 (n/a - Recovered/Resolved - ),<BR><BR>Flushing (1d - Recovered/Resolved - ),<BR><BR>Gait disturbance (1d - Recovered/Resolved - ),<BR><BR>Hypertension (1d - Recovered/Resolved - ),<BR><BR>Palpitations (1d - Recovered/Resolved - ),<BR><BR>Tachycardia (n/a - Unknown - )","SPIKEVAX BIVALENT ORIGINAL/OMICRON BA.4-5 [ELASOMERAN, DAVESOMERAN] (S - COVID-19 prophylaxis - Not applicable - [n/a - 1{DF} - n/a]),<BR><BR>[A/HONG KONG/4801/2014 (H3N2)-LIKE STRAIN (A/HONG KONG/4801/2014, X-263B), B/BRISBANE/60/2008-LIKE STRAIN (B/BRISBANE/60/2008, WILD TYPE), A/CALIFORNIA/7/2009 (H1N1)PDM09-DERIVED STRAIN USED (NYMC X-181), A/HONG KONG/4801/2014 (H3N2)-LIKE STRAIN (A/HONG KONG/4801/2014, X-263B), B/BRISBANE/60/2008-LIKE STRAIN (B/BRISBANE/60/2008, WILD TYPE), A/MICHIGAN/45/2015 (H1N1)PDM09-LIKE STRAIN (A/SINGAPORE/GP1908/2015, IVR-180), INFLUENZA VACCINE] (S - Product used for unknown indication - Unknown - [n/a - 1{DF} - n/a])",Not reported,"<a target=""_blank"" href=""https://dap.ema.europa.eu/xmlpserver/PHV%20DAP/Reports/ICSR.xdo?_xpf=&_xt=form&SR_ID=10016663749&_xpt=1&_xf=pdf"">ICSR</a>"
EU-EC-10016668428,Spontaneous,2024-01-22 00:00:00,Healthcare Professional,Non European Economic Area,Not available,18-64 Years,Not Specified,No,Female,Blindness unilateral (n/a - Not Recovered/Not Resolved - Other Medically Important Condition),"SPIKEVAX BIVALENT ORIGINAL/OMICRON BA.4-5 [ELASOMERAN, DAVESOMERAN] (S - COVID-19 prophylaxis - Not applicable - [n/a - .5mL - Intramuscular use])",Not reported,"<a target=""_blank"" href=""https://dap.ema.europa.eu/xmlpserver/PHV%20DAP/Reports/ICSR.xdo?_xpf=&_xt=form&SR_ID=10016668428&_xpt=1&_xf=pdf"">ICSR</a>"
EU-EC-10016671376,Spontaneous,2024-01-22 00:00:00,Non Healthcare Professional,Non European Economic Area,Not available,18-64 Years,Not Specified,No,Female,"Arthralgia (n/a - Not Recovered/Not Resolved - Disabling),<BR><BR>Hypersensitivity (n/a - Unknown - ),<BR><BR>Myalgia (n/a - Not Recovered/Not Resolved - Disabling),<BR><BR>Pain (n/a - Not Recovered/Not Resolved - Disabling),<BR><BR>Pain (n/a - Unknown - ),<BR><BR>Paraesthesia (n/a - Not Recovered/Not Resolved - Disabling),<BR><BR>Skin burning sensation (n/a - Not Recovered/Not Resolved - Disabling)","SPIKEVAX BIVALENT ORIGINAL/OMICRON BA.4-5 [ELASOMERAN, DAVESOMERAN] (S - COVID-19 prophylaxis - Not applicable - [n/a - 1{DF} - n/a])",Not reported,"<a target=""_blank"" href=""https://dap.ema.europa.eu/xmlpserver/PHV%20DAP/Reports/ICSR.xdo?_xpf=&_xt=form&SR_ID=10016671376&_xpt=1&_xf=pdf"">ICSR</a>"
EU-EC-10016661950,Spontaneous,2024-01-20 00:00:00,Non Healthcare Professional,Non European Economic Area,Not available,18-64 Years,Not Specified,No,Female,"Angioedema (n/a - Not Recovered/Not Resolved - Other Medically Important Condition),<BR><BR>Post-acute COVID-19 syndrome (n/a - Not Recovered/Not Resolved - Other Medically Important Condition),<BR><BR>Urticaria (n/a - Not Recovered/Not Resolved - )","SPIKEVAX BIVALENT ORIGINAL/OMICRON BA.4-5 [ELASOMERAN, DAVESOMERAN] (S - COVID-19 prophylaxis - Not applicable - [n/a - .5mL - Intramuscular use]),<BR><BR>[A/HONG KONG/4801/2014 (H3N2)-LIKE STRAIN (A/HONG KONG/4801/2014, X-263B), B/BRISBANE/60/2008-LIKE STRAIN (B/BRISBANE/60/2008, WILD TYPE), A/CALIFORNIA/7/2009 (H1N1)PDM09-DERIVED STRAIN USED (NYMC X-181), A/HONG KONG/4801/2014 (H3N2)-LIKE STRAIN (A/HONG KONG/4801/2014, X-263B), B/BRISBANE/60/2008-LIKE STRAIN (B/BRISBANE/60/2008, WILD TYPE), A/MICHIGAN/45/2015 (H1N1)PDM09-LIKE STRAIN (A/SINGAPORE/GP1908/2015, IVR-180), INFLUENZA VACCINE] (S - n/a - Not applicable - [n/a - 1{DF} - n/a])",Not reported,"<a target=""_blank"" href=""https://dap.ema.europa.eu/xmlpserver/PHV%20DAP/Reports/ICSR.xdo?_xpf=&_xt=form&SR_ID=10016661950&_xpt=1&_xf=pdf"">ICSR</a>"
EU-EC-10016654913,Spontaneous,2024-01-19 00:00:00,Healthcare Professional,Non European Economic Area,Not available,65-85 Years,Not Specified,No,Male,"Guillain-Barre syndrome (109d - Recovered/Resolved - Caused/Prolonged Hospitalisation, Other Medically Important Condition)","SPIKEVAX BIVALENT ORIGINAL/OMICRON BA.4-5 [ELASOMERAN, DAVESOMERAN] (S - COVID-19 prophylaxis - Not applicable - [n/a - 1{DF} - Intramuscular use]),<BR><BR>SPIKEVAX [ELASOMERAN] (S - COVID-19 prophylaxis - Not applicable - [n/a - 1{DF} - Intramuscular use])","[AMLODIPINE, AMLODIPINE BESILATE, AMLODIPINE MALEATE, AMLODIPINE MESILATE] (C - Product used for unknown indication - n/a - [n/a - 1{DF} - n/a])","<a target=""_blank"" href=""https://dap.ema.europa.eu/xmlpserver/PHV%20DAP/Reports/ICSR.xdo?_xpf=&_xt=form&SR_ID=10016654913&_xpt=1&_xf=pdf"">ICSR</a>"
EU-EC-10016658898,Spontaneous,2024-01-19 00:00:00,Healthcare Professional,Non European Economic Area,Not available,65-85 Years,Not Specified,No,Male,"Facial paralysis (15d - Recovered/Resolved With Sequelae - Caused/Prolonged Hospitalisation, Other Medically Important Condition)","SPIKEVAX BIVALENT ORIGINAL/OMICRON BA.4-5 [ELASOMERAN, DAVESOMERAN] (S - COVID-19 prophylaxis - Not applicable - [n/a - 1{DF} - Intramuscular use])","BRINZOLAMIDE [BRINZOLAMIDE] (C - Product used for unknown indication - n/a - [n/a - n/a - n/a]),<BR><BR>EDOXABAN [EDOXABAN] (C - Product used for unknown indication - n/a - [n/a - 1{DF} - n/a]),<BR><BR>LATANOPROST [LATANOPROST] (C - Product used for unknown indication - n/a - [n/a - n/a - n/a]),<BR><BR>[BENZBROMARONE] (C - Product used for unknown indication - n/a - [n/a - 1{DF} - n/a]),<BR><BR>[BISOPROLOL, BISOPROLOL FUMARATE, BISOPROLOL HEMIFUMARATE] (C - Product used for unknown indication - n/a - [n/a - 1{DF} - n/a]),<BR><BR>[RIPASUDIL] (C - Product used for unknown indication - n/a - [n/a - n/a - n/a])","<a target=""_blank"" href=""https://dap.ema.europa.eu/xmlpserver/PHV%20DAP/Reports/ICSR.xdo?_xpf=&_xt=form&SR_ID=10016658898&_xpt=1&_xf=pdf"">ICSR</a>"
EU-EC-10016647837,Spontaneous,2024-01-18 00:00:00,Healthcare Professional,Non European Economic Area,Not available,65-85 Years,Not Specified,No,Female,"Drug ineffective (n/a - Recovering/Resolving - Other Medically Important Condition),<BR><BR>Interchange of vaccine products (n/a - Recovering/Resolving - Other Medically Important Condition),<BR><BR>Off label use (n/a - Recovering/Resolving - Other Medically Important Condition),<BR><BR>Sudden hearing loss (n/a - Recovering/Resolving - Other Medically Important Condition),<BR><BR>Suspected COVID-19 (n/a - Recovering/Resolving - Other Medically Important Condition)","SPIKEVAX BIVALENT ORIGINAL/OMICRON BA.4-5 [ELASOMERAN, DAVESOMERAN] (S - COVID-19 immunisation - Not applicable - [n/a - 1{DF} - n/a]),<BR><BR>SPIKEVAX [ELASOMERAN] (S - COVID-19 immunisation - Not applicable - [n/a - 1{DF} - Intramuscular use - More in ICSR]),<BR><BR>TOZINAMERAN [TOZINAMERAN] (S - COVID-19 immunisation - Unknown - [n/a - 1{DF} - Intramuscular use])",Not reported,"<a target=""_blank"" href=""https://dap.ema.europa.eu/xmlpserver/PHV%20DAP/Reports/ICSR.xdo?_xpf=&_xt=form&SR_ID=10016647837&_xpt=1&_xf=pdf"">ICSR</a>"
EU-EC-10016640884,Spontaneous,2024-01-17 00:00:00,Non Healthcare Professional,Non European Economic Area,Not available,Not Specified,Elderly,No,Female,"COVID-19 (n/a - Unknown - ),<BR><BR>Fatigue (n/a - Unknown - ),<BR><BR>Headache (n/a - Unknown - ),<BR><BR>Influenza (n/a - Unknown - Other Medically Important Condition),<BR><BR>Pain (n/a - Unknown - )","SPIKEVAX BIVALENT ORIGINAL/OMICRON BA.4-5 [ELASOMERAN, DAVESOMERAN] (S - COVID-19 prophylaxis - Not applicable - [n/a - 1{DF} - n/a]),<BR><BR>[A/HONG KONG/4801/2014 (H3N2)-LIKE STRAIN (A/HONG KONG/4801/2014, X-263B), B/BRISBANE/60/2008-LIKE STRAIN (B/BRISBANE/60/2008, WILD TYPE), A/CALIFORNIA/7/2009 (H1N1)PDM09-DERIVED STRAIN USED (NYMC X-181), A/HONG KONG/4801/2014 (H3N2)-LIKE STRAIN (A/HONG KONG/4801/2014, X-263B), B/BRISBANE/60/2008-LIKE STRAIN (B/BRISBANE/60/2008, WILD TYPE), A/MICHIGAN/45/2015 (H1N1)PDM09-LIKE STRAIN (A/SINGAPORE/GP1908/2015, IVR-180), INFLUENZA VACCINE] (S - n/a - Not applicable - [n/a - 1{DF} - n/a])",Not reported,"<a target=""_blank"" href=""https://dap.ema.europa.eu/xmlpserver/PHV%20DAP/Reports/ICSR.xdo?_xpf=&_xt=form&SR_ID=10016640884&_xpt=1&_xf=pdf"">ICSR</a>"
EU-EC-10016630401,Spontaneous,2024-01-16 00:00:00,Healthcare Professional,Non European Economic Area,Not available,18-64 Years,Not Specified,No,Female,"Anaphylactic reaction (n/a - Not Recovered/Not Resolved - Other Medically Important Condition),<BR><BR>Dyspnoea (n/a - Unknown - ),<BR><BR>Hypersensitivity (n/a - Unknown - ),<BR><BR>Impaired healing (n/a - Unknown - ),<BR><BR>Sinusitis (n/a - Not Recovered/Not Resolved - )","SPIKEVAX BIVALENT ORIGINAL/OMICRON BA.4-5 [ELASOMERAN, DAVESOMERAN] (S - COVID-19 prophylaxis - Not applicable - [n/a - 1{DF} - n/a])",Not reported,"<a target=""_blank"" href=""https://dap.ema.europa.eu/xmlpserver/PHV%20DAP/Reports/ICSR.xdo?_xpf=&_xt=form&SR_ID=10016630401&_xpt=1&_xf=pdf"">ICSR</a>"
EU-EC-10016630850,Spontaneous,2024-01-16 00:00:00,Healthcare Professional,Non European Economic Area,"Ito T, Kanai O, Saito Z, Imakita T, Oi I, Fujita K, et al. A case of small cell lung cancer in which aortitis developed after administration of pegfilgrastim. Japanese Journal of Lung Cancer/The 64th Annual Meeting of the Japan Lung Cancer. 2023;63(5):591. doi:10.1159/000534931 Ito T, Kanai O, Saito Z, Imakita T, Oi I, Fujita K, et al. Pegfilgrastim-induced Aortitis in a patient with small-cell lung cancer who received immunotherapy combined with chemotherapy. Case Rep Oncol. 2023;16(1):1466-74. doi:10.1159/000534931",65-85 Years,Not Specified,No,Male,"Aortitis (n/a - Recovering/Resolving - Caused/Prolonged Hospitalisation, Other Medically Important Condition),<BR><BR>Cytopenia (n/a - Unknown - Caused/Prolonged Hospitalisation, Other Medically Important Condition),<BR><BR>Ear pain (n/a - Recovering/Resolving - Caused/Prolonged Hospitalisation),<BR><BR>Pyrexia (n/a - Recovered/Resolved - Caused/Prolonged Hospitalisation)","PEGFILGRASTIM [PEGFILGRASTIM] (S - Product used for unknown indication - n/a - [n/a - n/a - n/a]),<BR><BR>SPIKEVAX BIVALENT ORIGINAL/OMICRON BA.4-5 [ELASOMERAN, DAVESOMERAN] (S - COVID-19 prophylaxis - Not applicable - [n/a - 1{DF} - n/a])","DURVALUMAB [DURVALUMAB] (C - Small cell lung cancer extensive stage - n/a - [n/a - n/a - n/a]),<BR><BR>SILODOSIN [SILODOSIN] (C - Product used for unknown indication - n/a - [n/a - n/a - n/a]),<BR><BR>[BISOPROLOL FUMARATE] (C - Product used for unknown indication - n/a - [n/a - n/a - n/a]),<BR><BR>[CARBOPLATIN] (C - Small cell lung cancer extensive stage - n/a - [n/a - n/a - n/a]),<BR><BR>[EDOXABAN TOSYLATE] (C - Product used for unknown indication - n/a - [n/a - n/a - n/a]),<BR><BR>[ETOPOSIDE] (C - Small cell lung cancer extensive stage - n/a - [n/a - n/a - n/a])","<a target=""_blank"" href=""https://dap.ema.europa.eu/xmlpserver/PHV%20DAP/Reports/ICSR.xdo?_xpf=&_xt=form&SR_ID=10016630850&_xpt=1&_xf=pdf"">ICSR</a>"
EU-EC-10016631424,Spontaneous,2024-01-16 00:00:00,Healthcare Professional,Non European Economic Area,Not available,18-64 Years,Not Specified,No,Female,"COVID-19 (n/a - Unknown - Other Medically Important Condition),<BR><BR>Drug ineffective (n/a - Unknown - Other Medically Important Condition),<BR><BR>Interchange of vaccine products (n/a - Unknown - )","SPIKEVAX BIVALENT ORIGINAL/OMICRON BA.4-5 [ELASOMERAN, DAVESOMERAN] (S - COVID-19 immunisation - Not applicable - [n/a - n/a - n/a]),<BR><BR>SPIKEVAX [ELASOMERAN] (S - COVID-19 immunisation - Not applicable - [1d - n/a - n/a - More in ICSR]),<BR><BR>TOZINAMERAN [TOZINAMERAN] (S - COVID-19 immunisation - Not applicable - [n/a - n/a - n/a])","[LEVOTHYROXINE, LEVOTHYROXINE SODIUM] (C - n/a - n/a - [n/a - n/a - n/a])","<a target=""_blank"" href=""https://dap.ema.europa.eu/xmlpserver/PHV%20DAP/Reports/ICSR.xdo?_xpf=&_xt=form&SR_ID=10016631424&_xpt=1&_xf=pdf"">ICSR</a>"
EU-EC-10016617895,Spontaneous,2024-01-12 00:00:00,Healthcare Professional,Non European Economic Area,Not available,18-64 Years,Not Specified,No,Male,Urticaria chronic (n/a - Unknown - Other Medically Important Condition),"SPIKEVAX BIVALENT ORIGINAL/OMICRON BA.4-5 [ELASOMERAN, DAVESOMERAN] (S - COVID-19 prophylaxis - Not applicable - [n/a - .5mL - Intramuscular use])",Not reported,"<a target=""_blank"" href=""https://dap.ema.europa.eu/xmlpserver/PHV%20DAP/Reports/ICSR.xdo?_xpf=&_xt=form&SR_ID=10016617895&_xpt=1&_xf=pdf"">ICSR</a>"
EU-EC-10016605970,Spontaneous,2024-01-11 00:00:00,Non Healthcare Professional,Non European Economic Area,Not available,65-85 Years,Not Specified,No,Female,"COVID-19 (n/a - Unknown - Other Medically Important Condition),<BR><BR>Drug ineffective (n/a - Unknown - Other Medically Important Condition),<BR><BR>Interchange of vaccine products (n/a - Unknown - Other Medically Important Condition)","SPIKEVAX BIVALENT ORIGINAL/OMICRON BA.4-5 [ELASOMERAN, DAVESOMERAN] (S - COVID-19 immunisation - Not applicable - [n/a - n/a - n/a]),<BR><BR>SPIKEVAX [ELASOMERAN] (S - COVID-19 immunisation - Not applicable - [n/a - n/a - n/a]),<BR><BR>TOZINAMERAN [TOZINAMERAN] (S - COVID-19 immunisation - Not applicable - [n/a - n/a - n/a]),<BR><BR>TOZINAMERAN, FAMTOZINAMERAN [TOZINAMERAN, FAMTOZINAMERAN] (S - COVID-19 immunisation - Not applicable - [n/a - n/a - n/a])",Not reported,"<a target=""_blank"" href=""https://dap.ema.europa.eu/xmlpserver/PHV%20DAP/Reports/ICSR.xdo?_xpf=&_xt=form&SR_ID=10016605970&_xpt=1&_xf=pdf"">ICSR</a>"
EU-EC-10016585657,Spontaneous,2024-01-08 00:00:00,Non Healthcare Professional,Non European Economic Area,Not available,65-85 Years,Not Specified,No,Female,"COVID-19 (n/a - Unknown - Other Medically Important Condition),<BR><BR>Drug ineffective (n/a - Unknown - Other Medically Important Condition),<BR><BR>Interchange of vaccine products (n/a - Unknown - Other Medically Important Condition)","SPIKEVAX BIVALENT ORIGINAL/OMICRON BA.4-5 [ELASOMERAN, DAVESOMERAN] (S - COVID-19 immunisation - Not applicable - [n/a - n/a - n/a]),<BR><BR>TOZINAMERAN [TOZINAMERAN] (S - COVID-19 immunisation - Not applicable - [1d - n/a - n/a]),<BR><BR>TOZINAMERAN, FAMTOZINAMERAN [TOZINAMERAN, FAMTOZINAMERAN] (S - COVID-19 immunisation - Not applicable - [1d - n/a - n/a])",Not reported,"<a target=""_blank"" href=""https://dap.ema.europa.eu/xmlpserver/PHV%20DAP/Reports/ICSR.xdo?_xpf=&_xt=form&SR_ID=10016585657&_xpt=1&_xf=pdf"">ICSR</a>"
EU-EC-10016578121,Spontaneous,2024-01-05 00:00:00,Non Healthcare Professional,Non European Economic Area,Not available,65-85 Years,Not Specified,No,Female,"COVID-19 (n/a - Unknown - Other Medically Important Condition),<BR><BR>Drug ineffective (n/a - Unknown - Other Medically Important Condition),<BR><BR>Interchange of vaccine products (n/a - Unknown - Other Medically Important Condition)","SPIKEVAX BIVALENT ORIGINAL/OMICRON BA.4-5 [ELASOMERAN, DAVESOMERAN] (S - COVID-19 immunisation - Not applicable - [1d - n/a - n/a - More in ICSR]),<BR><BR>SPIKEVAX [ELASOMERAN] (S - COVID-19 immunisation - Not applicable - [1d - n/a - n/a]),<BR><BR>TOZINAMERAN [TOZINAMERAN] (S - COVID-19 immunisation - Not applicable - [1d - n/a - n/a])",Not reported,"<a target=""_blank"" href=""https://dap.ema.europa.eu/xmlpserver/PHV%20DAP/Reports/ICSR.xdo?_xpf=&_xt=form&SR_ID=10016578121&_xpt=1&_xf=pdf"">ICSR</a>"
EU-EC-10016563761,Spontaneous,2024-01-03 00:00:00,Healthcare Professional,Non European Economic Area,Not available,65-85 Years,Not Specified,No,Male,Coagulopathy (n/a - Not Recovered/Not Resolved - Caused/Prolonged Hospitalisation),"SPIKEVAX BIVALENT ORIGINAL/OMICRON BA.4-5 [ELASOMERAN, DAVESOMERAN] (S - COVID-19 prophylaxis - Not applicable - [n/a - 1{DF} - n/a])",Not reported,"<a target=""_blank"" href=""https://dap.ema.europa.eu/xmlpserver/PHV%20DAP/Reports/ICSR.xdo?_xpf=&_xt=form&SR_ID=10016563761&_xpt=1&_xf=pdf"">ICSR</a>"
EU-EC-10016564227,Spontaneous,2024-01-03 00:00:00,Healthcare Professional,Non European Economic Area,Not available,65-85 Years,Not Specified,No,Male,"Febrile convulsion (n/a - Not Recovered/Not Resolved - Other Medically Important Condition),<BR><BR>Pain (n/a - Not Recovered/Not Resolved - ),<BR><BR>Seizure (n/a - Not Recovered/Not Resolved - Other Medically Important Condition)","SPIKEVAX BIVALENT ORIGINAL/OMICRON BA.4-5 [ELASOMERAN, DAVESOMERAN] (S - COVID-19 prophylaxis - Not applicable - [n/a - 1{DF} - n/a])",Not reported,"<a target=""_blank"" href=""https://dap.ema.europa.eu/xmlpserver/PHV%20DAP/Reports/ICSR.xdo?_xpf=&_xt=form&SR_ID=10016564227&_xpt=1&_xf=pdf"">ICSR</a>"
EU-EC-10016566696,Spontaneous,2024-01-03 00:00:00,Healthcare Professional,Non European Economic Area,Not available,65-85 Years,Not Specified,No,Female,"Erythema (n/a - Recovered/Resolved - Other Medically Important Condition),<BR><BR>Headache (n/a - Recovered/Resolved - Other Medically Important Condition),<BR><BR>Induration (n/a - Recovered/Resolved - Other Medically Important Condition),<BR><BR>Local reaction (n/a - Recovered/Resolved - Other Medically Important Condition),<BR><BR>Pain (n/a - Recovered/Resolved - Other Medically Important Condition),<BR><BR>Pyrexia (n/a - Recovered/Resolved - Other Medically Important Condition),<BR><BR>Swelling (n/a - Recovered/Resolved - Other Medically Important Condition)","SPIKEVAX BIVALENT ORIGINAL/OMICRON BA.4-5 [ELASOMERAN, DAVESOMERAN] (S - COVID-19 prophylaxis - Not applicable - [n/a - 1{DF} - n/a])",Not reported,"<a target=""_blank"" href=""https://dap.ema.europa.eu/xmlpserver/PHV%20DAP/Reports/ICSR.xdo?_xpf=&_xt=form&SR_ID=10016566696&_xpt=1&_xf=pdf"">ICSR</a>"
EU-EC-10016556960,Spontaneous,2024-01-02 00:00:00,Healthcare Professional,Non European Economic Area,Not available,65-85 Years,Not Specified,No,Female,"COVID-19 (n/a - Unknown - Other Medically Important Condition),<BR><BR>Drug ineffective (n/a - Unknown - Other Medically Important Condition),<BR><BR>Interchange of vaccine products (n/a - Unknown - Other Medically Important Condition)","COMIRNATY [TOZINAMERAN] (S - COVID-19 immunisation - Not applicable - [n/a - n/a - n/a]),<BR><BR>SPIKEVAX BIVALENT ORIGINAL/OMICRON BA.4-5 [ELASOMERAN, DAVESOMERAN] (S - COVID-19 immunisation - Not applicable - [n/a - n/a - n/a]),<BR><BR>SPIKEVAX XBB.1.5 [ANDUSOMERAN] (S - COVID-19 immunisation - Not applicable - [n/a - n/a - n/a]),<BR><BR>SPIKEVAX [ELASOMERAN] (S - COVID-19 immunisation - Not applicable - [n/a - n/a - n/a])","TELMISARTAN [TELMISARTAN] (C - n/a - n/a - [n/a - 80mg - n/a]),<BR><BR>[FLUOXETINE HYDROCHLORIDE] (C - n/a - n/a - [n/a - 20mg - n/a])","<a target=""_blank"" href=""https://dap.ema.europa.eu/xmlpserver/PHV%20DAP/Reports/ICSR.xdo?_xpf=&_xt=form&SR_ID=10016556960&_xpt=1&_xf=pdf"">ICSR</a>"
EU-EC-10016557569,Spontaneous,2024-01-02 00:00:00,Healthcare Professional,Non European Economic Area,Not available,18-64 Years,Not Specified,No,Male,Medication error (n/a - Recovered/Resolved - Caused/Prolonged Hospitalisation),"SPIKEVAX BIVALENT ORIGINAL/OMICRON BA.4-5 [ELASOMERAN, DAVESOMERAN] (S - COVID-19 prophylaxis - Not applicable - [n/a - 1{DF} - n/a])",Not reported,"<a target=""_blank"" href=""https://dap.ema.europa.eu/xmlpserver/PHV%20DAP/Reports/ICSR.xdo?_xpf=&_xt=form&SR_ID=10016557569&_xpt=1&_xf=pdf"">ICSR</a>"
EU-EC-10016557608,Spontaneous,2024-01-02 00:00:00,Healthcare Professional,Non European Economic Area,Not available,18-64 Years,Not Specified,No,Female,"Guillain-Barre syndrome (n/a - Not Recovered/Not Resolved - Caused/Prolonged Hospitalisation, Other Medically Important Condition)","SPIKEVAX BIVALENT ORIGINAL/OMICRON BA.4-5 [ELASOMERAN, DAVESOMERAN] (S - COVID-19 prophylaxis - Not applicable - [n/a - 1{DF} - n/a])",Not reported,"<a target=""_blank"" href=""https://dap.ema.europa.eu/xmlpserver/PHV%20DAP/Reports/ICSR.xdo?_xpf=&_xt=form&SR_ID=10016557608&_xpt=1&_xf=pdf"">ICSR</a>"
EU-EC-10016557609,Spontaneous,2024-01-02 00:00:00,Healthcare Professional,Non European Economic Area,Not available,18-64 Years,Not Specified,No,Female,"Erythema (n/a - Not Recovered/Not Resolved - Other Medically Important Condition),<BR><BR>Irritability (n/a - Not Recovered/Not Resolved - Other Medically Important Condition),<BR><BR>Irritability postvaccinal (n/a - Not Recovered/Not Resolved - Other Medically Important Condition),<BR><BR>Pain (n/a - Not Recovered/Not Resolved - Other Medically Important Condition),<BR><BR>Swelling (n/a - Not Recovered/Not Resolved - Other Medically Important Condition)","SPIKEVAX BIVALENT ORIGINAL/OMICRON BA.4-5 [ELASOMERAN, DAVESOMERAN] (S - COVID-19 prophylaxis - Not applicable - [n/a - 1{DF} - n/a])",Not reported,"<a target=""_blank"" href=""https://dap.ema.europa.eu/xmlpserver/PHV%20DAP/Reports/ICSR.xdo?_xpf=&_xt=form&SR_ID=10016557609&_xpt=1&_xf=pdf"">ICSR</a>"
EU-EC-10016558206,Spontaneous,2024-01-02 00:00:00,Healthcare Professional,Non European Economic Area,Not available,65-85 Years,Not Specified,No,Male,"Death (1d - Fatal - Results in Death, Other Medically Important Condition)","SPIKEVAX BIVALENT ORIGINAL/OMICRON BA.4-5 [ELASOMERAN, DAVESOMERAN] (S - COVID-19 prophylaxis - Not applicable - [n/a - 1{DF} - n/a])",Not reported,"<a target=""_blank"" href=""https://dap.ema.europa.eu/xmlpserver/PHV%20DAP/Reports/ICSR.xdo?_xpf=&_xt=form&SR_ID=10016558206&_xpt=1&_xf=pdf"">ICSR</a>"
EU-EC-10016560333,Spontaneous,2024-01-02 00:00:00,Non Healthcare Professional,Non European Economic Area,Not available,18-64 Years,Not Specified,No,Male,"COVID-19 (n/a - Not Recovered/Not Resolved - Other Medically Important Condition),<BR><BR>Drug ineffective (n/a - Not Recovered/Not Resolved - Other Medically Important Condition),<BR><BR>Interchange of vaccine products (n/a - Unknown - Other Medically Important Condition)","SPIKEVAX BIVALENT ORIGINAL/OMICRON BA.4-5 [ELASOMERAN, DAVESOMERAN] (S - COVID-19 immunisation - Not applicable - [1d - n/a - n/a - More in ICSR]),<BR><BR>TOZINAMERAN [TOZINAMERAN] (S - COVID-19 immunisation - Not applicable - [1d - n/a - n/a - More in ICSR])",Not reported,"<a target=""_blank"" href=""https://dap.ema.europa.eu/xmlpserver/PHV%20DAP/Reports/ICSR.xdo?_xpf=&_xt=form&SR_ID=10016560333&_xpt=1&_xf=pdf"">ICSR</a>"
EU-EC-10016561754,Spontaneous,2024-01-02 00:00:00,Healthcare Professional,Non European Economic Area,Not available,18-64 Years,Not Specified,No,Male,"Induration (n/a - Not Recovered/Not Resolved - ),<BR><BR>Neuropathy peripheral (n/a - Not Recovered/Not Resolved - Other Medically Important Condition),<BR><BR>Pain (n/a - Not Recovered/Not Resolved - )","SPIKEVAX BIVALENT ORIGINAL/OMICRON BA.4-5 [ELASOMERAN, DAVESOMERAN] (S - COVID-19 prophylaxis - Not applicable - [n/a - 1{DF} - n/a])",Not reported,"<a target=""_blank"" href=""https://dap.ema.europa.eu/xmlpserver/PHV%20DAP/Reports/ICSR.xdo?_xpf=&_xt=form&SR_ID=10016561754&_xpt=1&_xf=pdf"">ICSR</a>"