﻿EU Local Number,Report Type,EV Gateway Receipt Date,Primary Source Qualification,Primary Source Country for Regulatory Purposes,Literature Reference,Patient Age Group,Patient Age Group (as per reporter),Parent Child Report,Patient Sex,Reaction List PT (Duration – Outcome - Seriousness Criteria),Suspect/interacting Drug List (Drug Char - Indication PT - Action taken - [Duration - Dose - Route]),Concomitant/Not Administered Drug List (Drug Char - Indication PT - Action taken - [Duration - Dose - Route]),ICSR Form
EU-EC-10017889199,Spontaneous,2024-08-22 00:00:00,Healthcare Professional,European Economic Area,Not available,18-64 Years,Not Specified,No,Female,"Alopecia (n/a - Unknown - ),<BR><BR>Amnesia (n/a - Unknown - ),<BR><BR>Asthenia (n/a - Unknown - ),<BR><BR>Autonomic nervous system imbalance (n/a - Unknown - ),<BR><BR>Breast cancer female (n/a - Recovering/Resolving - Life Threatening, Caused/Prolonged Hospitalisation, Other Medically Important Condition),<BR><BR>Dyspnoea (n/a - Unknown - ),<BR><BR>Immunodeficiency (n/a - Recovering/Resolving - Life Threatening, Caused/Prolonged Hospitalisation, Other Medically Important Condition),<BR><BR>Mental impairment (n/a - Unknown - Other Medically Important Condition),<BR><BR>Muscle atrophy (n/a - Unknown - ),<BR><BR>Palpitations (n/a - Unknown - ),<BR><BR>Post-acute COVID-19 syndrome (n/a - Unknown - ),<BR><BR>Secretion discharge (n/a - Recovered/Resolved - ),<BR><BR>Syncope (n/a - Unknown - Other Medically Important Condition),<BR><BR>Thymic carcinoma (n/a - Recovering/Resolving - Life Threatening, Caused/Prolonged Hospitalisation, Other Medically Important Condition),<BR><BR>Weight decreased (n/a - Unknown - )","BIMERVAX [SORBITAN TRIOLEATE, WATER FOR INJECTION, POLYSORBATE 80, SODIUM CITRATE, SELVACOVATEIN, SQUALENE, CITRIC ACID] (S - COVID-19 prophylaxis - Not applicable - [n/a - n/a - Intramuscular use])","[ASCORBIC ACID, MAGNESIUM OXIDE, HEAVY, MAGNESIUM] (C - Supplementation therapy - n/a - [n/a - n/a - n/a]),<BR><BR>[ASCORBIC ACID] (C - Supplementation therapy - n/a - [n/a - n/a - n/a]),<BR><BR>[THIAMINE, PYRIDOXINE HYDROCHLORIDE, VITAMIN B] (C - Supplementation therapy - n/a - [n/a - n/a - n/a])","<a target=""_blank"" href=""https://dap.ema.europa.eu/xmlpserver/PHV%20DAP/Reports/ICSR.xdo?_xpf=&_xt=form&SR_ID=10017889199&_xpt=1&_xf=pdf"">ICSR</a>"
EU-EC-10017864697,Spontaneous,2024-08-16 00:00:00,Healthcare Professional,European Economic Area,Not available,65-85 Years,Not Specified,No,Female,Inappropriate schedule of product administration (n/a - Unknown - ),"BIMERVAX [SORBITAN TRIOLEATE, WATER FOR INJECTION, POLYSORBATE 80, SODIUM CITRATE, SELVACOVATEIN, SQUALENE, CITRIC ACID] (S - COVID-19 immunisation - Not applicable - [n/a - n/a - Intramuscular use])",Not reported,"<a target=""_blank"" href=""https://dap.ema.europa.eu/xmlpserver/PHV%20DAP/Reports/ICSR.xdo?_xpf=&_xt=form&SR_ID=10017864697&_xpt=1&_xf=pdf"">ICSR</a>"
EU-EC-10017864706,Spontaneous,2024-08-16 00:00:00,Healthcare Professional,European Economic Area,Not available,65-85 Years,Not Specified,No,Female,Inappropriate schedule of product administration (n/a - Unknown - ),"BIMERVAX [SORBITAN TRIOLEATE, WATER FOR INJECTION, POLYSORBATE 80, SODIUM CITRATE, SELVACOVATEIN, SQUALENE, CITRIC ACID] (S - COVID-19 immunisation - Not applicable - [n/a - n/a - Intramuscular use])","IRBESARTAN [IRBESARTAN] (C - Product used for unknown indication - Dose not changed - [n/a - 150mg - n/a]),<BR><BR>[ATORVASTATIN] (C - Product used for unknown indication - Dose not changed - [n/a - 40mg - n/a])","<a target=""_blank"" href=""https://dap.ema.europa.eu/xmlpserver/PHV%20DAP/Reports/ICSR.xdo?_xpf=&_xt=form&SR_ID=10017864706&_xpt=1&_xf=pdf"">ICSR</a>"