﻿EU Local Number,Report Type,EV Gateway Receipt Date,Primary Source Qualification,Primary Source Country for Regulatory Purposes,Literature Reference,Patient Age Group,Patient Age Group (as per reporter),Parent Child Report,Patient Sex,Reaction List PT (Duration – Outcome - Seriousness Criteria),Suspect/interacting Drug List (Drug Char - Indication PT - Action taken - [Duration - Dose - Route]),Concomitant/Not Administered Drug List (Drug Char - Indication PT - Action taken - [Duration - Dose - Route]),ICSR Form
EU-EC-10014871876,Spontaneous,2023-03-24 00:00:00,Non Healthcare Professional,European Economic Area,Not available,18-64 Years,Adult,No,Male,"Angina pectoris (n/a - Not Recovered/Not Resolved - Caused/Prolonged Hospitalisation),<BR><BR>Hyperhidrosis (n/a - Not Recovered/Not Resolved - Caused/Prolonged Hospitalisation),<BR><BR>Respiratory distress (n/a - Not Recovered/Not Resolved - Caused/Prolonged Hospitalisation)","NUVAXOVID [SARS-COV-2, SPIKE PROTEIN, RECOMBINANT, EXPRESSED IN SF9 CELLS DERIVED FROM SPODOPTERA FRUGIPERDA, MATRIX M] (S - Immunisation - n/a - [n/a - n/a - n/a])",Not reported,"<a target=""_blank"" href=""https://dap.ema.europa.eu/xmlpserver/PHV%20DAP/Reports/ICSR.xdo?_xpf=&_xt=form&SR_ID=10014871876&_xpt=1&_xf=pdf"">ICSR</a>"
EU-EC-10014876007,Spontaneous,2023-03-24 00:00:00,Healthcare Professional,Non European Economic Area,Not available,65-85 Years,Not Specified,No,Male,"COVID-19 (n/a - Fatal - Results in Death, Caused/Prolonged Hospitalisation, Other Medically Important Condition),<BR><BR>Condition aggravated (109d - Fatal - Results in Death, Caused/Prolonged Hospitalisation),<BR><BR>Interstitial lung disease (n/a - Unknown - Caused/Prolonged Hospitalisation, Other Medically Important Condition),<BR><BR>Malaise (n/a - Unknown - ),<BR><BR>Rheumatoid lung (109d - Fatal - Results in Death, Caused/Prolonged Hospitalisation)","NUVAXOVID [SARS-COV-2, SPIKE PROTEIN, RECOMBINANT, EXPRESSED IN SF9 CELLS DERIVED FROM SPODOPTERA FRUGIPERDA, MATRIX M] (S - COVID-19 immunisation - Not applicable - [1d - 1{DF} - Intramuscular use - More in ICSR])",Not reported,"<a target=""_blank"" href=""https://dap.ema.europa.eu/xmlpserver/PHV%20DAP/Reports/ICSR.xdo?_xpf=&_xt=form&SR_ID=10014876007&_xpt=1&_xf=pdf"">ICSR</a>"
EU-EC-10014877782,Spontaneous,2023-03-24 00:00:00,Healthcare Professional,Non European Economic Area,Not available,65-85 Years,Not Specified,No,Female,"Headache (n/a - Unknown - ),<BR><BR>Infectious pleural effusion (n/a - Not Recovered/Not Resolved - Other Medically Important Condition),<BR><BR>Lung neoplasm malignant (n/a - Not Recovered/Not Resolved - Other Medically Important Condition)","NUVAXOVID [SARS-COV-2, SPIKE PROTEIN, RECOMBINANT, EXPRESSED IN SF9 CELLS DERIVED FROM SPODOPTERA FRUGIPERDA, MATRIX M] (S - COVID-19 immunisation - Not applicable - [1d - 1{DF} - Intramuscular use - More in ICSR])",Not reported,"<a target=""_blank"" href=""https://dap.ema.europa.eu/xmlpserver/PHV%20DAP/Reports/ICSR.xdo?_xpf=&_xt=form&SR_ID=10014877782&_xpt=1&_xf=pdf"">ICSR</a>"
EU-EC-10014862395,Spontaneous,2023-03-23 00:00:00,Healthcare Professional,European Economic Area,Not available,18-64 Years,Adult,No,Male,Tachycardia paroxysmal (n/a - Not Recovered/Not Resolved - ),"NUVAXOVID [SARS-COV-2, SPIKE PROTEIN, RECOMBINANT, EXPRESSED IN SF9 CELLS DERIVED FROM SPODOPTERA FRUGIPERDA, MATRIX M] (S - n/a - n/a - [1d - n/a - Intramuscular use])",Not reported,"<a target=""_blank"" href=""https://dap.ema.europa.eu/xmlpserver/PHV%20DAP/Reports/ICSR.xdo?_xpf=&_xt=form&SR_ID=10014862395&_xpt=1&_xf=pdf"">ICSR</a>"
EU-EC-10014865655,Spontaneous,2023-03-23 00:00:00,Non Healthcare Professional,European Economic Area,Not available,18-64 Years,Adult,No,Female,Injection site reaction (n/a - Recovered/Resolved - ),"NUVAXOVID [SARS-COV-2, SPIKE PROTEIN, RECOMBINANT, EXPRESSED IN SF9 CELLS DERIVED FROM SPODOPTERA FRUGIPERDA, MATRIX M] (S - COVID-19 immunisation - Drug withdrawn - [1d - 1{DF} - Intramuscular use])",Not reported,"<a target=""_blank"" href=""https://dap.ema.europa.eu/xmlpserver/PHV%20DAP/Reports/ICSR.xdo?_xpf=&_xt=form&SR_ID=10014865655&_xpt=1&_xf=pdf"">ICSR</a>"
EU-EC-10014859571,Spontaneous,2023-03-22 00:00:00,Non Healthcare Professional,European Economic Area,Not available,18-64 Years,Adult,No,Female,"Epilepsy (n/a - Not Recovered/Not Resolved - Other Medically Important Condition),<BR><BR>Nasopharyngitis (n/a - Not Recovered/Not Resolved - ),<BR><BR>Respiration abnormal (n/a - Not Recovered/Not Resolved - )","NUVAXOVID [SARS-COV-2, SPIKE PROTEIN, RECOMBINANT, EXPRESSED IN SF9 CELLS DERIVED FROM SPODOPTERA FRUGIPERDA, MATRIX M] (S - Immunisation - n/a - [n/a - n/a - Intravenous use])",Not reported,"<a target=""_blank"" href=""https://dap.ema.europa.eu/xmlpserver/PHV%20DAP/Reports/ICSR.xdo?_xpf=&_xt=form&SR_ID=10014859571&_xpt=1&_xf=pdf"">ICSR</a>"
EU-EC-10014852705,Spontaneous,2023-03-21 00:00:00,Healthcare Professional,Non European Economic Area,"Yan BC, Luo RR. Thyrotoxicosis in patients with a history of Graves’ disease after SARS-CoV-2 vaccination (adenovirus vector vaccine): Two case reports. World Journal of Clinical Cases 2023; 11(5):1122-1128.10.12998/wjcc.v11.i5.1122 .",18-64 Years,Not Specified,No,Female,"Hyperthyroidism (n/a - Recovered/Resolved - Life Threatening),<BR><BR>Interchange of vaccine products (n/a - Unknown - ),<BR><BR>Off label use (n/a - Unknown - ),<BR><BR>Thyrotoxic crisis (n/a - Recovered/Resolved - Life Threatening)","ELASOMERAN [ELASOMERAN] (S - COVID-19 prophylaxis - Dose not changed - [1d - n/a - n/a]),<BR><BR>NUVAXOVID [SARS-COV-2, SPIKE PROTEIN, RECOMBINANT, EXPRESSED IN SF9 CELLS DERIVED FROM SPODOPTERA FRUGIPERDA, MATRIX M] (S - COVID-19 prophylaxis - Dose not changed - [1d - n/a - n/a]),<BR><BR>VAXZEVRIA [COVID-19 VACCINE ASTRAZENECA (CHADOX1 NCOV-19)] (S - COVID-19 prophylaxis - Drug withdrawn - [1d - n/a - Intramuscular use])",Not reported,"<a target=""_blank"" href=""https://dap.ema.europa.eu/xmlpserver/PHV%20DAP/Reports/ICSR.xdo?_xpf=&_xt=form&SR_ID=10014852705&_xpt=1&_xf=pdf"">ICSR</a>"
EU-EC-10014853441,Spontaneous,2023-03-21 00:00:00,Non Healthcare Professional,European Economic Area,Not available,18-64 Years,Adult,No,Female,"Asthenia (n/a - Not Recovered/Not Resolved - ),<BR><BR>Cough (n/a - Not Recovered/Not Resolved - ),<BR><BR>Dysphonia (n/a - Not Recovered/Not Resolved - ),<BR><BR>Fatigue (n/a - Not Recovered/Not Resolved - ),<BR><BR>Hypersensitivity (n/a - Not Recovered/Not Resolved - ),<BR><BR>Malaise (n/a - Not Recovered/Not Resolved - ),<BR><BR>Myalgia (n/a - Not Recovered/Not Resolved - ),<BR><BR>Nasal congestion (n/a - Not Recovered/Not Resolved - ),<BR><BR>Pain (n/a - Not Recovered/Not Resolved - ),<BR><BR>Throat irritation (n/a - Not Recovered/Not Resolved - ),<BR><BR>Tinnitus (n/a - Not Recovered/Not Resolved - )","NUVAXOVID [SARS-COV-2, SPIKE PROTEIN, RECOMBINANT, EXPRESSED IN SF9 CELLS DERIVED FROM SPODOPTERA FRUGIPERDA, MATRIX M] (S - Immunisation - n/a - [n/a - n/a - Intravenous use])",Not reported,"<a target=""_blank"" href=""https://dap.ema.europa.eu/xmlpserver/PHV%20DAP/Reports/ICSR.xdo?_xpf=&_xt=form&SR_ID=10014853441&_xpt=1&_xf=pdf"">ICSR</a>"
EU-EC-10014844302,Spontaneous,2023-03-20 00:00:00,Non Healthcare Professional,European Economic Area,Not available,18-64 Years,Not Specified,No,Female,Expired product administered (1d - Recovered/Resolved - ),"NUVAXOVID [SARS-COV-2, SPIKE PROTEIN, RECOMBINANT, EXPRESSED IN SF9 CELLS DERIVED FROM SPODOPTERA FRUGIPERDA, MATRIX M] (S - COVID-19 immunisation - Not applicable - [n/a - n/a - Intramuscular use])",Not reported,"<a target=""_blank"" href=""https://dap.ema.europa.eu/xmlpserver/PHV%20DAP/Reports/ICSR.xdo?_xpf=&_xt=form&SR_ID=10014844302&_xpt=1&_xf=pdf"">ICSR</a>"
EU-EC-10014829364,Spontaneous,2023-03-17 00:00:00,Non Healthcare Professional,European Economic Area,Not available,18-64 Years,Adult,No,Female,"Pityriasis rosea (n/a - Recovered/Resolved - ),<BR><BR>Skin papilloma (n/a - Recovered/Resolved - )","NUVAXOVID [SARS-COV-2, SPIKE PROTEIN, RECOMBINANT, EXPRESSED IN SF9 CELLS DERIVED FROM SPODOPTERA FRUGIPERDA, MATRIX M] (S - COVID-19 immunisation - Not applicable - [1d - 1{DF} - Intramuscular use])",Not reported,"<a target=""_blank"" href=""https://dap.ema.europa.eu/xmlpserver/PHV%20DAP/Reports/ICSR.xdo?_xpf=&_xt=form&SR_ID=10014829364&_xpt=1&_xf=pdf"">ICSR</a>"
EU-EC-10014829971,Spontaneous,2023-03-17 00:00:00,Non Healthcare Professional,Non European Economic Area,Not available,18-64 Years,Not Specified,No,Male,"COVID-19 (n/a - Recovered/Resolved - Caused/Prolonged Hospitalisation, Disabling, Other Medically Important Condition),<BR><BR>Drug ineffective (n/a - Recovered/Resolved - Caused/Prolonged Hospitalisation, Disabling, Other Medically Important Condition),<BR><BR>Interchange of vaccine products (n/a - Recovered/Resolved - Caused/Prolonged Hospitalisation, Disabling, Other Medically Important Condition)","COMIRNATY [TOZINAMERAN] (S - COVID-19 immunisation - Not applicable - [1d - n/a - n/a]),<BR><BR>NUVAXOVID [SARS-COV-2, SPIKE PROTEIN, RECOMBINANT, EXPRESSED IN SF9 CELLS DERIVED FROM SPODOPTERA FRUGIPERDA, MATRIX M] (S - COVID-19 immunisation - Not applicable - [1d - n/a - n/a])",Not reported,"<a target=""_blank"" href=""https://dap.ema.europa.eu/xmlpserver/PHV%20DAP/Reports/ICSR.xdo?_xpf=&_xt=form&SR_ID=10014829971&_xpt=1&_xf=pdf"">ICSR</a>"
EU-EC-10014815136,Spontaneous,2023-03-16 00:00:00,Non Healthcare Professional,Non European Economic Area,Not available,65-85 Years,Not Specified,No,Female,"Arthralgia (n/a - Recovering/Resolving - ),<BR><BR>Cardiac disorder (n/a - Recovering/Resolving - ),<BR><BR>Fatigue (n/a - Not Recovered/Not Resolved - ),<BR><BR>Feeling abnormal (n/a - Not Recovered/Not Resolved - ),<BR><BR>Gait disturbance (n/a - Recovering/Resolving - ),<BR><BR>Gait inability (n/a - Recovered/Resolved - ),<BR><BR>Hypertension (n/a - Recovering/Resolving - ),<BR><BR>Lymphadenopathy (n/a - Recovering/Resolving - ),<BR><BR>Myalgia (n/a - Recovering/Resolving - ),<BR><BR>Neuropathy peripheral (n/a - Recovering/Resolving - Other Medically Important Condition),<BR><BR>Oropharyngeal pain (n/a - Recovering/Resolving - ),<BR><BR>Pruritus (n/a - Recovering/Resolving - ),<BR><BR>Rash (n/a - Recovering/Resolving - ),<BR><BR>Unevaluable event (n/a - Not Recovered/Not Resolved - )",[SARS-COV-2 SPIKE PROTEIN] (S - COVID-19 immunisation - Not applicable - [n/a - n/a - Intramuscular use]),"[LEVOTHYROXINE, LEVOTHYROXINE SODIUM] (C - n/a - n/a - [n/a - 25mg - n/a]),<BR><BR>[LOSARTAN, LOSARTAN POTASSIUM] (C - n/a - n/a - [n/a - 25mg - n/a])","<a target=""_blank"" href=""https://dap.ema.europa.eu/xmlpserver/PHV%20DAP/Reports/ICSR.xdo?_xpf=&_xt=form&SR_ID=10014815136&_xpt=1&_xf=pdf"">ICSR</a>"
EU-EC-10014823999,Spontaneous,2023-03-16 00:00:00,Non Healthcare Professional,Non European Economic Area,Not available,Not Specified,Not Specified,No,Not Specified,"Arthritis (n/a - Unknown - ),<BR><BR>COVID-19 immunisation (n/a - Recovered/Resolved - ),<BR><BR>Lyme disease (n/a - Unknown - Other Medically Important Condition),<BR><BR>Off label use (n/a - Recovered/Resolved - )","NUVAXOVID [SARS-COV-2, SPIKE PROTEIN, RECOMBINANT, EXPRESSED IN SF9 CELLS DERIVED FROM SPODOPTERA FRUGIPERDA, MATRIX M] (S - COVID-19 immunisation - Not applicable - [n/a - n/a - Intramuscular use])",Not reported,"<a target=""_blank"" href=""https://dap.ema.europa.eu/xmlpserver/PHV%20DAP/Reports/ICSR.xdo?_xpf=&_xt=form&SR_ID=10014823999&_xpt=1&_xf=pdf"">ICSR</a>"
EU-EC-10014805978,Spontaneous,2023-03-15 00:00:00,Non Healthcare Professional,Non European Economic Area,Not available,65-85 Years,Not Specified,No,Male,"Breakthrough COVID-19 (n/a - Unknown - ),<BR><BR>Exposure to SARS-CoV-2 (n/a - Recovered/Resolved - ),<BR><BR>Unevaluable event (n/a - Recovered/Resolved - ),<BR><BR>Vaccination failure (n/a - Recovered/Resolved - Other Medically Important Condition)",[SARS-COV-2 SPIKE PROTEIN] (S - COVID-19 immunisation - Not applicable - [n/a - n/a - Intramuscular use]),[LORATADINE] (C - n/a - n/a - [n/a - n/a - n/a]),"<a target=""_blank"" href=""https://dap.ema.europa.eu/xmlpserver/PHV%20DAP/Reports/ICSR.xdo?_xpf=&_xt=form&SR_ID=10014805978&_xpt=1&_xf=pdf"">ICSR</a>"
EU-EC-10014807292,Spontaneous,2023-03-15 00:00:00,Non Healthcare Professional,European Economic Area,Not available,18-64 Years,Adult,No,Male,"Angina pectoris (n/a - Not Recovered/Not Resolved - Caused/Prolonged Hospitalisation),<BR><BR>COVID-19 (n/a - Not Recovered/Not Resolved - Caused/Prolonged Hospitalisation),<BR><BR>Coronary artery disease (n/a - Not Recovered/Not Resolved - Caused/Prolonged Hospitalisation),<BR><BR>Dyspnoea exertional (n/a - Not Recovered/Not Resolved - Caused/Prolonged Hospitalisation)","NUVAXOVID [SARS-COV-2, SPIKE PROTEIN, RECOMBINANT, EXPRESSED IN SF9 CELLS DERIVED FROM SPODOPTERA FRUGIPERDA, MATRIX M] (S - Immunisation - n/a - [n/a - n/a - n/a])",Not reported,"<a target=""_blank"" href=""https://dap.ema.europa.eu/xmlpserver/PHV%20DAP/Reports/ICSR.xdo?_xpf=&_xt=form&SR_ID=10014807292&_xpt=1&_xf=pdf"">ICSR</a>"
EU-EC-10014807333,Spontaneous,2023-03-15 00:00:00,Healthcare Professional,Non European Economic Area,Not available,18-64 Years,Not Specified,No,Male,"COVID-19 (n/a - Unknown - Disabling, Other Medically Important Condition),<BR><BR>Chest pain (n/a - Not Recovered/Not Resolved - Disabling, Other Medically Important Condition),<BR><BR>Dyspnoea (n/a - Unknown - Disabling, Other Medically Important Condition),<BR><BR>Ear pain (n/a - Not Recovered/Not Resolved - Disabling, Other Medically Important Condition),<BR><BR>Fatigue (n/a - Unknown - Disabling, Other Medically Important Condition),<BR><BR>Headache (n/a - Recovering/Resolving - Disabling, Other Medically Important Condition),<BR><BR>Pain in extremity (n/a - Not Recovered/Not Resolved - Disabling, Other Medically Important Condition),<BR><BR>Palpitations (n/a - Unknown - Disabling, Other Medically Important Condition),<BR><BR>Pyrexia (n/a - Unknown - Disabling, Other Medically Important Condition),<BR><BR>Restless legs syndrome (n/a - Not Recovered/Not Resolved - Disabling, Other Medically Important Condition),<BR><BR>Syncope (n/a - Unknown - Disabling, Other Medically Important Condition),<BR><BR>Tachycardia (n/a - Unknown - Disabling, Other Medically Important Condition),<BR><BR>Vascular pain (n/a - Not Recovered/Not Resolved - Disabling, Other Medically Important Condition)","NUVAXOVID [SARS-COV-2, SPIKE PROTEIN, RECOMBINANT, EXPRESSED IN SF9 CELLS DERIVED FROM SPODOPTERA FRUGIPERDA, MATRIX M] (S - COVID-19 immunisation - Not applicable - [n/a - n/a - n/a]),<BR><BR>VAXZEVRIA [COVID-19 VACCINE ASTRAZENECA (CHADOX1 NCOV-19)] (S - COVID-19 immunisation - Not applicable - [n/a - n/a - Intramuscular use])",Not reported,"<a target=""_blank"" href=""https://dap.ema.europa.eu/xmlpserver/PHV%20DAP/Reports/ICSR.xdo?_xpf=&_xt=form&SR_ID=10014807333&_xpt=1&_xf=pdf"">ICSR</a>"
EU-EC-10014801509,Spontaneous,2023-03-14 00:00:00,Non Healthcare Professional,European Economic Area,Not available,18-64 Years,Adult,No,Male,Influenza like illness (n/a - Not Recovered/Not Resolved - ),"NUVAXOVID [NVX-COV2373, MATRIX M] (S - COVID-19 immunisation - Not applicable - [n/a - 1{DF} - Intramuscular use])",Not reported,"<a target=""_blank"" href=""https://dap.ema.europa.eu/xmlpserver/PHV%20DAP/Reports/ICSR.xdo?_xpf=&_xt=form&SR_ID=10014801509&_xpt=1&_xf=pdf"">ICSR</a>"
EU-EC-10014789908,Spontaneous,2023-03-13 00:00:00,Non Healthcare Professional,European Economic Area,Not available,65-85 Years,Elderly,No,Female,Neuralgic amyotrophy (n/a - Not Recovered/Not Resolved - ),"NUVAXOVID [NVX-COV2373, MATRIX M] (S - Immunisation - n/a - [n/a - n/a - n/a])",Not reported,"<a target=""_blank"" href=""https://dap.ema.europa.eu/xmlpserver/PHV%20DAP/Reports/ICSR.xdo?_xpf=&_xt=form&SR_ID=10014789908&_xpt=1&_xf=pdf"">ICSR</a>"
EU-EC-10014791688,Spontaneous,2023-03-13 00:00:00,Non Healthcare Professional,Non European Economic Area,Not available,18-64 Years,Not Specified,No,Female,"Ovarian cyst (n/a - Unknown - Other Medically Important Condition),<BR><BR>Thyroid mass (n/a - Unknown - Other Medically Important Condition),<BR><BR>Vaccination site inflammation (n/a - Not Recovered/Not Resolved - ),<BR><BR>Vaccination site swelling (n/a - Not Recovered/Not Resolved - ),<BR><BR>Vaccination site warmth (n/a - Not Recovered/Not Resolved - ),<BR><BR>White blood cell count increased (n/a - Unknown - )","TOZINAMERAN [TOZINAMERAN] (S - COVID-19 immunisation - Not applicable - [1d - n/a - n/a]),<BR><BR>[NVX-COV2373] (S - COVID-19 immunisation - Not applicable - [n/a - n/a - n/a])",Not reported,"<a target=""_blank"" href=""https://dap.ema.europa.eu/xmlpserver/PHV%20DAP/Reports/ICSR.xdo?_xpf=&_xt=form&SR_ID=10014791688&_xpt=1&_xf=pdf"">ICSR</a>"
EU-EC-10014774677,Spontaneous,2023-03-10 00:00:00,Non Healthcare Professional,European Economic Area,Not available,18-64 Years,Not Specified,No,Female,"Pain in extremity (95d - Recovered/Resolved With Sequelae - ),<BR><BR>Periarthritis (n/a - Not Recovered/Not Resolved - Other Medically Important Condition),<BR><BR>Rheumatoid arthritis (7d - Recovered/Resolved With Sequelae - )","NUVAXOVID [NVX-COV2373, MATRIX M] (S - COVID-19 immunisation - Not applicable - [n/a - n/a - n/a])",Not reported,"<a target=""_blank"" href=""https://dap.ema.europa.eu/xmlpserver/PHV%20DAP/Reports/ICSR.xdo?_xpf=&_xt=form&SR_ID=10014774677&_xpt=1&_xf=pdf"">ICSR</a>"
EU-EC-10014759901,Spontaneous,2023-03-08 00:00:00,Healthcare Professional,European Economic Area,Not available,18-64 Years,Not Specified,No,Female,Incomplete course of vaccination (n/a - Recovered/Resolved - ),"NUVAXOVID [NVX-COV2373, MATRIX M] (S - COVID-19 immunisation - Not applicable - [n/a - n/a - n/a])",Not reported,"<a target=""_blank"" href=""https://dap.ema.europa.eu/xmlpserver/PHV%20DAP/Reports/ICSR.xdo?_xpf=&_xt=form&SR_ID=10014759901&_xpt=1&_xf=pdf"">ICSR</a>"
EU-EC-10014748838,Spontaneous,2023-03-07 00:00:00,Non Healthcare Professional,Non European Economic Area,Not available,18-64 Years,Not Specified,No,Female,"Breakthrough COVID-19 (n/a - Unknown - ),<BR><BR>Illness (n/a - Unknown - ),<BR><BR>Vaccination failure (1d - Recovered/Resolved - Other Medically Important Condition)",[NVX-COV2373] (S - COVID-19 immunisation - Not applicable - [n/a - n/a - n/a]),Not reported,"<a target=""_blank"" href=""https://dap.ema.europa.eu/xmlpserver/PHV%20DAP/Reports/ICSR.xdo?_xpf=&_xt=form&SR_ID=10014748838&_xpt=1&_xf=pdf"">ICSR</a>"
EU-EC-10014722397,Spontaneous,2023-03-02 00:00:00,Non Healthcare Professional,European Economic Area,Not available,18-64 Years,Adult,No,Female,"Arthralgia (n/a - Not Recovered/Not Resolved - Caused/Prolonged Hospitalisation),<BR><BR>Back pain (n/a - Not Recovered/Not Resolved - Caused/Prolonged Hospitalisation),<BR><BR>Fatigue (n/a - Not Recovered/Not Resolved - Caused/Prolonged Hospitalisation),<BR><BR>Headache (n/a - Not Recovered/Not Resolved - Caused/Prolonged Hospitalisation),<BR><BR>Nasopharyngitis (n/a - Not Recovered/Not Resolved - Caused/Prolonged Hospitalisation),<BR><BR>Paraesthesia (n/a - Not Recovered/Not Resolved - Caused/Prolonged Hospitalisation),<BR><BR>Somnolence (n/a - Not Recovered/Not Resolved - Caused/Prolonged Hospitalisation)","NUVAXOVID [NVX-COV2373, MATRIX M] (S - Immunisation - n/a - [n/a - n/a - n/a])",Not reported,"<a target=""_blank"" href=""https://dap.ema.europa.eu/xmlpserver/PHV%20DAP/Reports/ICSR.xdo?_xpf=&_xt=form&SR_ID=10014722397&_xpt=1&_xf=pdf"">ICSR</a>"
EU-EC-10014724206,Spontaneous,2023-03-02 00:00:00,Non Healthcare Professional,European Economic Area,Not available,18-64 Years,Adult,No,Male,Immunisation reaction (n/a - Not Recovered/Not Resolved - ),"NUVAXOVID [NVX-COV2373, MATRIX M] (S - COVID-19 immunisation - n/a - [n/a - n/a - Intramuscular use])",Not reported,"<a target=""_blank"" href=""https://dap.ema.europa.eu/xmlpserver/PHV%20DAP/Reports/ICSR.xdo?_xpf=&_xt=form&SR_ID=10014724206&_xpt=1&_xf=pdf"">ICSR</a>"
EU-EC-10014706656,Spontaneous,2023-02-28 00:00:00,Non Healthcare Professional,European Economic Area,Not available,Not Specified,Adult,No,Male,Axillary pain (1wk - Recovered/Resolved - ),"NUVAXOVID [NVX-COV2373, MATRIX M] (S - COVID-19 immunisation - Not applicable - [n/a - 1{DF} - n/a])",Not reported,"<a target=""_blank"" href=""https://dap.ema.europa.eu/xmlpserver/PHV%20DAP/Reports/ICSR.xdo?_xpf=&_xt=form&SR_ID=10014706656&_xpt=1&_xf=pdf"">ICSR</a>"
EU-EC-10014706825,Spontaneous,2023-02-28 00:00:00,Non Healthcare Professional,European Economic Area,Not available,18-64 Years,Not Specified,No,Female,"Diarrhoea (n/a - Unknown - ),<BR><BR>Headache (n/a - Unknown - ),<BR><BR>Myalgia (n/a - Unknown - ),<BR><BR>Nausea (n/a - Unknown - ),<BR><BR>Seasonal allergy (n/a - Unknown - ),<BR><BR>Throat irritation (n/a - Unknown - )","NUVAXOVID [NVX-COV2373, MATRIX M] (S - COVID-19 immunisation - n/a - [n/a - n/a - Intramuscular use])",Not reported,"<a target=""_blank"" href=""https://dap.ema.europa.eu/xmlpserver/PHV%20DAP/Reports/ICSR.xdo?_xpf=&_xt=form&SR_ID=10014706825&_xpt=1&_xf=pdf"">ICSR</a>"
EU-EC-10014707636,Spontaneous,2023-02-28 00:00:00,Non Healthcare Professional,Non European Economic Area,Not available,65-85 Years,Not Specified,No,Female,"Breakthrough COVID-19 (7d - Recovered/Resolved - ),<BR><BR>COVID-19 immunisation (n/a - Recovered/Resolved - ),<BR><BR>Illness (n/a - Unknown - Caused/Prolonged Hospitalisation),<BR><BR>Myalgia (n/a - Unknown - Caused/Prolonged Hospitalisation),<BR><BR>Pain (n/a - Unknown - Caused/Prolonged Hospitalisation)","COVID-19 VACCINE ASTRAZENECA (CHADOX1 NCOV-19) [COVID-19 VACCINE ASTRAZENECA (CHADOX1 NCOV-19)] (S - COVID-19 immunisation - Not applicable - [n/a - n/a - n/a]),<BR><BR>NUVAXOVID [NVX-COV2373, MATRIX M] (S - COVID-19 immunisation - Not applicable - [n/a - n/a - n/a])","[AZELASTINE HYDROCHLORIDE, FLUTICASONE PROPIONATE] (C - n/a - n/a - [n/a - n/a - n/a]),<BR><BR>[PANTOPRAZOLE, PANTOPRAZOLE SODIUM, PANTOPRAZOLE SODIUM SESQUIHYDRATE] (C - n/a - n/a - [n/a - n/a - n/a]),<BR><BR>[THYROXINE] (C - n/a - n/a - [n/a - 100ug - n/a]),<BR><BR>[TILACTASE] (C - n/a - n/a - [n/a - n/a - n/a])","<a target=""_blank"" href=""https://dap.ema.europa.eu/xmlpserver/PHV%20DAP/Reports/ICSR.xdo?_xpf=&_xt=form&SR_ID=10014707636&_xpt=1&_xf=pdf"">ICSR</a>"
EU-EC-10014695160,Spontaneous,2023-02-27 00:00:00,Non Healthcare Professional,European Economic Area,Not available,18-64 Years,Adult,No,Female,Blepharospasm (n/a - Recovered/Resolved With Sequelae - ),"NUVAXOVID [NVX-COV2373, MATRIX M] (S - Immunisation - n/a - [n/a - n/a - n/a])",Not reported,"<a target=""_blank"" href=""https://dap.ema.europa.eu/xmlpserver/PHV%20DAP/Reports/ICSR.xdo?_xpf=&_xt=form&SR_ID=10014695160&_xpt=1&_xf=pdf"">ICSR</a>"
EU-EC-10014695630,Spontaneous,2023-02-27 00:00:00,Non Healthcare Professional,European Economic Area,Not available,65-85 Years,Elderly,No,Female,"Burning sensation (n/a - Not Recovered/Not Resolved - ),<BR><BR>Gait inability (n/a - Not Recovered/Not Resolved - ),<BR><BR>Pain in extremity (n/a - Not Recovered/Not Resolved - )","NUVAXOVID [NVX-COV2373, MATRIX M] (S - Immunisation - n/a - [n/a - n/a - n/a])",Not reported,"<a target=""_blank"" href=""https://dap.ema.europa.eu/xmlpserver/PHV%20DAP/Reports/ICSR.xdo?_xpf=&_xt=form&SR_ID=10014695630&_xpt=1&_xf=pdf"">ICSR</a>"
EU-EC-10014698608,Spontaneous,2023-02-27 00:00:00,Healthcare Professional,European Economic Area,Not available,18-64 Years,Not Specified,No,Female,"Adverse reaction (n/a - Unknown - ),<BR><BR>Arthralgia (n/a - Not Recovered/Not Resolved - ),<BR><BR>Arthralgia (n/a - Unknown - ),<BR><BR>Back pain (n/a - Unknown - ),<BR><BR>Balance disorder (n/a - Unknown - ),<BR><BR>Chest pain (n/a - Recovering/Resolving - ),<BR><BR>Chills (n/a - Unknown - ),<BR><BR>Cough (n/a - Unknown - ),<BR><BR>Diplopia (n/a - Unknown - ),<BR><BR>Dysgeusia (n/a - Not Recovered/Not Resolved - ),<BR><BR>Dysgeusia (n/a - Recovering/Resolving - ),<BR><BR>Dyspnoea (n/a - Unknown - ),<BR><BR>Economic problem (n/a - Unknown - ),<BR><BR>Eye pain (n/a - Unknown - ),<BR><BR>Eyelid ptosis (n/a - Unknown - ),<BR><BR>Fatigue (n/a - Not Recovered/Not Resolved - Caused/Prolonged Hospitalisation, Disabling),<BR><BR>Fatigue (n/a - Unknown - ),<BR><BR>Headache (n/a - Not Recovered/Not Resolved - ),<BR><BR>Headache (n/a - Not Recovered/Not Resolved - Caused/Prolonged Hospitalisation, Disabling),<BR><BR>Headache (n/a - Unknown - ),<BR><BR>Heart rate increased (n/a - Recovering/Resolving - ),<BR><BR>Hyperacusis (n/a - Unknown - ),<BR><BR>Hypersomnia (n/a - Unknown - ),<BR><BR>Hypoaesthesia oral (1d - Recovered/Resolved - ),<BR><BR>Hypoaesthesia oral (n/a - Recovered/Resolved With Sequelae - ),<BR><BR>Impaired quality of life (n/a - Unknown - ),<BR><BR>Loss of personal independence in daily activities (n/a - Unknown - ),<BR><BR>Lung disorder (n/a - Unknown - ),<BR><BR>Metamorphopsia (n/a - Unknown - ),<BR><BR>Migraine (n/a - Not Recovered/Not Resolved - ),<BR><BR>Migraine (n/a - Not Recovered/Not Resolved - Caused/Prolonged Hospitalisation, Disabling),<BR><BR>Migraine with aura (n/a - Not Recovered/Not Resolved - ),<BR><BR>Nausea (n/a - Recovering/Resolving - ),<BR><BR>Neck pain (n/a - Unknown - ),<BR><BR>Neuralgia (n/a - Unknown - ),<BR><BR>Oropharyngeal discomfort (n/a - Unknown - ),<BR><BR>Pain (n/a - Unknown - ),<BR><BR>Photophobia (n/a - Not Recovered/Not Resolved - Caused/Prolonged Hospitalisation, Disabling),<BR><BR>Photopsia (n/a - Unknown - ),<BR><BR>Pulmonary pain (n/a - Recovering/Resolving - ),<BR><BR>Pupillary disorder (n/a - Unknown - ),<BR><BR>Retching (n/a - Unknown - ),<BR><BR>Swollen tongue (1d - Recovered/Resolved - ),<BR><BR>Swollen tongue (n/a - Recovered/Resolved With Sequelae - ),<BR><BR>Taste disorder (n/a - Not Recovered/Not Resolved - ),<BR><BR>Vaccination failure (n/a - Not Recovered/Not Resolved - Caused/Prolonged Hospitalisation, Disabling),<BR><BR>Visual impairment (3d - Recovering/Resolving - ),<BR><BR>Visual impairment (n/a - Unknown - ),<BR><BR>Vomiting (n/a - Unknown - )","NUVAXOVID [NVX-COV2373, MATRIX M] (S - Immunisation - n/a - [n/a - n/a - n/a])","[DOCONEXENT, ICOSAPENT, FISH OIL, ICOSAPENT ETHYL, DOCOSAHEXAENOIC ACID ETHYL ESTER, OMEGA-3-ACID ETHYL ESTERS 90, OMEGA-3-ACID ETHYL ESTERS 90, DOCOSAHEXAENOIC ACID ETHYL ESTER] (C - n/a - n/a - ),<BR><BR>[DROSPIRENONE, ETHINYLESTRADIOL, LACTOSE MONOHYDRATE] (C - Contraception - n/a - [n/a - 1{DF} - n/a]),<BR><BR>[GINGER] (C - n/a - n/a - [n/a - n/a - n/a]),<BR><BR>[VITAMIN D] (C - n/a - n/a - [n/a - n/a - n/a]),<BR><BR>[ZINC SULPHATE MONOHYDRATE] (C - n/a - n/a - [n/a - 25mg - n/a])","<a target=""_blank"" href=""https://dap.ema.europa.eu/xmlpserver/PHV%20DAP/Reports/ICSR.xdo?_xpf=&_xt=form&SR_ID=10014698608&_xpt=1&_xf=pdf"">ICSR</a>"
EU-EC-10014699502,Spontaneous,2023-02-27 00:00:00,Healthcare Professional,European Economic Area,Not available,65-85 Years,Not Specified,No,Male,"Neck pain (n/a - Not Recovered/Not Resolved - Other Medically Important Condition),<BR><BR>Vaccination site pain (n/a - Not Recovered/Not Resolved - Other Medically Important Condition)","NUVAXOVID [NVX-COV2373, MATRIX M] (S - n/a - n/a - [n/a - n/a - n/a])",Not reported,"<a target=""_blank"" href=""https://dap.ema.europa.eu/xmlpserver/PHV%20DAP/Reports/ICSR.xdo?_xpf=&_xt=form&SR_ID=10014699502&_xpt=1&_xf=pdf"">ICSR</a>"
EU-EC-10014684315,Spontaneous,2023-02-24 00:00:00,Non Healthcare Professional,European Economic Area,Not available,18-64 Years,Adult,No,Male,"Arthralgia (n/a - Not Recovered/Not Resolved - ),<BR><BR>Disturbance in attention (n/a - Unknown - Caused/Prolonged Hospitalisation),<BR><BR>Dyspnoea at rest (n/a - Not Recovered/Not Resolved - Other Medically Important Condition),<BR><BR>Myalgia (n/a - Unknown - Caused/Prolonged Hospitalisation),<BR><BR>Neck pain (n/a - Not Recovered/Not Resolved - ),<BR><BR>Nightmare (n/a - Unknown - Caused/Prolonged Hospitalisation),<BR><BR>Polyarthritis (n/a - Not Recovered/Not Resolved - Caused/Prolonged Hospitalisation, Other Medically Important Condition),<BR><BR>Pulmonary embolism (n/a - Not Recovered/Not Resolved - Life Threatening, Caused/Prolonged Hospitalisation)","NUVAXOVID [NVX-COV2373, MATRIX M] (S - Immunisation - n/a - [n/a - n/a - n/a])",Not reported,"<a target=""_blank"" href=""https://dap.ema.europa.eu/xmlpserver/PHV%20DAP/Reports/ICSR.xdo?_xpf=&_xt=form&SR_ID=10014684315&_xpt=1&_xf=pdf"">ICSR</a>"
EU-EC-10014677280,Spontaneous,2023-02-23 00:00:00,Non Healthcare Professional,European Economic Area,Not available,18-64 Years,Adult,No,Female,"Disturbance in attention (325d - Recovered/Resolved With Sequelae - ),<BR><BR>Fatigue (325d - Recovered/Resolved With Sequelae - ),<BR><BR>Fibromyalgia (325d - Recovered/Resolved With Sequelae - ),<BR><BR>Myalgia (325d - Recovered/Resolved With Sequelae - )","NUVAXOVID [NVX-COV2373, MATRIX M] (S - Immunisation - n/a - [n/a - n/a - n/a])",Not reported,"<a target=""_blank"" href=""https://dap.ema.europa.eu/xmlpserver/PHV%20DAP/Reports/ICSR.xdo?_xpf=&_xt=form&SR_ID=10014677280&_xpt=1&_xf=pdf"">ICSR</a>"
EU-EC-10014678051,Spontaneous,2023-02-23 00:00:00,Healthcare Professional,European Economic Area,Not available,18-64 Years,Adult,No,Female,Immunisation reaction (5d - Recovered/Resolved - ),"NUVAXOVID [NVX-COV2373, MATRIX M] (S - COVID-19 immunisation - Not applicable - [1d - 1{DF} - Intramuscular use])",Not reported,"<a target=""_blank"" href=""https://dap.ema.europa.eu/xmlpserver/PHV%20DAP/Reports/ICSR.xdo?_xpf=&_xt=form&SR_ID=10014678051&_xpt=1&_xf=pdf"">ICSR</a>"
EU-EC-10014681642,Spontaneous,2023-02-23 00:00:00,Non Healthcare Professional,Non European Economic Area,Not available,65-85 Years,Not Specified,No,Male,"Adverse drug reaction (n/a - Recovered/Resolved - ),<BR><BR>Angina pectoris (n/a - Recovered/Resolved - Other Medically Important Condition),<BR><BR>Arrhythmia (10d - Recovered/Resolved - Other Medically Important Condition),<BR><BR>Breakthrough COVID-19 (n/a - Recovered/Resolved - ),<BR><BR>COVID-19 immunisation (1d - Recovered/Resolved - ),<BR><BR>Cough (10d - Recovered/Resolved - ),<BR><BR>Dry throat (n/a - Recovered/Resolved - ),<BR><BR>Fatigue (10d - Recovered/Resolved - ),<BR><BR>Incorrect dose administered (1d - Recovered/Resolved - ),<BR><BR>Mental status changes (10d - Recovered/Resolved - ),<BR><BR>Myalgia (n/a - Recovered/Resolved - ),<BR><BR>Myocarditis (10d - Recovered/Resolved - Other Medically Important Condition),<BR><BR>Oropharyngeal pain (10d - Recovered/Resolved - ),<BR><BR>Pericarditis (10d - Recovered/Resolved - Other Medically Important Condition),<BR><BR>Pyrexia (n/a - Recovered/Resolved - ),<BR><BR>Renal pain (n/a - Recovered/Resolved - )",[NVX-COV2373] (S - COVID-19 immunisation - Not applicable - [n/a - n/a - n/a]),"[ACETYLSALICYLIC ACID] (C - n/a - n/a - [n/a - n/a - n/a]),<BR><BR>[ASCORBIC ACID, MAGNESIUM OXIDE, HEAVY, MAGNESIUM] (C - n/a - n/a - [n/a - n/a - n/a]),<BR><BR>[COLECALCIFEROL] (C - n/a - n/a - [n/a - n/a - n/a]),<BR><BR>[LOSARTAN, LOSARTAN POTASSIUM] (C - n/a - n/a - [n/a - n/a - n/a]),<BR><BR>[SALMON OIL] (C - n/a - n/a - [n/a - n/a - n/a])","<a target=""_blank"" href=""https://dap.ema.europa.eu/xmlpserver/PHV%20DAP/Reports/ICSR.xdo?_xpf=&_xt=form&SR_ID=10014681642&_xpt=1&_xf=pdf"">ICSR</a>"
EU-EC-10014668307,Spontaneous,2023-02-22 00:00:00,Non Healthcare Professional,European Economic Area,Not available,18-64 Years,Adult,No,Male,"Hypotonia (n/a - Not Recovered/Not Resolved - ),<BR><BR>Myalgia (n/a - Unknown - ),<BR><BR>Tension headache (n/a - Not Recovered/Not Resolved - )","NUVAXOVID [NVX-COV2373, MATRIX M] (S - Immunisation - n/a - [n/a - n/a - n/a])",Not reported,"<a target=""_blank"" href=""https://dap.ema.europa.eu/xmlpserver/PHV%20DAP/Reports/ICSR.xdo?_xpf=&_xt=form&SR_ID=10014668307&_xpt=1&_xf=pdf"">ICSR</a>"
EU-EC-10014656543,Spontaneous,2023-02-21 00:00:00,Non Healthcare Professional,European Economic Area,Not available,18-64 Years,Not Specified,No,Male,"Arthralgia (n/a - Not Recovered/Not Resolved - Other Medically Important Condition),<BR><BR>Back pain (n/a - Not Recovered/Not Resolved - Other Medically Important Condition),<BR><BR>Burning sensation (n/a - Not Recovered/Not Resolved - Other Medically Important Condition),<BR><BR>Erythema (n/a - Not Recovered/Not Resolved - Other Medically Important Condition),<BR><BR>Hypertension (n/a - Recovering/Resolving - Other Medically Important Condition),<BR><BR>Muscular weakness (n/a - Not Recovered/Not Resolved - Other Medically Important Condition),<BR><BR>Paraesthesia (n/a - Not Recovered/Not Resolved - Other Medically Important Condition),<BR><BR>Peripheral swelling (n/a - Not Recovered/Not Resolved - Other Medically Important Condition),<BR><BR>Skin discolouration (n/a - Not Recovered/Not Resolved - Other Medically Important Condition),<BR><BR>Unevaluable event (n/a - Not Recovered/Not Resolved - Other Medically Important Condition)","NUVAXOVID [NVX-COV2373, MATRIX M] (S - COVID-19 immunisation - Not applicable - [n/a - n/a - n/a])",Not reported,"<a target=""_blank"" href=""https://dap.ema.europa.eu/xmlpserver/PHV%20DAP/Reports/ICSR.xdo?_xpf=&_xt=form&SR_ID=10014656543&_xpt=1&_xf=pdf"">ICSR</a>"
EU-EC-10014650738,Spontaneous,2023-02-20 00:00:00,Non Healthcare Professional,European Economic Area,Not available,18-64 Years,Not Specified,No,Female,"Arthralgia (n/a - Not Recovered/Not Resolved - ),<BR><BR>Chills (n/a - Not Recovered/Not Resolved - ),<BR><BR>Lymphadenopathy (n/a - Not Recovered/Not Resolved - ),<BR><BR>Nausea (n/a - Not Recovered/Not Resolved - ),<BR><BR>Pyrexia (n/a - Not Recovered/Not Resolved - ),<BR><BR>Tachycardia (n/a - Not Recovered/Not Resolved - )","NUVAXOVID [NVX-COV2373, MATRIX M] (S - COVID-19 immunisation - n/a - [n/a - n/a - n/a])","[BISOPROLOL, BISOPROLOL FUMARATE, BISOPROLOL HEMIFUMARATE] (C - Hypertension - n/a - [n/a - n/a - n/a])","<a target=""_blank"" href=""https://dap.ema.europa.eu/xmlpserver/PHV%20DAP/Reports/ICSR.xdo?_xpf=&_xt=form&SR_ID=10014650738&_xpt=1&_xf=pdf"">ICSR</a>"
EU-EC-10014651906,Spontaneous,2023-02-20 00:00:00,Non Healthcare Professional,European Economic Area,Not available,65-85 Years,Elderly,No,Female,"Facial pain (n/a - Not Recovered/Not Resolved - ),<BR><BR>Headache (n/a - Not Recovered/Not Resolved - ),<BR><BR>Swelling face (n/a - Not Recovered/Not Resolved - )","NUVAXOVID [NVX-COV2373, MATRIX M] (S - n/a - n/a - [246d - n/a - n/a])",Not reported,"<a target=""_blank"" href=""https://dap.ema.europa.eu/xmlpserver/PHV%20DAP/Reports/ICSR.xdo?_xpf=&_xt=form&SR_ID=10014651906&_xpt=1&_xf=pdf"">ICSR</a>"
EU-EC-10014643509,Spontaneous,2023-02-18 00:00:00,Non Healthcare Professional,European Economic Area,Not available,18-64 Years,Not Specified,No,Male,"Arthralgia (n/a - Not Recovered/Not Resolved - ),<BR><BR>Chills (n/a - Not Recovered/Not Resolved - ),<BR><BR>Fatigue (n/a - Not Recovered/Not Resolved - ),<BR><BR>Injection site pain (n/a - Not Recovered/Not Resolved - ),<BR><BR>Malaise (n/a - Not Recovered/Not Resolved - )","NUVAXOVID [NVX-COV2373, MATRIX M] (S - COVID-19 immunisation - Not applicable - [n/a - 1{DF} - n/a])",Not reported,"<a target=""_blank"" href=""https://dap.ema.europa.eu/xmlpserver/PHV%20DAP/Reports/ICSR.xdo?_xpf=&_xt=form&SR_ID=10014643509&_xpt=1&_xf=pdf"">ICSR</a>"
EU-EC-10014643517,Spontaneous,2023-02-18 00:00:00,Non Healthcare Professional,European Economic Area,Not available,18-64 Years,Not Specified,No,Male,"Body temperature increased (n/a - Recovering/Resolving - ),<BR><BR>Fatigue (n/a - Not Recovered/Not Resolved - ),<BR><BR>Malaise (n/a - Not Recovered/Not Resolved - ),<BR><BR>Nausea (n/a - Recovering/Resolving - )","NUVAXOVID [NVX-COV2373, MATRIX M] (S - COVID-19 immunisation - Not applicable - [n/a - 1{DF} - n/a])",Not reported,"<a target=""_blank"" href=""https://dap.ema.europa.eu/xmlpserver/PHV%20DAP/Reports/ICSR.xdo?_xpf=&_xt=form&SR_ID=10014643517&_xpt=1&_xf=pdf"">ICSR</a>"
EU-EC-10014643864,Spontaneous,2023-02-17 00:00:00,Healthcare Professional,Non European Economic Area,"Ahmad S, Yuson C, Le A, Hisaria P. Myopericarditis following both BNT162b2 and NVX-CoV2373.. Allergy, asthma &amp; clinical immunology. 2022;18 (109):1-5. doi:https://doi.org/10.1186/s13223-022-00750-7",18-64 Years,Not Specified,No,Male,"COVID-19 (n/a - Unknown - ),<BR><BR>COVID-19 immunisation (n/a - Recovered/Resolved - ),<BR><BR>Off label use (n/a - Recovered/Resolved - ),<BR><BR>Pericarditis (n/a - Recovered/Resolved - Other Medically Important Condition),<BR><BR>Upper respiratory tract infection (n/a - Unknown - )","NUVAXOVID [NVX-COV2373, MATRIX M] (S - COVID-19 immunisation - Not applicable - [n/a - n/a - n/a])",Not reported,"<a target=""_blank"" href=""https://dap.ema.europa.eu/xmlpserver/PHV%20DAP/Reports/ICSR.xdo?_xpf=&_xt=form&SR_ID=10014643864&_xpt=1&_xf=pdf"">ICSR</a>"
EU-EC-10014643921,Spontaneous,2023-02-17 00:00:00,Healthcare Professional,Non European Economic Area,"Ahmad S, Yuson C, Le A, Hisaria P. Myopericarditis following both BNT162b2 and NVX-CoV2373. Allergy, asthma &amp; clinical immunology. 2022;18 (109):1-5. doi:https://doi.org/10.1186/s13223-022-00750-7",18-64 Years,Not Specified,No,Female,"COVID-19 immunisation (n/a - Recovered/Resolved - ),<BR><BR>Myocarditis (n/a - Unknown - Other Medically Important Condition),<BR><BR>Off label use (n/a - Recovered/Resolved - )","NUVAXOVID [NVX-COV2373, MATRIX M] (S - COVID-19 immunisation - Not applicable - [n/a - n/a - n/a])",Not reported,"<a target=""_blank"" href=""https://dap.ema.europa.eu/xmlpserver/PHV%20DAP/Reports/ICSR.xdo?_xpf=&_xt=form&SR_ID=10014643921&_xpt=1&_xf=pdf"">ICSR</a>"
EU-EC-10014632527,Spontaneous,2023-02-16 00:00:00,Non Healthcare Professional,Non European Economic Area,Not available,65-85 Years,Not Specified,No,Female,"Arthralgia (n/a - Not Recovered/Not Resolved - Other Medically Important Condition),<BR><BR>Myalgia (n/a - Not Recovered/Not Resolved - Other Medically Important Condition),<BR><BR>Pain (n/a - Not Recovered/Not Resolved - Other Medically Important Condition)","NUVAXOVID [NVX-COV2373, MATRIX M] (S - Product used for unknown indication - Not applicable - [1d - 1{DF} - n/a]),<BR><BR>SPIKEVAX BIVALENT ORIGINAL/OMICRON BA.1 [ELASOMERAN, IMELASOMERAN] (S - COVID-19 prophylaxis - Not applicable - [1d - 1{DF} - n/a])","PREGABALIN [PREGABALIN] (C - Neuralgia - n/a - [n/a - n/a - n/a]),<BR><BR>[AMLODIPINE, AMLODIPINE BESILATE, AMLODIPINE MALEATE, AMLODIPINE MESILATE] (C - Blood pressure increased - n/a - [n/a - n/a - n/a]),<BR><BR>[SIMVASTATIN] (C - Blood pressure increased - n/a - [n/a - n/a - n/a])","<a target=""_blank"" href=""https://dap.ema.europa.eu/xmlpserver/PHV%20DAP/Reports/ICSR.xdo?_xpf=&_xt=form&SR_ID=10014632527&_xpt=1&_xf=pdf"">ICSR</a>"
EU-EC-10014634843,Spontaneous,2023-02-16 00:00:00,Non Healthcare Professional,European Economic Area,Not available,18-64 Years,Not Specified,No,Male,"Breakthrough COVID-19 (n/a - Not Recovered/Not Resolved - ),<BR><BR>Cough (n/a - Not Recovered/Not Resolved - ),<BR><BR>Embolism (n/a - Not Recovered/Not Resolved - Other Medically Important Condition),<BR><BR>Malaise (n/a - Not Recovered/Not Resolved - ),<BR><BR>Peripheral coldness (n/a - Not Recovered/Not Resolved - ),<BR><BR>Peripheral pulse decreased (n/a - Unknown - ),<BR><BR>Secretion discharge (n/a - Not Recovered/Not Resolved - ),<BR><BR>Sensory loss (n/a - Unknown - ),<BR><BR>Skin discolouration (n/a - Unknown - ),<BR><BR>Thrombosis (n/a - Not Recovered/Not Resolved - Other Medically Important Condition)","NUVAXOVID [NVX-COV2373, MATRIX M] (S - COVID-19 immunisation - Not applicable - [n/a - n/a - n/a])",Not reported,"<a target=""_blank"" href=""https://dap.ema.europa.eu/xmlpserver/PHV%20DAP/Reports/ICSR.xdo?_xpf=&_xt=form&SR_ID=10014634843&_xpt=1&_xf=pdf"">ICSR</a>"
EU-EC-10014624425,Spontaneous,2023-02-15 00:00:00,Non Healthcare Professional,Non European Economic Area,Not available,18-64 Years,Not Specified,No,Male,"COVID-19 (n/a - Unknown - Life Threatening, Caused/Prolonged Hospitalisation, Disabling, Other Medically Important Condition),<BR><BR>Drug ineffective (n/a - Unknown - Life Threatening, Caused/Prolonged Hospitalisation, Disabling, Other Medically Important Condition),<BR><BR>Interchange of vaccine products (n/a - Unknown - Life Threatening, Caused/Prolonged Hospitalisation, Disabling, Other Medically Important Condition)","COMIRNATY [TOZINAMERAN] (S - COVID-19 immunisation - Not applicable - [1d - n/a - n/a]),<BR><BR>NUVAXOVID [NVX-COV2373, MATRIX M] (S - COVID-19 immunisation - Not applicable - [1d - n/a - n/a])",[CYTARABINE] (C - n/a - n/a - [n/a - n/a - n/a]),"<a target=""_blank"" href=""https://dap.ema.europa.eu/xmlpserver/PHV%20DAP/Reports/ICSR.xdo?_xpf=&_xt=form&SR_ID=10014624425&_xpt=1&_xf=pdf"">ICSR</a>"
EU-EC-10014611856,Spontaneous,2023-02-14 00:00:00,Non Healthcare Professional,European Economic Area,Not available,65-85 Years,Elderly,No,Not Specified,Polyneuropathy (n/a - Unknown - Other Medically Important Condition),"NUVAXOVID [NVX-COV2373, MATRIX M] (S - Immunisation - n/a - [n/a - n/a - n/a])",Not reported,"<a target=""_blank"" href=""https://dap.ema.europa.eu/xmlpserver/PHV%20DAP/Reports/ICSR.xdo?_xpf=&_xt=form&SR_ID=10014611856&_xpt=1&_xf=pdf"">ICSR</a>"
EU-EC-10014616594,Spontaneous,2023-02-14 00:00:00,Non Healthcare Professional,European Economic Area,Not available,18-64 Years,Not Specified,No,Male,"Arrhythmia (n/a - Recovered/Resolved - Other Medically Important Condition),<BR><BR>Asthenia (n/a - Recovered/Resolved - ),<BR><BR>Heart rate increased (n/a - Recovered/Resolved - ),<BR><BR>Incomplete course of vaccination (1d - Recovered/Resolved - ),<BR><BR>Pain (n/a - Recovered/Resolved - ),<BR><BR>Painful respiration (n/a - Not Recovered/Not Resolved - ),<BR><BR>Palpitations (n/a - Recovered/Resolved - ),<BR><BR>Paraesthesia (n/a - Recovered/Resolved - )","NUVAXOVID [NVX-COV2373, MATRIX M] (S - COVID-19 immunisation - Not applicable - [n/a - n/a - n/a])",Not reported,"<a target=""_blank"" href=""https://dap.ema.europa.eu/xmlpserver/PHV%20DAP/Reports/ICSR.xdo?_xpf=&_xt=form&SR_ID=10014616594&_xpt=1&_xf=pdf"">ICSR</a>"
EU-EC-10014605463,Spontaneous,2023-02-13 00:00:00,Healthcare Professional,European Economic Area,Not available,65-85 Years,Elderly,No,Female,"Arthritis (4d - Recovered/Resolved - ),<BR><BR>Pyrexia (3d - Recovered/Resolved - )","NUVAXOVID [NVX-COV2373, MATRIX M] (S - COVID-19 immunisation - n/a - [n/a - n/a - Intramuscular use])",Not reported,"<a target=""_blank"" href=""https://dap.ema.europa.eu/xmlpserver/PHV%20DAP/Reports/ICSR.xdo?_xpf=&_xt=form&SR_ID=10014605463&_xpt=1&_xf=pdf"">ICSR</a>"
EU-EC-10014606460,Spontaneous,2023-02-13 00:00:00,Healthcare Professional,European Economic Area,Not available,65-85 Years,Elderly,No,Female,"Pulmonary embolism (n/a - Not Recovered/Not Resolved - Life Threatening, Caused/Prolonged Hospitalisation, Other Medically Important Condition)","NUVAXOVID [NVX-COV2373, MATRIX M] (S - Immunisation - n/a - [n/a - .5mL - Intramuscular use])",Not reported,"<a target=""_blank"" href=""https://dap.ema.europa.eu/xmlpserver/PHV%20DAP/Reports/ICSR.xdo?_xpf=&_xt=form&SR_ID=10014606460&_xpt=1&_xf=pdf"">ICSR</a>"
EU-EC-10014595720,Spontaneous,2023-02-10 00:00:00,Non Healthcare Professional,European Economic Area,Not available,18-64 Years,Not Specified,No,Male,"Arthralgia (2d - Recovered/Resolved - ),<BR><BR>Chills (n/a - Not Recovered/Not Resolved - ),<BR><BR>Fatigue (n/a - Not Recovered/Not Resolved - ),<BR><BR>Headache (n/a - Not Recovered/Not Resolved - ),<BR><BR>Malaise (n/a - Not Recovered/Not Resolved - ),<BR><BR>Myalgia (n/a - Recovering/Resolving - ),<BR><BR>Nausea (n/a - Not Recovered/Not Resolved - ),<BR><BR>Pyrexia (n/a - Not Recovered/Not Resolved - )","NUVAXOVID [NVX-COV2373, MATRIX M] (S - COVID-19 immunisation - Not applicable - [n/a - 1{DF} - n/a])",Not reported,"<a target=""_blank"" href=""https://dap.ema.europa.eu/xmlpserver/PHV%20DAP/Reports/ICSR.xdo?_xpf=&_xt=form&SR_ID=10014595720&_xpt=1&_xf=pdf"">ICSR</a>"
EU-EC-10014583214,Spontaneous,2023-02-09 00:00:00,Non Healthcare Professional,European Economic Area,Not available,18-64 Years,Adult,No,Male,Influenza like illness (1d - Recovered/Resolved - ),"NUVAXOVID [NVX-COV2373, MATRIX M] (S - Immunisation - n/a - [n/a - n/a - n/a])",Not reported,"<a target=""_blank"" href=""https://dap.ema.europa.eu/xmlpserver/PHV%20DAP/Reports/ICSR.xdo?_xpf=&_xt=form&SR_ID=10014583214&_xpt=1&_xf=pdf"">ICSR</a>"
EU-EC-10014569959,Spontaneous,2023-02-07 00:00:00,Non Healthcare Professional,European Economic Area,Not available,Not Specified,Not Specified,No,Female,Pyrexia (n/a - Not Recovered/Not Resolved - ),"NUVAXOVID [NVX-COV2373, MATRIX M] (S - COVID-19 immunisation - Not applicable - [n/a - n/a - n/a])",Not reported,"<a target=""_blank"" href=""https://dap.ema.europa.eu/xmlpserver/PHV%20DAP/Reports/ICSR.xdo?_xpf=&_xt=form&SR_ID=10014569959&_xpt=1&_xf=pdf"">ICSR</a>"
EU-EC-10014558813,Spontaneous,2023-02-06 00:00:00,Non Healthcare Professional,European Economic Area,Not available,65-85 Years,Not Specified,No,Female,"Arthralgia (n/a - Unknown - ),<BR><BR>Asthenia (n/a - Unknown - ),<BR><BR>Blood pressure decreased (n/a - Unknown - ),<BR><BR>Chills (n/a - Unknown - ),<BR><BR>Diarrhoea (n/a - Unknown - ),<BR><BR>Dizziness (n/a - Unknown - ),<BR><BR>Fatigue (n/a - Unknown - ),<BR><BR>Gait disturbance (n/a - Not Recovered/Not Resolved - ),<BR><BR>Heart rate decreased (n/a - Unknown - ),<BR><BR>Hyperhidrosis (n/a - Unknown - ),<BR><BR>Insomnia (n/a - Unknown - ),<BR><BR>Myalgia (n/a - Unknown - ),<BR><BR>Pain (n/a - Unknown - ),<BR><BR>Vertigo (n/a - Unknown - ),<BR><BR>Weight decreased (n/a - Unknown - )","NUVAXOVID [NVX-COV2373, MATRIX M] (S - COVID-19 immunisation - Not applicable - [n/a - 1{DF} - Intramuscular use])",Not reported,"<a target=""_blank"" href=""https://dap.ema.europa.eu/xmlpserver/PHV%20DAP/Reports/ICSR.xdo?_xpf=&_xt=form&SR_ID=10014558813&_xpt=1&_xf=pdf"">ICSR</a>"
EU-EC-10014561710,Spontaneous,2023-02-06 00:00:00,Non Healthcare Professional,European Economic Area,Not available,Not Specified,Adult,No,Female,"Angina pectoris (n/a - Recovered/Resolved With Sequelae - Other Medically Important Condition),<BR><BR>COVID-19 (n/a - Unknown - ),<BR><BR>Dyspnoea (n/a - Recovered/Resolved With Sequelae - ),<BR><BR>Fatigue (n/a - Recovered/Resolved With Sequelae - ),<BR><BR>Incomplete course of vaccination (1d - Recovered/Resolved - ),<BR><BR>Tachycardia (n/a - Recovered/Resolved With Sequelae - )","NUVAXOVID [NVX-COV2373, MATRIX M] (S - COVID-19 immunisation - Not applicable - [n/a - n/a - n/a])",Not reported,"<a target=""_blank"" href=""https://dap.ema.europa.eu/xmlpserver/PHV%20DAP/Reports/ICSR.xdo?_xpf=&_xt=form&SR_ID=10014561710&_xpt=1&_xf=pdf"">ICSR</a>"
EU-EC-10014553448,Spontaneous,2023-02-04 00:00:00,Non Healthcare Professional,European Economic Area,Not available,Not Specified,Adult,No,Female,"Abdominal pain (n/a - Recovering/Resolving - ),<BR><BR>Diarrhoea (n/a - Recovering/Resolving - ),<BR><BR>Nausea (n/a - Recovering/Resolving - ),<BR><BR>Paraesthesia (n/a - Recovering/Resolving - ),<BR><BR>Pyrexia (1h - Recovered/Resolved - )","NUVAXOVID [NVX-COV2373, MATRIX M] (S - COVID-19 immunisation - Not applicable - [n/a - 1{DF} - n/a])",[NAPROXEN] (C - n/a - n/a - [n/a - n/a - n/a]),"<a target=""_blank"" href=""https://dap.ema.europa.eu/xmlpserver/PHV%20DAP/Reports/ICSR.xdo?_xpf=&_xt=form&SR_ID=10014553448&_xpt=1&_xf=pdf"">ICSR</a>"
EU-EC-10014547699,Spontaneous,2023-02-03 00:00:00,Non Healthcare Professional,European Economic Area,Not available,18-64 Years,Not Specified,No,Male,"Ecchymosis (4d - Recovered/Resolved - Other Medically Important Condition),<BR><BR>Mouth haemorrhage (4d - Recovered/Resolved - Other Medically Important Condition)","NUVAXOVID [NVX-COV2373, MATRIX M] (S - Immunisation - n/a - [n/a - n/a - n/a])",Not reported,"<a target=""_blank"" href=""https://dap.ema.europa.eu/xmlpserver/PHV%20DAP/Reports/ICSR.xdo?_xpf=&_xt=form&SR_ID=10014547699&_xpt=1&_xf=pdf"">ICSR</a>"
EU-EC-10014550025,Spontaneous,2023-02-03 00:00:00,Non Healthcare Professional,European Economic Area,Not available,18-64 Years,Adult,No,Female,"Arrhythmia (n/a - Unknown - ),<BR><BR>Depression (n/a - Not Recovered/Not Resolved - ),<BR><BR>Fatigue (n/a - Not Recovered/Not Resolved - ),<BR><BR>Hyperhidrosis (n/a - Not Recovered/Not Resolved - ),<BR><BR>Migraine (n/a - Not Recovered/Not Resolved - ),<BR><BR>Muscle twitching (n/a - Not Recovered/Not Resolved - )","NUVAXOVID [NVX-COV2373, MATRIX M] (S - Immunisation - n/a - [n/a - n/a - n/a])",Not reported,"<a target=""_blank"" href=""https://dap.ema.europa.eu/xmlpserver/PHV%20DAP/Reports/ICSR.xdo?_xpf=&_xt=form&SR_ID=10014550025&_xpt=1&_xf=pdf"">ICSR</a>"
EU-EC-10014553162,Spontaneous,2023-02-03 00:00:00,Non Healthcare Professional,Non European Economic Area,Not available,18-64 Years,Not Specified,No,Female,"Asthenia (n/a - Recovering/Resolving - Other Medically Important Condition),<BR><BR>Aura (n/a - Not Recovered/Not Resolved - Other Medically Important Condition),<BR><BR>Balance disorder (31d - Recovered/Resolved - Other Medically Important Condition),<BR><BR>Chest discomfort (8d - Recovered/Resolved - Other Medically Important Condition),<BR><BR>Dizziness (51d - Recovered/Resolved - Other Medically Important Condition),<BR><BR>Dizziness postural (1d - Recovered/Resolved - Other Medically Important Condition),<BR><BR>Dysmenorrhoea (n/a - Recovering/Resolving - Other Medically Important Condition),<BR><BR>Early satiety (8d - Recovered/Resolved - Other Medically Important Condition),<BR><BR>Fatigue (n/a - Not Recovered/Not Resolved - Other Medically Important Condition),<BR><BR>Feeling abnormal (n/a - Not Recovered/Not Resolved - Other Medically Important Condition),<BR><BR>Gastrooesophageal reflux disease (18d - Recovered/Resolved - Other Medically Important Condition),<BR><BR>Heart rate increased (n/a - Not Recovered/Not Resolved - Other Medically Important Condition),<BR><BR>Hypoaesthesia (n/a - Not Recovered/Not Resolved - Other Medically Important Condition),<BR><BR>Inflammation (20d - Recovered/Resolved - Other Medically Important Condition),<BR><BR>Menstrual disorder (n/a - Recovering/Resolving - Other Medically Important Condition),<BR><BR>Migraine (4d - Recovered/Resolved - Other Medically Important Condition),<BR><BR>Pain in extremity (n/a - Not Recovered/Not Resolved - Other Medically Important Condition),<BR><BR>Palpitations (n/a - Not Recovered/Not Resolved - Other Medically Important Condition),<BR><BR>Paraesthesia (n/a - Not Recovered/Not Resolved - Other Medically Important Condition),<BR><BR>Peripheral coldness (n/a - Not Recovered/Not Resolved - Other Medically Important Condition),<BR><BR>Peripheral swelling (n/a - Not Recovered/Not Resolved - Other Medically Important Condition),<BR><BR>Sleep disorder (n/a - Not Recovered/Not Resolved - Other Medically Important Condition),<BR><BR>Tenderness (8d - Recovered/Resolved - Other Medically Important Condition),<BR><BR>Thinking abnormal (n/a - Recovering/Resolving - Other Medically Important Condition),<BR><BR>Thyroid disorder (n/a - Not Recovered/Not Resolved - ),<BR><BR>Unevaluable event (n/a - Recovering/Resolving - Other Medically Important Condition),<BR><BR>Vertigo (n/a - Recovering/Resolving - Other Medically Important Condition),<BR><BR>Vision blurred (n/a - Not Recovered/Not Resolved - Other Medically Important Condition),<BR><BR>Visual impairment (n/a - Not Recovered/Not Resolved - Other Medically Important Condition)",[NVX-COV2373] (S - COVID-19 immunisation - Not applicable - [n/a - n/a - n/a]),Not reported,"<a target=""_blank"" href=""https://dap.ema.europa.eu/xmlpserver/PHV%20DAP/Reports/ICSR.xdo?_xpf=&_xt=form&SR_ID=10014553162&_xpt=1&_xf=pdf"">ICSR</a>"
EU-EC-10014544015,Spontaneous,2023-02-02 00:00:00,Healthcare Professional,Non European Economic Area,Not available,18-64 Years,Not Specified,No,Female,"Anaphylactic reaction (n/a - Recovering/Resolving - Caused/Prolonged Hospitalisation, Other Medically Important Condition)","NUVAXOVID [NVX-COV2373, MATRIX M] (S - COVID-19 immunisation - Not applicable - [n/a - 1{DF} - n/a])",Not reported,"<a target=""_blank"" href=""https://dap.ema.europa.eu/xmlpserver/PHV%20DAP/Reports/ICSR.xdo?_xpf=&_xt=form&SR_ID=10014544015&_xpt=1&_xf=pdf"">ICSR</a>"
EU-EC-10014522478,Spontaneous,2023-01-31 00:00:00,Non Healthcare Professional,Non European Economic Area,Not available,65-85 Years,Not Specified,No,Male,"Drug ineffective (n/a - Recovering/Resolving - Other Medically Important Condition),<BR><BR>Suspected COVID-19 (n/a - Recovering/Resolving - Other Medically Important Condition)","NUVAXOVID [NVX-COV2373, MATRIX M] (S - COVID-19 immunisation - Not applicable - [1d - n/a - n/a]),<BR><BR>TOZINAMERAN [TOZINAMERAN] (S - COVID-19 immunisation - Not applicable - [1d - n/a - n/a])",Not reported,"<a target=""_blank"" href=""https://dap.ema.europa.eu/xmlpserver/PHV%20DAP/Reports/ICSR.xdo?_xpf=&_xt=form&SR_ID=10014522478&_xpt=1&_xf=pdf"">ICSR</a>"
EU-EC-10014523696,Spontaneous,2023-01-31 00:00:00,Non Healthcare Professional,Non European Economic Area,Not available,65-85 Years,Not Specified,No,Male,"Interchange of vaccine products (n/a - Unknown - Other Medically Important Condition),<BR><BR>Rash (n/a - Recovering/Resolving - Other Medically Important Condition),<BR><BR>Vaccination site rash (n/a - Recovering/Resolving - Other Medically Important Condition)","NUVAXOVID [NVX-COV2373, MATRIX M] (S - COVID-19 immunisation - Not applicable - [1d - n/a - n/a]),<BR><BR>TOZINAMERAN [TOZINAMERAN] (S - COVID-19 immunisation - Not applicable - [1d - n/a - n/a])",Not reported,"<a target=""_blank"" href=""https://dap.ema.europa.eu/xmlpserver/PHV%20DAP/Reports/ICSR.xdo?_xpf=&_xt=form&SR_ID=10014523696&_xpt=1&_xf=pdf"">ICSR</a>"
EU-EC-10014524304,Spontaneous,2023-01-31 00:00:00,Non Healthcare Professional,European Economic Area,Not available,65-85 Years,Adult,No,Female,"Condition aggravated (n/a - Not Recovered/Not Resolved - Caused/Prolonged Hospitalisation),<BR><BR>Hypoaesthesia (n/a - Not Recovered/Not Resolved - Caused/Prolonged Hospitalisation),<BR><BR>Paraesthesia (n/a - Not Recovered/Not Resolved - Caused/Prolonged Hospitalisation)","NUVAXOVID [NVX-COV2373, MATRIX M] (S - COVID-19 immunisation - Not applicable - [1d - 1{DF} - Intramuscular use])",Not reported,"<a target=""_blank"" href=""https://dap.ema.europa.eu/xmlpserver/PHV%20DAP/Reports/ICSR.xdo?_xpf=&_xt=form&SR_ID=10014524304&_xpt=1&_xf=pdf"">ICSR</a>"
EU-EC-10014510369,Spontaneous,2023-01-30 00:00:00,Non Healthcare Professional,European Economic Area,Not available,Not Specified,Adult,No,Male,"Inflammation (n/a - Not Recovered/Not Resolved - ),<BR><BR>Lymphadenopathy (n/a - Not Recovered/Not Resolved - ),<BR><BR>Omphalitis (n/a - Not Recovered/Not Resolved - )","NUVAXOVID [NVX-COV2373, MATRIX M] (S - COVID-19 immunisation - Not applicable - [n/a - 1{DF} - n/a])",NOT AVAILABLE (C - n/a - n/a - [n/a - n/a - n/a]),"<a target=""_blank"" href=""https://dap.ema.europa.eu/xmlpserver/PHV%20DAP/Reports/ICSR.xdo?_xpf=&_xt=form&SR_ID=10014510369&_xpt=1&_xf=pdf"">ICSR</a>"
EU-EC-10014512974,Spontaneous,2023-01-30 00:00:00,Non Healthcare Professional,European Economic Area,Not available,18-64 Years,Adult,No,Female,Cough (n/a - Not Recovered/Not Resolved - Other Medically Important Condition),"NUVAXOVID [NVX-COV2373, MATRIX M] (S - COVID-19 immunisation - n/a - [n/a - n/a - n/a])",Not reported,"<a target=""_blank"" href=""https://dap.ema.europa.eu/xmlpserver/PHV%20DAP/Reports/ICSR.xdo?_xpf=&_xt=form&SR_ID=10014512974&_xpt=1&_xf=pdf"">ICSR</a>"
EU-EC-10014517429,Spontaneous,2023-01-30 00:00:00,Non Healthcare Professional,Non European Economic Area,Not available,18-64 Years,Not Specified,No,Female,"Breakthrough COVID-19 (n/a - Recovered/Resolved - ),<BR><BR>COVID-19 immunisation (1d - Recovered/Resolved - ),<BR><BR>Off label use (1d - Recovered/Resolved - ),<BR><BR>Rhinorrhoea (n/a - Recovered/Resolved - ),<BR><BR>Unevaluable event (n/a - Recovered/Resolved - ),<BR><BR>Vaccination failure (1d - Recovered/Resolved - Other Medically Important Condition)","COMIRNATY [TOZINAMERAN] (S - COVID-19 immunisation - Not applicable - [n/a - n/a - n/a]),<BR><BR>SPIKEVAX [ELASOMERAN] (S - COVID-19 immunisation - Not applicable - [n/a - n/a - n/a]),<BR><BR>[NVX-COV2373] (S - COVID-19 immunisation - Not applicable - [n/a - n/a - n/a])",Not reported,"<a target=""_blank"" href=""https://dap.ema.europa.eu/xmlpserver/PHV%20DAP/Reports/ICSR.xdo?_xpf=&_xt=form&SR_ID=10014517429&_xpt=1&_xf=pdf"">ICSR</a>"
EU-EC-10014478254,Spontaneous,2023-01-24 00:00:00,Non Healthcare Professional,European Economic Area,Not available,18-64 Years,Adult,No,Female,"Headache (n/a - Recovering/Resolving - ),<BR><BR>Limb discomfort (n/a - Recovering/Resolving - ),<BR><BR>Nausea (n/a - Recovering/Resolving - ),<BR><BR>Pyrexia (n/a - Recovering/Resolving - ),<BR><BR>Vomiting (n/a - Recovering/Resolving - )","COMIRNATY [TOZINAMERAN] (S - COVID-19 immunisation - n/a - [n/a - n/a - n/a]),<BR><BR>NUVAXOVID [NVX-COV2373, MATRIX M] (S - Immunisation - n/a - [n/a - n/a - n/a])",Not reported,"<a target=""_blank"" href=""https://dap.ema.europa.eu/xmlpserver/PHV%20DAP/Reports/ICSR.xdo?_xpf=&_xt=form&SR_ID=10014478254&_xpt=1&_xf=pdf"">ICSR</a>"
EU-EC-10014480074,Spontaneous,2023-01-24 00:00:00,Non Healthcare Professional,European Economic Area,Not available,18-64 Years,Adult,No,Female,"Abnormal faeces (n/a - Not Recovered/Not Resolved - ),<BR><BR>Autoimmune hepatitis (n/a - Recovered/Resolved With Sequelae - Caused/Prolonged Hospitalisation),<BR><BR>COVID-19 (n/a - Unknown - Caused/Prolonged Hospitalisation),<BR><BR>Liver injury (n/a - Not Recovered/Not Resolved - Caused/Prolonged Hospitalisation),<BR><BR>Nausea (n/a - Recovered/Resolved With Sequelae - )","NUVAXOVID [NVX-COV2373, MATRIX M] (S - Immunisation - n/a - [n/a - n/a - n/a])",Not reported,"<a target=""_blank"" href=""https://dap.ema.europa.eu/xmlpserver/PHV%20DAP/Reports/ICSR.xdo?_xpf=&_xt=form&SR_ID=10014480074&_xpt=1&_xf=pdf"">ICSR</a>"
EU-EC-10014470285,Spontaneous,2023-01-23 00:00:00,Healthcare Professional,Non European Economic Area,Not available,18-64 Years,Not Specified,No,Female,"Interchange of vaccine products (n/a - Recovered/Resolved - Other Medically Important Condition),<BR><BR>Myocarditis (n/a - Recovered/Resolved - Other Medically Important Condition),<BR><BR>Off label use (n/a - Recovered/Resolved - Other Medically Important Condition)","NUVAXOVID [NVX-COV2373, MATRIX M] (S - n/a - Not applicable - [n/a - n/a - n/a]),<BR><BR>[TOZINAMERAN NOS] (S - COVID-19 immunisation - Not applicable - [n/a - n/a - n/a])",Not reported,"<a target=""_blank"" href=""https://dap.ema.europa.eu/xmlpserver/PHV%20DAP/Reports/ICSR.xdo?_xpf=&_xt=form&SR_ID=10014470285&_xpt=1&_xf=pdf"">ICSR</a>"
EU-EC-10014474295,Spontaneous,2023-01-23 00:00:00,Healthcare Professional,Non European Economic Area,Not available,18-64 Years,Not Specified,No,Male,"COVID-19 (n/a - Recovered/Resolved - Other Medically Important Condition),<BR><BR>Drug ineffective (n/a - Recovered/Resolved - Other Medically Important Condition),<BR><BR>Interchange of vaccine products (n/a - Recovered/Resolved - Other Medically Important Condition),<BR><BR>Off label use (n/a - Recovered/Resolved - Other Medically Important Condition),<BR><BR>Pericarditis (n/a - Recovered/Resolved - Other Medically Important Condition),<BR><BR>Upper respiratory tract infection (n/a - Recovered/Resolved - ),<BR><BR>Vaccine breakthrough infection (n/a - Recovered/Resolved - Other Medically Important Condition)","NUVAXOVID [NVX-COV2373, MATRIX M] (S - n/a - Not applicable - [n/a - n/a - n/a]),<BR><BR>[TOZINAMERAN NOS] (S - COVID-19 immunisation - Not applicable - [n/a - n/a - n/a])",Not reported,"<a target=""_blank"" href=""https://dap.ema.europa.eu/xmlpserver/PHV%20DAP/Reports/ICSR.xdo?_xpf=&_xt=form&SR_ID=10014474295&_xpt=1&_xf=pdf"">ICSR</a>"
EU-EC-10014455314,Spontaneous,2023-01-19 00:00:00,Non Healthcare Professional,European Economic Area,Not available,18-64 Years,Adult,No,Female,"Dizziness (n/a - Recovered/Resolved - ),<BR><BR>Hypoaesthesia (n/a - Recovered/Resolved - ),<BR><BR>Lymphadenopathy (n/a - Recovered/Resolved - ),<BR><BR>Mobility decreased (n/a - Recovering/Resolving - ),<BR><BR>Nausea (n/a - Recovered/Resolved - ),<BR><BR>Pain in extremity (n/a - Recovering/Resolving - ),<BR><BR>Pain in jaw (n/a - Recovered/Resolved - ),<BR><BR>Pyrexia (n/a - Recovered/Resolved - ),<BR><BR>Sensory disturbance (n/a - Recovered/Resolved - ),<BR><BR>Somnolence (n/a - Recovered/Resolved - ),<BR><BR>Tinnitus (n/a - Recovered/Resolved - ),<BR><BR>Toothache (n/a - Recovered/Resolved - )","NUVAXOVID [NVX-COV2373, MATRIX M] (S - COVID-19 immunisation - n/a - [n/a - 1{DF} - n/a])","[COLECALCIFEROL, CALCIUM CARBONATE] (C - Osteopenia - n/a - [n/a - n/a - n/a]),<BR><BR>[COLECALCIFEROL] (C - Osteopenia - n/a - [n/a - n/a - n/a]),<BR><BR>[DYDROGESTERONE, ESTRADIOL, DYDROGESTERONE, ESTRADIOL HEMIHYDRATE] (C - Osteopenia - n/a - [n/a - n/a - n/a]),<BR><BR>[PREDNISOLONE] (C - Rheumatic disorder - n/a - [n/a - 5mg - n/a]),<BR><BR>[SODIUM HYALURONATE] (C - Osteopenia - Dose not changed - [n/a - 2[drp] - n/a]),<BR><BR>[TREHALOSE] (C - Osteopenia - Dose not changed - [n/a - 2[drp] - n/a])","<a target=""_blank"" href=""https://dap.ema.europa.eu/xmlpserver/PHV%20DAP/Reports/ICSR.xdo?_xpf=&_xt=form&SR_ID=10014455314&_xpt=1&_xf=pdf"">ICSR</a>"
EU-EC-10014455316,Spontaneous,2023-01-19 00:00:00,Non Healthcare Professional,European Economic Area,Not available,18-64 Years,Adult,No,Female,"Cardiovascular disorder (n/a - Recovered/Resolved - ),<BR><BR>Fatigue (n/a - Recovered/Resolved - ),<BR><BR>Joint swelling (n/a - Recovered/Resolved - ),<BR><BR>Lymphadenopathy (n/a - Recovering/Resolving - ),<BR><BR>Mobility decreased (n/a - Not Recovered/Not Resolved - ),<BR><BR>Pain in extremity (n/a - Recovering/Resolving - ),<BR><BR>Pain in jaw (n/a - Recovered/Resolved - ),<BR><BR>Toothache (n/a - Recovered/Resolved - )","NUVAXOVID [NVX-COV2373, MATRIX M] (S - COVID-19 immunisation - n/a - [n/a - 1{DF} - n/a])","[COLECALCIFEROL, CALCIUM CARBONATE] (C - Osteopenia - n/a - [n/a - n/a - n/a]),<BR><BR>[COLECALCIFEROL] (C - Osteopenia - n/a - [n/a - n/a - n/a]),<BR><BR>[DYDROGESTERONE, ESTRADIOL, DYDROGESTERONE, ESTRADIOL HEMIHYDRATE] (C - Osteopenia - n/a - [n/a - n/a - n/a]),<BR><BR>[PREDNISOLONE] (C - Rheumatic disorder - n/a - [n/a - 5mg - n/a])","<a target=""_blank"" href=""https://dap.ema.europa.eu/xmlpserver/PHV%20DAP/Reports/ICSR.xdo?_xpf=&_xt=form&SR_ID=10014455316&_xpt=1&_xf=pdf"">ICSR</a>"
EU-EC-10014446317,Spontaneous,2023-01-18 00:00:00,Healthcare Professional,Non European Economic Area,Not available,18-64 Years,Not Specified,No,Female,"Chest pain (n/a - Recovering/Resolving - ),<BR><BR>Dyspnoea (n/a - Recovering/Resolving - ),<BR><BR>Electrocardiogram abnormal (n/a - Recovering/Resolving - ),<BR><BR>Interchange of vaccine products (n/a - Unknown - Other Medically Important Condition),<BR><BR>Magnetic resonance imaging abnormal (n/a - Recovering/Resolving - ),<BR><BR>Malaise (n/a - Recovering/Resolving - ),<BR><BR>Myopericarditis (n/a - Recovering/Resolving - Other Medically Important Condition),<BR><BR>N-terminal prohormone brain natriuretic peptide increased (n/a - Recovering/Resolving - ),<BR><BR>Off label use (n/a - Unknown - Other Medically Important Condition),<BR><BR>Palpitations (n/a - Recovering/Resolving - ),<BR><BR>Symptom recurrence (n/a - Recovering/Resolving - ),<BR><BR>Troponin I increased (n/a - Recovering/Resolving - )","COMIRNATY [TOZINAMERAN] (S - COVID-19 immunisation - Not applicable - [n/a - n/a - n/a]),<BR><BR>NUVAXOVID [NVX-COV2373, MATRIX M] (S - n/a - Not applicable - [n/a - n/a - n/a])",Not reported,"<a target=""_blank"" href=""https://dap.ema.europa.eu/xmlpserver/PHV%20DAP/Reports/ICSR.xdo?_xpf=&_xt=form&SR_ID=10014446317&_xpt=1&_xf=pdf"">ICSR</a>"
EU-EC-10014432425,Spontaneous,2023-01-16 00:00:00,Healthcare Professional,European Economic Area,Not available,18-64 Years,Adult,No,Female,"Anaphylactic shock (n/a - Not Recovered/Not Resolved - Life Threatening, Caused/Prolonged Hospitalisation),<BR><BR>Pericardial effusion (n/a - Not Recovered/Not Resolved - Life Threatening, Caused/Prolonged Hospitalisation),<BR><BR>Pericarditis (n/a - Not Recovered/Not Resolved - Life Threatening, Caused/Prolonged Hospitalisation)","NUVAXOVID [NVX-COV2373, MATRIX M] (S - Immunisation - n/a - [n/a - n/a - n/a])",Not reported,"<a target=""_blank"" href=""https://dap.ema.europa.eu/xmlpserver/PHV%20DAP/Reports/ICSR.xdo?_xpf=&_xt=form&SR_ID=10014432425&_xpt=1&_xf=pdf"">ICSR</a>"
EU-EC-10014416068,Spontaneous,2023-01-13 00:00:00,Healthcare Professional,Non European Economic Area,Not available,18-64 Years,Not Specified,No,Female,Heart rate (n/a - Not Recovered/Not Resolved - Other Medically Important Condition),"NUVAXOVID [NVX-COV2373, MATRIX M] (S - COVID-19 immunisation - Not applicable - [n/a - n/a - n/a]),<BR><BR>NUVAXOVID [NVX-COV2373, MATRIX M] (S - n/a - Unknown - [n/a - n/a - n/a]),<BR><BR>VAXZEVRIA [COVID-19 VACCINE ASTRAZENECA (CHADOX1 NCOV-19)] (S - COVID-19 immunisation - Not applicable - [n/a - n/a - Intramuscular use])",Not reported,"<a target=""_blank"" href=""https://dap.ema.europa.eu/xmlpserver/PHV%20DAP/Reports/ICSR.xdo?_xpf=&_xt=form&SR_ID=10014416068&_xpt=1&_xf=pdf"">ICSR</a>"
EU-EC-10014405943,Spontaneous,2023-01-12 00:00:00,Healthcare Professional,Non European Economic Area,Not available,65-85 Years,Not Specified,No,Female,"COVID-19 (n/a - Unknown - Other Medically Important Condition),<BR><BR>Interchange of vaccine products (n/a - Unknown - Other Medically Important Condition),<BR><BR>Vaccination failure (n/a - Unknown - Other Medically Important Condition)","COMIRNATY [TOZINAMERAN] (S - COVID-19 immunisation - Not applicable - [1d - n/a - n/a]),<BR><BR>[NVX-COV2373] (S - COVID-19 immunisation - Not applicable - [1d - n/a - n/a])",Not reported,"<a target=""_blank"" href=""https://dap.ema.europa.eu/xmlpserver/PHV%20DAP/Reports/ICSR.xdo?_xpf=&_xt=form&SR_ID=10014405943&_xpt=1&_xf=pdf"">ICSR</a>"
EU-EC-10014411647,Spontaneous,2023-01-12 00:00:00,Non Healthcare Professional,European Economic Area,Not available,18-64 Years,Adult,No,Male,"Chills (37d - Recovering/Resolving - Caused/Prolonged Hospitalisation),<BR><BR>Headache (37d - Recovering/Resolving - Caused/Prolonged Hospitalisation),<BR><BR>Limb discomfort (37d - Recovering/Resolving - Caused/Prolonged Hospitalisation),<BR><BR>Lymphadenopathy (37d - Recovering/Resolving - Caused/Prolonged Hospitalisation),<BR><BR>Myocarditis (37d - Recovering/Resolving - Caused/Prolonged Hospitalisation),<BR><BR>Pyrexia (37d - Recovering/Resolving - Caused/Prolonged Hospitalisation)","NUVAXOVID [NVX-COV2373, MATRIX M] (S - Immunisation - n/a - [n/a - n/a - n/a])",Not reported,"<a target=""_blank"" href=""https://dap.ema.europa.eu/xmlpserver/PHV%20DAP/Reports/ICSR.xdo?_xpf=&_xt=form&SR_ID=10014411647&_xpt=1&_xf=pdf"">ICSR</a>"
EU-EC-10014400080,Spontaneous,2023-01-11 00:00:00,Non Healthcare Professional,European Economic Area,Not available,18-64 Years,Not Specified,No,Female,"Arthralgia (2d - Recovered/Resolved - ),<BR><BR>Chills (2d - Recovered/Resolved - ),<BR><BR>Fatigue (2d - Recovered/Resolved - ),<BR><BR>Headache (2d - Recovered/Resolved - ),<BR><BR>Injection site reaction (2d - Recovered/Resolved - ),<BR><BR>Malaise (2d - Recovered/Resolved - ),<BR><BR>Myalgia (2d - Recovered/Resolved - ),<BR><BR>Nausea (2d - Recovered/Resolved - ),<BR><BR>Pyrexia (2d - Recovered/Resolved - )","NUVAXOVID [NVX-COV2373, MATRIX M] (S - COVID-19 immunisation - Not applicable - [n/a - n/a - n/a])",Not reported,"<a target=""_blank"" href=""https://dap.ema.europa.eu/xmlpserver/PHV%20DAP/Reports/ICSR.xdo?_xpf=&_xt=form&SR_ID=10014400080&_xpt=1&_xf=pdf"">ICSR</a>"
EU-EC-10014388040,Spontaneous,2023-01-09 00:00:00,Non Healthcare Professional,Non European Economic Area,Not available,18-64 Years,Not Specified,No,Male,"COVID-19 (n/a - Recovered/Resolved With Sequelae - Life Threatening, Caused/Prolonged Hospitalisation, Other Medically Important Condition),<BR><BR>Chest pain (n/a - Unknown - Life Threatening, Caused/Prolonged Hospitalisation, Other Medically Important Condition),<BR><BR>Drug ineffective (n/a - Recovered/Resolved With Sequelae - Life Threatening, Caused/Prolonged Hospitalisation, Other Medically Important Condition),<BR><BR>Dyspnoea (n/a - Unknown - Life Threatening, Caused/Prolonged Hospitalisation, Other Medically Important Condition),<BR><BR>Fatigue (n/a - Unknown - Life Threatening, Caused/Prolonged Hospitalisation, Other Medically Important Condition),<BR><BR>Myocardial injury (n/a - Not Recovered/Not Resolved - Life Threatening, Caused/Prolonged Hospitalisation, Other Medically Important Condition),<BR><BR>Palpitations (n/a - Unknown - Life Threatening, Caused/Prolonged Hospitalisation, Other Medically Important Condition),<BR><BR>Pericardial effusion (n/a - Unknown - Life Threatening, Caused/Prolonged Hospitalisation, Other Medically Important Condition),<BR><BR>Pyrexia (n/a - Unknown - Life Threatening, Caused/Prolonged Hospitalisation, Other Medically Important Condition),<BR><BR>Systemic scleroderma (n/a - Not Recovered/Not Resolved - Life Threatening, Caused/Prolonged Hospitalisation, Other Medically Important Condition),<BR><BR>Tachycardia (n/a - Unknown - Life Threatening, Caused/Prolonged Hospitalisation, Other Medically Important Condition),<BR><BR>Traumatic lung injury (n/a - Not Recovered/Not Resolved - Life Threatening, Caused/Prolonged Hospitalisation, Other Medically Important Condition)","NUVAXOVID [NVX-COV2373, MATRIX M] (S - COVID-19 immunisation - Not applicable - [n/a - n/a - n/a]),<BR><BR>TOZINAMERAN [TOZINAMERAN] (S - COVID-19 immunisation - Not applicable - [n/a - n/a - n/a])",Not reported,"<a target=""_blank"" href=""https://dap.ema.europa.eu/xmlpserver/PHV%20DAP/Reports/ICSR.xdo?_xpf=&_xt=form&SR_ID=10014388040&_xpt=1&_xf=pdf"">ICSR</a>"
EU-EC-10014389316,Spontaneous,2023-01-09 00:00:00,Non Healthcare Professional,European Economic Area,Not available,18-64 Years,Not Specified,No,Female,"COVID-19 immunisation (n/a - Recovered/Resolved - ),<BR><BR>Off label use (n/a - Recovered/Resolved - ),<BR><BR>Pyrexia (121min - Recovered/Resolved - )","NUVAXOVID [NVX-COV2373, MATRIX M] (S - COVID-19 immunisation - Not applicable - [n/a - n/a - n/a])","[LOSARTAN, LOSARTAN POTASSIUM] (C - n/a - n/a - [n/a - 50mg - n/a])","<a target=""_blank"" href=""https://dap.ema.europa.eu/xmlpserver/PHV%20DAP/Reports/ICSR.xdo?_xpf=&_xt=form&SR_ID=10014389316&_xpt=1&_xf=pdf"">ICSR</a>"
EU-EC-10014368084,Spontaneous,2023-01-05 00:00:00,Non Healthcare Professional,European Economic Area,Not available,18-64 Years,Not Specified,No,Female,"Angioedema (n/a - Unknown - ),<BR><BR>Extrasystoles (n/a - Recovered/Resolved - ),<BR><BR>Polymenorrhoea (n/a - Recovered/Resolved - ),<BR><BR>Urticaria (n/a - Not Recovered/Not Resolved - )","NUVAXOVID [NVX-COV2373, MATRIX M] (S - COVID-19 immunisation - n/a - [n/a - n/a - Intramuscular use])",Not reported,"<a target=""_blank"" href=""https://dap.ema.europa.eu/xmlpserver/PHV%20DAP/Reports/ICSR.xdo?_xpf=&_xt=form&SR_ID=10014368084&_xpt=1&_xf=pdf"">ICSR</a>"
EU-EC-10014373152,Spontaneous,2023-01-05 00:00:00,Non Healthcare Professional,European Economic Area,Not available,Not Specified,Adult,No,Female,Cough (n/a - Not Recovered/Not Resolved - ),"NUVAXOVID [NVX-COV2373, MATRIX M] (S - COVID-19 immunisation - Not applicable - [n/a - 1{DF} - n/a])",Not reported,"<a target=""_blank"" href=""https://dap.ema.europa.eu/xmlpserver/PHV%20DAP/Reports/ICSR.xdo?_xpf=&_xt=form&SR_ID=10014373152&_xpt=1&_xf=pdf"">ICSR</a>"
EU-EC-10014365114,Spontaneous,2023-01-04 00:00:00,Non Healthcare Professional,European Economic Area,Not available,18-64 Years,Adult,No,Female,"Heavy menstrual bleeding (n/a - Recovered/Resolved With Sequelae - ),<BR><BR>Menstrual discomfort (n/a - Recovered/Resolved With Sequelae - ),<BR><BR>Menstruation irregular (n/a - Recovered/Resolved With Sequelae - ),<BR><BR>Myalgia (n/a - Recovered/Resolved With Sequelae - ),<BR><BR>Vaccination site pain (n/a - Recovered/Resolved With Sequelae - )","NUVAXOVID [NVX-COV2373, MATRIX M] (S - Immunisation - n/a - [n/a - n/a - Intramuscular use])",Not reported,"<a target=""_blank"" href=""https://dap.ema.europa.eu/xmlpserver/PHV%20DAP/Reports/ICSR.xdo?_xpf=&_xt=form&SR_ID=10014365114&_xpt=1&_xf=pdf"">ICSR</a>"
EU-EC-10014367427,Spontaneous,2023-01-04 00:00:00,Non Healthcare Professional,Non European Economic Area,Not available,18-64 Years,Not Specified,No,Female,"COVID-19 (n/a - Recovering/Resolving - Other Medically Important Condition),<BR><BR>Drug ineffective (n/a - Recovering/Resolving - Other Medically Important Condition),<BR><BR>Interchange of vaccine products (n/a - Unknown - Other Medically Important Condition),<BR><BR>Off label use (n/a - Unknown - Other Medically Important Condition)","COMIRNATY [TOZINAMERAN] (S - COVID-19 immunisation - Not applicable - [n/a - n/a - n/a]),<BR><BR>[NVX-COV2373] (S - COVID-19 immunisation - Not applicable - [n/a - n/a - n/a])",Not reported,"<a target=""_blank"" href=""https://dap.ema.europa.eu/xmlpserver/PHV%20DAP/Reports/ICSR.xdo?_xpf=&_xt=form&SR_ID=10014367427&_xpt=1&_xf=pdf"">ICSR</a>"
EU-EC-10014353318,Spontaneous,2023-01-03 00:00:00,Healthcare Professional,Non European Economic Area,"Ahmad, S.. Myopericarditis following both BNT162b2 and NVX-CoV2373. Allergy, Asthma &amp; Clinical Immunology. 2022;18 (1):10.1186/s13223-022-00750-7. doi:10.1186/s13223-022-00750-7",18-64 Years,Not Specified,No,Male,"COVID-19 (n/a - Unknown - Other Medically Important Condition),<BR><BR>Drug ineffective (n/a - Unknown - Other Medically Important Condition),<BR><BR>Interchange of vaccine products (n/a - Recovered/Resolved - Caused/Prolonged Hospitalisation, Other Medically Important Condition),<BR><BR>Pericarditis (3mo - Recovered/Resolved - Caused/Prolonged Hospitalisation, Other Medically Important Condition)","TOZINAMERAN [TOZINAMERAN] (S - COVID-19 immunisation - Not applicable - [n/a - n/a - n/a]),<BR><BR>[NVX-COV2373] (S - COVID-19 immunisation - Not applicable - [n/a - n/a - n/a])",Not reported,"<a target=""_blank"" href=""https://dap.ema.europa.eu/xmlpserver/PHV%20DAP/Reports/ICSR.xdo?_xpf=&_xt=form&SR_ID=10014353318&_xpt=1&_xf=pdf"">ICSR</a>"
EU-EC-10014353322,Spontaneous,2023-01-03 00:00:00,Healthcare Professional,Non European Economic Area,"Ahmad, S.. Myopericarditis following both BNT162b2 and NVX-CoV2373. Allergy, asthma, and clinical immunology. 2022;18 (1):10.1186/s13223-022-00750-7. doi:10.1186/s13223-022-00750-7",18-64 Years,Not Specified,No,Female,"Interchange of vaccine products (n/a - Unknown - Other Medically Important Condition),<BR><BR>Myopericarditis (n/a - Not Recovered/Not Resolved - Caused/Prolonged Hospitalisation, Other Medically Important Condition)","TOZINAMERAN [TOZINAMERAN] (S - COVID-19 immunisation - Not applicable - [n/a - n/a - n/a]),<BR><BR>[NVX-COV2373] (S - COVID-19 immunisation - Not applicable - [n/a - n/a - n/a])",Not reported,"<a target=""_blank"" href=""https://dap.ema.europa.eu/xmlpserver/PHV%20DAP/Reports/ICSR.xdo?_xpf=&_xt=form&SR_ID=10014353322&_xpt=1&_xf=pdf"">ICSR</a>"
EU-EC-10014357338,Spontaneous,2023-01-03 00:00:00,Healthcare Professional,European Economic Area,Not available,18-64 Years,Adult,No,Female,"Breast pain (n/a - Not Recovered/Not Resolved - ),<BR><BR>Menstruation delayed (n/a - Not Recovered/Not Resolved - )","NUVAXOVID [NVX-COV2373, MATRIX M] (S - COVID-19 immunisation - n/a - [1d - 1{DF} - Intramuscular use])",Not reported,"<a target=""_blank"" href=""https://dap.ema.europa.eu/xmlpserver/PHV%20DAP/Reports/ICSR.xdo?_xpf=&_xt=form&SR_ID=10014357338&_xpt=1&_xf=pdf"">ICSR</a>"
EU-EC-10014357712,Spontaneous,2023-01-03 00:00:00,Non Healthcare Professional,European Economic Area,Not available,65-85 Years,Elderly,No,Female,Hypoacusis (n/a - Not Recovered/Not Resolved - Other Medically Important Condition),"NUVAXOVID [NVX-COV2373, MATRIX M] (S - COVID-19 immunisation - Not applicable - [1d - n/a - n/a])",Not reported,"<a target=""_blank"" href=""https://dap.ema.europa.eu/xmlpserver/PHV%20DAP/Reports/ICSR.xdo?_xpf=&_xt=form&SR_ID=10014357712&_xpt=1&_xf=pdf"">ICSR</a>"
EU-EC-10014351380,Spontaneous,2023-01-02 00:00:00,Healthcare Professional,European Economic Area,Not available,18-64 Years,Adult,No,Male,"Pericardial effusion (n/a - Not Recovered/Not Resolved - Life Threatening, Caused/Prolonged Hospitalisation),<BR><BR>Pericarditis (n/a - Unknown - Life Threatening, Caused/Prolonged Hospitalisation)","NUVAXOVID [NVX-COV2373, MATRIX M] (S - Immunisation - n/a - [n/a - 2{DF} - n/a])",Not reported,"<a target=""_blank"" href=""https://dap.ema.europa.eu/xmlpserver/PHV%20DAP/Reports/ICSR.xdo?_xpf=&_xt=form&SR_ID=10014351380&_xpt=1&_xf=pdf"">ICSR</a>"