﻿EU Local Number,Report Type,EV Gateway Receipt Date,Primary Source Qualification,Primary Source Country for Regulatory Purposes,Literature Reference,Patient Age Group,Patient Age Group (as per reporter),Parent Child Report,Patient Sex,Reaction List PT (Duration – Outcome - Seriousness Criteria),Suspect/interacting Drug List (Drug Char - Indication PT - Action taken - [Duration - Dose - Route]),Concomitant/Not Administered Drug List (Drug Char - Indication PT - Action taken - [Duration - Dose - Route]),ICSR Form
EU-EC-10014652497,Spontaneous,2023-02-20 00:00:00,Healthcare Professional,European Economic Area,Not available,18-64 Years,Adult,No,Male,"Gastrointestinal disorder (2d - Recovering/Resolving - ),<BR><BR>Immunisation reaction (2d - Recovering/Resolving - )","VIDPREVTYN BETA [POLYSORBATE 80, SARS-COV-2, B.1.351 VARIANT, PREFUSION SPIKE DELTA TM PROTEIN, RECOMBINANT, SQUALENE, DL-ALPHA-TOCOPHEROL] (S - Immunisation - Not applicable - [1d - 1{DF} - Intramuscular use])",Not reported,"<a target=""_blank"" href=""https://dap.ema.europa.eu/xmlpserver/PHV%20DAP/Reports/ICSR.xdo?_xpf=&_xt=form&SR_ID=10014652497&_xpt=1&_xf=pdf"">ICSR</a>"
EU-EC-10014605397,Spontaneous,2023-02-13 00:00:00,Healthcare Professional,European Economic Area,Not available,18-64 Years,Adult,No,Female,Immunisation reaction (5d - Recovering/Resolving - ),"VIDPREVTYN BETA [POLYSORBATE 80, SARS-COV-2, B.1.351 VARIANT, PREFUSION SPIKE DELTA TM PROTEIN, RECOMBINANT, SQUALENE, DL-ALPHA-TOCOPHEROL] (S - COVID-19 immunisation - Not applicable - [1d - 1{DF} - Intramuscular use])",Not reported,"<a target=""_blank"" href=""https://dap.ema.europa.eu/xmlpserver/PHV%20DAP/Reports/ICSR.xdo?_xpf=&_xt=form&SR_ID=10014605397&_xpt=1&_xf=pdf"">ICSR</a>"
EU-EC-10014562381,Spontaneous,2023-02-06 00:00:00,Non Healthcare Professional,European Economic Area,Not available,65-85 Years,Not Specified,No,Not Specified,Immunisation reaction (n/a - Unknown - ),"VIDPREVTYN BETA [POLYSORBATE 80, SARS-COV-2, B.1.351 VARIANT, PREFUSION SPIKE DELTA TM PROTEIN, RECOMBINANT, SQUALENE, DL-ALPHA-TOCOPHEROL] (S - COVID-19 immunisation - Not applicable - [n/a - n/a - n/a])",Not reported,"<a target=""_blank"" href=""https://dap.ema.europa.eu/xmlpserver/PHV%20DAP/Reports/ICSR.xdo?_xpf=&_xt=form&SR_ID=10014562381&_xpt=1&_xf=pdf"">ICSR</a>"