﻿EU Local Number,Report Type,EV Gateway Receipt Date,Primary Source Qualification,Primary Source Country for Regulatory Purposes,Literature Reference,Patient Age Group,Patient Age Group (as per reporter),Parent Child Report,Patient Sex,Reaction List PT (Duration – Outcome - Seriousness Criteria),Suspect/interacting Drug List (Drug Char - Indication PT - Action taken - [Duration - Dose - Route]),Concomitant/Not Administered Drug List (Drug Char - Indication PT - Action taken - [Duration - Dose - Route]),ICSR Form
EU-EC-10014915407,Spontaneous,2023-03-31 00:00:00,Non Healthcare Professional,European Economic Area,Not available,18-64 Years,Not Specified,No,Female,"Antibody test abnormal (n/a - Unknown - Other Medically Important Condition),<BR><BR>Breast cyst (n/a - Unknown - Other Medically Important Condition),<BR><BR>Chest discomfort (n/a - Unknown - Other Medically Important Condition),<BR><BR>Disturbance in attention (n/a - Unknown - Other Medically Important Condition),<BR><BR>Dizziness (n/a - Unknown - Other Medically Important Condition),<BR><BR>Dry eye (n/a - Unknown - Other Medically Important Condition),<BR><BR>Dysphonia (n/a - Unknown - Other Medically Important Condition),<BR><BR>Dyspnoea (n/a - Unknown - Other Medically Important Condition),<BR><BR>Fatigue (n/a - Unknown - Other Medically Important Condition),<BR><BR>Headache (n/a - Unknown - Other Medically Important Condition),<BR><BR>Hyperhidrosis (n/a - Unknown - Other Medically Important Condition),<BR><BR>Influenza (n/a - Unknown - Other Medically Important Condition),<BR><BR>Insomnia (n/a - Unknown - Other Medically Important Condition),<BR><BR>Vertigo (n/a - Unknown - Other Medically Important Condition)","COVID-19 VACCINE (INACTIVATED, ADJUVANTED) VALNEVA [SARS-COV-2 VIRUS, STRAIN WUHAN HCOV-19/ITALY/INMI1-ISL/2020, INACTIVATED, CPG 1018, ALUMINIUM HYDROXIDE] (S - n/a - n/a - [n/a - 1{DF} - Intramuscular use]),<BR><BR>SPIKEVAX [ELASOMERAN] (S - n/a - n/a - [n/a - 1{DF} - Intramuscular use])",Not reported,"<a target=""_blank"" href=""https://dap.ema.europa.eu/xmlpserver/PHV%20DAP/Reports/ICSR.xdo?_xpf=&_xt=form&SR_ID=10014915407&_xpt=1&_xf=pdf"">ICSR</a>"
EU-EC-10014908906,Spontaneous,2023-03-30 00:00:00,Non Healthcare Professional,European Economic Area,Not available,18-64 Years,Adult,No,Female,"Alopecia (443d - Recovered/Resolved With Sequelae - ),<BR><BR>Dyspnoea (443d - Recovered/Resolved With Sequelae - ),<BR><BR>Fatigue (443d - Recovered/Resolved With Sequelae - ),<BR><BR>Somnolence (443d - Recovered/Resolved With Sequelae - )","COVID-19 VACCINE (INACTIVATED, ADJUVANTED) VALNEVA [SARS-COV-2 VIRUS, STRAIN WUHAN HCOV-19/ITALY/INMI1-ISL/2020, INACTIVATED, CPG 1018, ALUMINIUM HYDROXIDE] (S - COVID-19 immunisation - n/a - [n/a - n/a - n/a])",Not reported,"<a target=""_blank"" href=""https://dap.ema.europa.eu/xmlpserver/PHV%20DAP/Reports/ICSR.xdo?_xpf=&_xt=form&SR_ID=10014908906&_xpt=1&_xf=pdf"">ICSR</a>"
EU-EC-10014407259,Spontaneous,2023-01-12 00:00:00,Non Healthcare Professional,European Economic Area,Not available,18-64 Years,Adult,No,Female,Hyperhidrosis (n/a - Not Recovered/Not Resolved - ),"COVID-19 VACCINE (INACTIVATED, ADJUVANTED) VALNEVA [SARS-COV-2 VIRUS, STRAIN WUHAN HCOV-19/ITALY/INMI1-ISL/2020, INACTIVATED, CPG 1018, ALUMINIUM HYDROXIDE] (S - COVID-19 immunisation - n/a - [n/a - n/a - n/a])",Not reported,"<a target=""_blank"" href=""https://dap.ema.europa.eu/xmlpserver/PHV%20DAP/Reports/ICSR.xdo?_xpf=&_xt=form&SR_ID=10014407259&_xpt=1&_xf=pdf"">ICSR</a>"
EU-EC-10014367972,Spontaneous,2023-01-05 00:00:00,Healthcare Professional,European Economic Area,Not available,18-64 Years,Not Specified,No,Male,Vaccination site reaction (n/a - Recovered/Resolved - ),"COVID-19 VACCINE (INACTIVATED, ADJUVANTED) VALNEVA [SARS-COV-2 VIRUS, STRAIN WUHAN HCOV-19/ITALY/INMI1-ISL/2020, INACTIVATED, CPG 1018, ALUMINIUM HYDROXIDE] (S - n/a - n/a - [n/a - n/a - n/a])",Not reported,"<a target=""_blank"" href=""https://dap.ema.europa.eu/xmlpserver/PHV%20DAP/Reports/ICSR.xdo?_xpf=&_xt=form&SR_ID=10014367972&_xpt=1&_xf=pdf"">ICSR</a>"
EU-EC-10014367980,Spontaneous,2023-01-05 00:00:00,Healthcare Professional,European Economic Area,Not available,12-17 Years,Not Specified,No,Male,Vaccination site reaction (n/a - Recovered/Resolved - ),"COVID-19 VACCINE (INACTIVATED, ADJUVANTED) VALNEVA [SARS-COV-2 VIRUS, STRAIN WUHAN HCOV-19/ITALY/INMI1-ISL/2020, INACTIVATED, CPG 1018, ALUMINIUM HYDROXIDE] (S - n/a - n/a - [n/a - n/a - n/a])",Not reported,"<a target=""_blank"" href=""https://dap.ema.europa.eu/xmlpserver/PHV%20DAP/Reports/ICSR.xdo?_xpf=&_xt=form&SR_ID=10014367980&_xpt=1&_xf=pdf"">ICSR</a>"
EU-EC-10014349165,Spontaneous,2023-01-02 00:00:00,Non Healthcare Professional,European Economic Area,Not available,Not Specified,Adult,No,Female,Alopecia (n/a - Recovering/Resolving - ),"COVID-19 VACCINE (INACTIVATED, ADJUVANTED) VALNEVA [SARS-COV-2 VIRUS, STRAIN WUHAN HCOV-19/ITALY/INMI1-ISL/2020, INACTIVATED, CPG 1018, ALUMINIUM HYDROXIDE] (S - COVID-19 immunisation - n/a - [n/a - n/a - n/a])",Not reported,"<a target=""_blank"" href=""https://dap.ema.europa.eu/xmlpserver/PHV%20DAP/Reports/ICSR.xdo?_xpf=&_xt=form&SR_ID=10014349165&_xpt=1&_xf=pdf"">ICSR</a>"